Vec Object: 1 MPI processes
  type: mpi
Process [0]
0
-1.24955
-0.624773
0.624773
1.24955
0.624773
-0.624773
0
-1.24955
-0.624773
0.624773
1.24955
0.624773
-0.624773
-1.71072
-0.0210077
1.70498
1.76838
0.118019
-1.88743
-1.47237
1.02837
1.90929
0.918924
-0.955341
-0.820326
-1.90735
-0.961454
0.922397
1.91879
1.03427
-1.9201
-0.824785
0.0825146
1.52282
1.46892
-0.0219165
-1.48192
-1.52953
-1.49572
-0.0169382
1.48489
1.5344
0.0884094
-1.54761
-0.238662
0.516843
-0.370689
-0.381326
-0.852584
0.546391
0.260085
0.19684
1.1074
0.382752
-1.0166
-0.340043
0.182735
0.0999237
-0.144827
0.0141255
-0.0600666
0.338678
0.331754
0.232181
0.249343
0.163056
0.235746
0.224086
0.321865
-0.169199
-0.0861891
-0.00302577
0.0790539
-0.33646
-0.306086
-0.224715
-0.227472
-0.141097
-0.132495
-0.191945
-0.219101
-0.220542
-0.228738
-0.226892
-0.307285
0.0794421
-0.00268969
-0.0870331
0.321522
0.226012
0.237142
0.250162
0.233454
0.334662
-0.0604923
0.0145527
0.101139
-0.220497
-0.218212
-0.1937
-0.135351
0.0794121
-0.0480161
0.246774
0.178694
0.15271
0.169384
0.238681
0.291428
-0.0677251
0.0628778
0.142702
-0.218998
-0.169113
-0.145921
-0.134379
-0.196634
-0.284081
-0.289971
-0.172168
-0.227216
0.0636674
-0.0697519
-0.154503
0.239765
0.175617
0.150353
0.180756
0.254735
0.309582
-0.0491768
0.0805576
0.162162
-0.31385
-0.289898
-0.200618
-0.14382
0.0465484
-0.0434693
0.187343
0.167982
0.143915
0.209542
-0.0459771
0.0451588
-0.204019
-0.149172
-0.182515
-0.248849
-0.157706
-0.214561
0.046961
-0.0476801
0.217308
0.152872
0.17569
0.198451
-0.0453857
0.0493197
-0.268578
-0.197626
-0.197483
0
-0.0746702
0.197483
0.0746702
0.197483
0.14934
0
0.0746702
-0.14934
-0.197483
-0.0746702
-0.197483
-0.197483
-0.14934
0
-0.0746702
0.197483
0.0746702
0.197483
0.14934
-0.0746702
0
0.0746702
0
0
0
0
0
0
0
0
0
0
0
0
0
0
0
0
0
0
0
0
0
0
0
0
0
0
0
0
0
0
0
0
0
0
0
0
0
0
0
0
0
0
0
0
0
0
0
0
0
0
0
0
0
0
0
0
0
0
0
0
0
0
0
0
0
0
0
0
0
0
0
0
0
0
0
0
0
0
0
0
0
0
0
0
0
0
0
0
0
0
0
0
0
0
0
0
0
0
0
0
0
0
0
0
0
0
0
0
0
0
0
0
0
0
0
0
0
0
0
0
0
0
0
0
0
0
0
0
0
0
0
0
0
0
0
0
