Mat Object: 1 MPI processes
  type: mpiaij
row 0: (0, 0)  (1, 0)  (2, 0)  (3, 0)  (4, 0)  (5, 0)  (6, 0)  (7, 0)  (8, 0)  (9, 0)  (10, 0)  (11, 0)  (12, 0)  (13, 0)  (14, 0)  (15, 0)  (16, 0)  (17, 0)  (24, 0)  (25, 0)  (26, 0)  (29, 0)  (30, 0)  (33, 0)  (36, 0)  (37, 0) 
row 1: (0, 0)  (1, 0)  (2, 0)  (3, 0)  (4, 0)  (5, 0)  (6, 0)  (7, 0)  (8, 0)  (9, 0)  (10, 0)  (11, 0)  (12, 0)  (13, 0)  (14, 0)  (15, 0)  (16, 0)  (17, 0)  (24, 0)  (25, 0)  (26, 0)  (29, 0)  (30, 0)  (33, 0)  (36, 0)  (37, 0) 
row 2: (0, 0)  (1, 0)  (2, 0)  (3, 0)  (4, 0)  (5, 0)  (6, 0)  (7, 0)  (8, 0)  (9, 0)  (10, 0)  (11, 0)  (12, 0)  (13, 0)  (14, 0)  (15, 0)  (16, 0)  (17, 0)  (24, 0)  (25, 0)  (26, 0)  (29, 0)  (30, 0)  (33, 0)  (36, 0)  (37, 0) 
row 3: (0, 0)  (1, 0)  (2, 0)  (3, 0)  (4, 0)  (5, 0)  (6, 0)  (7, 0)  (8, 0)  (12, 0)  (13, 0)  (14, 0)  (21, 0)  (22, 0)  (23, 0)  (24, 0)  (25, 0)  (26, 0)  (30, 0)  (32, 0)  (37, 0)  (38, 0) 
row 4: (0, 0)  (1, 0)  (2, 0)  (3, 0)  (4, 0)  (5, 0)  (6, 0)  (7, 0)  (8, 0)  (12, 0)  (13, 0)  (14, 0)  (21, 0)  (22, 0)  (23, 0)  (24, 0)  (25, 0)  (26, 0)  (30, 0)  (32, 0)  (37, 0)  (38, 0) 
row 5: (0, 0)  (1, 0)  (2, 0)  (3, 0)  (4, 0)  (5, 0)  (6, 0)  (7, 0)  (8, 0)  (12, 0)  (13, 0)  (14, 0)  (21, 0)  (22, 0)  (23, 0)  (24, 0)  (25, 0)  (26, 0)  (30, 0)  (32, 0)  (37, 0)  (38, 0) 
row 6: (0, 0)  (1, 0)  (2, 0)  (3, 0)  (4, 0)  (5, 0)  (6, 0)  (7, 0)  (8, 0)  (9, 0)  (10, 0)  (11, 0)  (18, 0)  (19, 0)  (20, 0)  (21, 0)  (22, 0)  (23, 0)  (24, 0)  (25, 0)  (26, 0)  (34, 0)  (35, 0)  (36, 0)  (37, 0)  (38, 0) 
row 7: (0, 0)  (1, 0)  (2, 0)  (3, 0)  (4, 0)  (5, 0)  (6, 0)  (7, 0)  (8, 0)  (9, 0)  (10, 0)  (11, 0)  (18, 0)  (19, 0)  (20, 0)  (21, 0)  (22, 0)  (23, 0)  (24, 0)  (25, 0)  (26, 0)  (34, 0)  (35, 0)  (36, 0)  (37, 0)  (38, 0) 
row 8: (0, 0)  (1, 0)  (2, 0)  (3, 0)  (4, 0)  (5, 0)  (6, 0)  (7, 0)  (8, 0)  (9, 0)  (10, 0)  (11, 0)  (18, 0)  (19, 0)  (20, 0)  (21, 0)  (22, 0)  (23, 0)  (24, 0)  (25, 0)  (26, 0)  (34, 0)  (35, 0)  (36, 0)  (37, 0)  (38, 0) 
row 9: (0, 0)  (1, 0)  (2, 0)  (6, 0)  (7, 0)  (8, 0)  (9, 0)  (10, 0)  (11, 0)  (15, 0)  (16, 0)  (17, 0)  (18, 0)  (19, 0)  (20, 0)  (24, 0)  (25, 0)  (26, 0)  (27, 0)  (33, 0)  (35, 0)  (36, 0) 
row 10: (0, 0)  (1, 0)  (2, 0)  (6, 0)  (7, 0)  (8, 0)  (9, 0)  (10, 0)  (11, 0)  (15, 0)  (16, 0)  (17, 0)  (18, 0)  (19, 0)  (20, 0)  (24, 0)  (25, 0)  (26, 0)  (27, 0)  (33, 0)  (35, 0)  (36, 0) 
row 11: (0, 0)  (1, 0)  (2, 0)  (6, 0)  (7, 0)  (8, 0)  (9, 0)  (10, 0)  (11, 0)  (15, 0)  (16, 0)  (17, 0)  (18, 0)  (19, 0)  (20, 0)  (24, 0)  (25, 0)  (26, 0)  (27, 0)  (33, 0)  (35, 0)  (36, 0) 
row 12: (0, 0)  (1, 0)  (2, 0)  (3, 0)  (4, 0)  (5, 0)  (12, 0)  (13, 0)  (14, 0)  (15, 0)  (16, 0)  (17, 0)  (18, 0)  (19, 0)  (20, 0)  (21, 0)  (22, 0)  (23, 0)  (24, 0)  (25, 0)  (26, 0)  (28, 0)  (29, 0)  (30, 0)  (31, 0)  (32, 0) 
row 13: (0, 0)  (1, 0)  (2, 0)  (3, 0)  (4, 0)  (5, 0)  (12, 0)  (13, 0)  (14, 0)  (15, 0)  (16, 0)  (17, 0)  (18, 0)  (19, 0)  (20, 0)  (21, 0)  (22, 0)  (23, 0)  (24, 0)  (25, 0)  (26, 0)  (28, 0)  (29, 0)  (30, 0)  (31, 0)  (32, 0) 
row 14: (0, 0)  (1, 0)  (2, 0)  (3, 0)  (4, 0)  (5, 0)  (12, 0)  (13, 0)  (14, 0)  (15, 0)  (16, 0)  (17, 0)  (18, 0)  (19, 0)  (20, 0)  (21, 0)  (22, 0)  (23, 0)  (24, 0)  (25, 0)  (26, 0)  (28, 0)  (29, 0)  (30, 0)  (31, 0)  (32, 0) 
row 15: (0, 0)  (1, 0)  (2, 0)  (9, 0)  (10, 0)  (11, 0)  (12, 0)  (13, 0)  (14, 0)  (15, 0)  (16, 0)  (17, 0)  (18, 0)  (19, 0)  (20, 0)  (24, 0)  (25, 0)  (26, 0)  (27, 0)  (28, 0)  (29, 0)  (33, 0) 
row 16: (0, 0)  (1, 0)  (2, 0)  (9, 0)  (10, 0)  (11, 0)  (12, 0)  (13, 0)  (14, 0)  (15, 0)  (16, 0)  (17, 0)  (18, 0)  (19, 0)  (20, 0)  (24, 0)  (25, 0)  (26, 0)  (27, 0)  (28, 0)  (29, 0)  (33, 0) 
row 17: (0, 0)  (1, 0)  (2, 0)  (9, 0)  (10, 0)  (11, 0)  (12, 0)  (13, 0)  (14, 0)  (15, 0)  (16, 0)  (17, 0)  (18, 0)  (19, 0)  (20, 0)  (24, 0)  (25, 0)  (26, 0)  (27, 0)  (28, 0)  (29, 0)  (33, 0) 
row 18: (6, 0)  (7, 0)  (8, 0)  (9, 0)  (10, 0)  (11, 0)  (12, 0)  (13, 0)  (14, 0)  (15, 0)  (16, 0)  (17, 0)  (18, 0)  (19, 0)  (20, 0)  (21, 0)  (22, 0)  (23, 0)  (24, 0)  (25, 0)  (26, 0)  (27, 0)  (28, 0)  (31, 0)  (34, 0)  (35, 0) 
row 19: (6, 0)  (7, 0)  (8, 0)  (9, 0)  (10, 0)  (11, 0)  (12, 0)  (13, 0)  (14, 0)  (15, 0)  (16, 0)  (17, 0)  (18, 0)  (19, 0)  (20, 0)  (21, 0)  (22, 0)  (23, 0)  (24, 0)  (25, 0)  (26, 0)  (27, 0)  (28, 0)  (31, 0)  (34, 0)  (35, 0) 
row 20: (6, 0)  (7, 0)  (8, 0)  (9, 0)  (10, 0)  (11, 0)  (12, 0)  (13, 0)  (14, 0)  (15, 0)  (16, 0)  (17, 0)  (18, 0)  (19, 0)  (20, 0)  (21, 0)  (22, 0)  (23, 0)  (24, 0)  (25, 0)  (26, 0)  (27, 0)  (28, 0)  (31, 0)  (34, 0)  (35, 0) 
row 21: (3, 0)  (4, 0)  (5, 0)  (6, 0)  (7, 0)  (8, 0)  (12, 0)  (13, 0)  (14, 0)  (18, 0)  (19, 0)  (20, 0)  (21, 0)  (22, 0)  (23, 0)  (24, 0)  (25, 0)  (26, 0)  (31, 0)  (32, 0)  (34, 0)  (38, 0) 
row 22: (3, 0)  (4, 0)  (5, 0)  (6, 0)  (7, 0)  (8, 0)  (12, 0)  (13, 0)  (14, 0)  (18, 0)  (19, 0)  (20, 0)  (21, 0)  (22, 0)  (23, 0)  (24, 0)  (25, 0)  (26, 0)  (31, 0)  (32, 0)  (34, 0)  (38, 0) 
row 23: (3, 0)  (4, 0)  (5, 0)  (6, 0)  (7, 0)  (8, 0)  (12, 0)  (13, 0)  (14, 0)  (18, 0)  (19, 0)  (20, 0)  (21, 0)  (22, 0)  (23, 0)  (24, 0)  (25, 0)  (26, 0)  (31, 0)  (32, 0)  (34, 0)  (38, 0) 
row 24: (0, 0)  (1, 0)  (2, 0)  (3, 0)  (4, 0)  (5, 0)  (6, 0)  (7, 0)  (8, 0)  (9, 0)  (10, 0)  (11, 0)  (12, 0)  (13, 0)  (14, 0)  (15, 0)  (16, 0)  (17, 0)  (18, 0)  (19, 0)  (20, 0)  (21, 0)  (22, 0)  (23, 0)  (24, 0)  (25, 0)  (26, 0)  (27, 0)  (28, 0)  (29, 0)  (30, 0)  (31, 0)  (32, 0)  (33, 0)  (34, 0)  (35, 0)  (36, 0)  (37, 0)  (38, 0) 
row 25: (0, 0)  (1, 0)  (2, 0)  (3, 0)  (4, 0)  (5, 0)  (6, 0)  (7, 0)  (8, 0)  (9, 0)  (10, 0)  (11, 0)  (12, 0)  (13, 0)  (14, 0)  (15, 0)  (16, 0)  (17, 0)  (18, 0)  (19, 0)  (20, 0)  (21, 0)  (22, 0)  (23, 0)  (24, 0)  (25, 0)  (26, 0)  (27, 0)  (28, 0)  (29, 0)  (30, 0)  (31, 0)  (32, 0)  (33, 0)  (34, 0)  (35, 0)  (36, 0)  (37, 0)  (38, 0) 
row 26: (0, 0)  (1, 0)  (2, 0)  (3, 0)  (4, 0)  (5, 0)  (6, 0)  (7, 0)  (8, 0)  (9, 0)  (10, 0)  (11, 0)  (12, 0)  (13, 0)  (14, 0)  (15, 0)  (16, 0)  (17, 0)  (18, 0)  (19, 0)  (20, 0)  (21, 0)  (22, 0)  (23, 0)  (24, 0)  (25, 0)  (26, 0)  (27, 0)  (28, 0)  (29, 0)  (30, 0)  (31, 0)  (32, 0)  (33, 0)  (34, 0)  (35, 0)  (36, 0)  (37, 0)  (38, 0) 
row 27: (9, 0)  (10, 0)  (11, 0)  (15, 0)  (16, 0)  (17, 0)  (18, 0)  (19, 0)  (20, 0)  (24, 0)  (25, 0)  (26, 0) 
row 28: (12, 0)  (13, 0)  (14, 0)  (15, 0)  (16, 0)  (17, 0)  (18, 0)  (19, 0)  (20, 0)  (24, 0)  (25, 0)  (26, 0) 
row 29: (0, 0)  (1, 0)  (2, 0)  (12, 0)  (13, 0)  (14, 0)  (15, 0)  (16, 0)  (17, 0)  (24, 0)  (25, 0)  (26, 0) 
row 30: (0, 0)  (1, 0)  (2, 0)  (3, 0)  (4, 0)  (5, 0)  (12, 0)  (13, 0)  (14, 0)  (24, 0)  (25, 0)  (26, 0) 
row 31: (12, 0)  (13, 0)  (14, 0)  (18, 0)  (19, 0)  (20, 0)  (21, 0)  (22, 0)  (23, 0)  (24, 0)  (25, 0)  (26, 0) 
row 32: (3, 0)  (4, 0)  (5, 0)  (12, 0)  (13, 0)  (14, 0)  (21, 0)  (22, 0)  (23, 0)  (24, 0)  (25, 0)  (26, 0) 
row 33: (0, 0)  (1, 0)  (2, 0)  (9, 0)  (10, 0)  (11, 0)  (15, 0)  (16, 0)  (17, 0)  (24, 0)  (25, 0)  (26, 0) 
row 34: (6, 0)  (7, 0)  (8, 0)  (18, 0)  (19, 0)  (20, 0)  (21, 0)  (22, 0)  (23, 0)  (24, 0)  (25, 0)  (26, 0) 
row 35: (6, 0)  (7, 0)  (8, 0)  (9, 0)  (10, 0)  (11, 0)  (18, 0)  (19, 0)  (20, 0)  (24, 0)  (25, 0)  (26, 0) 
row 36: (0, 0)  (1, 0)  (2, 0)  (6, 0)  (7, 0)  (8, 0)  (9, 0)  (10, 0)  (11, 0)  (24, 0)  (25, 0)  (26, 0) 
row 37: (0, 0)  (1, 0)  (2, 0)  (3, 0)  (4, 0)  (5, 0)  (6, 0)  (7, 0)  (8, 0)  (24, 0)  (25, 0)  (26, 0) 
row 38: (3, 0)  (4, 0)  (5, 0)  (6, 0)  (7, 0)  (8, 0)  (21, 0)  (22, 0)  (23, 0)  (24, 0)  (25, 0)  (26, 0) 
