Vec Object: 1 MPI processes
  type: mpi
Process [0]
-0.666667
0.333333
-0.666667
-0.333333
-0.666667
-0.333333
0.666667
-0.333333
-0.666667
0.333333
0.666667
-0.333333
-0.666667
-0.333333
0.666667
-0.333333
0.666667
0.333333
0.666667
0.333333
0.666667
0.333333
-0.666667
0.333333
0
0
0
-0.0833333
0
-0.0833333
0
0
0
0
-0.0833333
-0.0833333
0
0
0
0.0833333
0
-0.0833333
0
0
0
0
0.0833333
-0.0833333
0
0
0
0
0
-0.166667
0
0
0
-0.0833333
0
0.0833333
0
0
0
0
0.0833333
0.0833333
0
0
0
0.0833333
0
0.0833333
0
0
0
0
-0.0833333
0.0833333
0
0
0
0
0
0.166667
0
0
0
0.0833333
0.0833333
0
0
0
0
-0.0833333
0.0833333
0
0
0
0
0
0.166667
0
0
0
0
0.0833333
-0.0833333
0
0
0
0
0.166667
0
0
0
0
0
-0.0833333
-0.0833333
0
0
0
0
0
-0.166667
0
0
0
0
-0.166667
0
0
0
0
0
0
0
0
0
0
0
0
0
0
0
0
0
0
0
0
0
0
0
0
0
0
0
0
0
0
0
0
0
0
0
0
0
0
0
0
0
0
0
0
0
0
0
0
0
0
0
0
0
0
0
-0.0166667
0
0
-0.0166667
0
0
0.0166667
0
0
0.0166667
0
0.0166667
0
0
0.0166667
0
0.0166667
0
0
0.0166667
0
0
0
-0.0166667
0
0
-0.0166667
0
-0.0166667
0
0
-0.0166667
0
0
0
0
0
0
0
0
0
0
0
0
0
0
0
0
0
0
0
0
0
0
0
0
0
0
0
0
0
0
0
0
0
0
0
0
0
0
0
0
0
0
0
0
0
0
0
0
0
0
0
0
0
0
0
0
