Vec Object: 1 MPI processes
  type: mpi
Process [0]
0
0
0
0
0
0
0
0
0
0
0
0
0
0
0
0
0
0
0
0
0
0
0
0
0
0
0
0
0
0
0
0
0
0
0
0
0
0
0
0
0
0
0
0
0
0
0
0
0
0
0
0
0
0
0
0
0
0
0
0
0
0
0
0
0
0
0
0
0
0
0
0
0
0
0
0
0
0
0
0
0
0.0414029
0.423598
0.0665534
0.0333991
0.510572
0.077575
0.0193894
0.149945
0.0244477
-0.00118329
0.149712
0.0233216
0.00439167
0.0922413
0.0137835
-0.00219246
0.10601
0.0158929
0.00117911
0.0856639
0.0117907
-0.000547864
0.0799152
0.0119416
0.00903145
0.140106
0.0207738
0.00599723
0.102364
0.0149057
0.00248698
0.149845
0.0187594
0.00314529
0.238567
0.0343715
0.0042584
0.0981591
0.0134954
1.43339e-05
0.135814
0.0183014
0.00726928
0.214678
0.0316561
-0.000656384
0.0899025
0.0128739
0.00158458
0.0777609
0.0101515
-0.00409427
0.217235
0.0306433
-0.00311962
0.137166
0.0178507
-0.0129765
0.341368
0.0470316
-0.00634131
0.150172
0.0210061
-0.00829908
0.140935
0.020888
-0.000430054
0.0627307
0.00766538
-0.000622557
0.0908104
0.0110966
0.0218244
0.487666
0.0579542
0.00630622
0.485656
0.062158
0.0190826
0.426402
0.0506736
  type: mpiaij
row 0: (0, 0)  (1, 0)  (2, 0)  (3, 0)  (4, 0)  (5, 0)  (6, 0)  (7, 0)  (8, 0)  (12, 0)  (13, 0)  (14, 0)  (51, 0)  (52, 0)  (53, 0)  (54, 0)  (55, 0)  (56, 0)  (57, 0)  (58, 0)  (59, 0)  (60, 0)  (61, 0)  (62, 0)  (63, 0)  (64, 0)  (65, 0)  (69, 0)  (70, 0)  (71, 0)  (72, 0)  (73, 0)  (74, 0)  (75, 0)  (76, 0)  (77, 0)  (78, 0)  (79, 0)  (80, 0)  (81, 0.369149)  (82, 0)  (83, 0)  (84, 0.0778827)  (85, 0)  (86, 0)  (87, 0.0267452)  (88, 0)  (89, 0)  (93, 0.0200962)  (94, 0)  (95, 0)  (132, 0.0439771)  (133, 0)  (134, 0)  (135, 0.0261551)  (136, 0)  (137, 0)  (138, 0.0649879)  (139, 0)  (140, 0)  (141, 0.0278285)  (142, 0)  (143, 0)  (144, 0.0266672)  (145, 0)  (146, 0)  (150, 0.0197844)  (151, 0)  (152, 0)  (153, 0.070546)  (154, 0)  (155, 0)  (156, 0.0774689)  (157, 0)  (158, 0)  (159, 0.0715839)  (160, 0)  (161, 0) 
row 1: (0, 0)  (1, 0)  (2, 0)  (3, 0)  (4, 0)  (5, 0)  (6, 0)  (7, 0)  (8, 0)  (12, 0)  (13, 0)  (14, 0)  (51, 0)  (52, 0)  (53, 0)  (54, 0)  (55, 0)  (56, 0)  (57, 0)  (58, 0)  (59, 0)  (60, 0)  (61, 0)  (62, 0)  (63, 0)  (64, 0)  (65, 0)  (69, 0)  (70, 0)  (71, 0)  (72, 0)  (73, 0)  (74, 0)  (75, 0)  (76, 0)  (77, 0)  (78, 0)  (79, 0)  (80, 0)  (81, 0)  (82, 0.369149)  (83, 0)  (84, 0)  (85, 0.0778827)  (86, 0)  (87, 0)  (88, 0.0267452)  (89, 0)  (93, 0)  (94, 0.0200962)  (95, 0)  (132, 0)  (133, 0.0439771)  (134, 0)  (135, 0)  (136, 0.0261551)  (137, 0)  (138, 0)  (139, 0.0649879)  (140, 0)  (141, 0)  (142, 0.0278285)  (143, 0)  (144, 0)  (145, 0.0266672)  (146, 0)  (150, 0)  (151, 0.0197844)  (152, 0)  (153, 0)  (154, 0.070546)  (155, 0)  (156, 0)  (157, 0.0774689)  (158, 0)  (159, 0)  (160, 0.0715839)  (161, 0) 
row 2: (0, 0)  (1, 0)  (2, 0)  (3, 0)  (4, 0)  (5, 0)  (6, 0)  (7, 0)  (8, 0)  (12, 0)  (13, 0)  (14, 0)  (51, 0)  (52, 0)  (53, 0)  (54, 0)  (55, 0)  (56, 0)  (57, 0)  (58, 0)  (59, 0)  (60, 0)  (61, 0)  (62, 0)  (63, 0)  (64, 0)  (65, 0)  (69, 0)  (70, 0)  (71, 0)  (72, 0)  (73, 0)  (74, 0)  (75, 0)  (76, 0)  (77, 0)  (78, 0)  (79, 0)  (80, 0)  (81, 0)  (82, 0)  (83, 0.369149)  (84, 0)  (85, 0)  (86, 0.0778827)  (87, 0)  (88, 0)  (89, 0.0267452)  (93, 0)  (94, 0)  (95, 0.0200962)  (132, 0)  (133, 0)  (134, 0.0439771)  (135, 0)  (136, 0)  (137, 0.0261551)  (138, 0)  (139, 0)  (140, 0.0649879)  (141, 0)  (142, 0)  (143, 0.0278285)  (144, 0)  (145, 0)  (146, 0.0266672)  (150, 0)  (151, 0)  (152, 0.0197844)  (153, 0)  (154, 0)  (155, 0.070546)  (156, 0)  (157, 0)  (158, 0.0774689)  (159, 0)  (160, 0)  (161, 0.0715839) 
row 3: (0, 0)  (1, 0)  (2, 0)  (3, 0)  (4, 0)  (5, 0)  (9, 0)  (10, 0)  (11, 0)  (12, 0)  (13, 0)  (14, 0)  (24, 0)  (25, 0)  (26, 0)  (30, 0)  (31, 0)  (32, 0)  (33, 0)  (34, 0)  (35, 0)  (39, 0)  (40, 0)  (41, 0)  (42, 0)  (43, 0)  (44, 0)  (57, 0)  (58, 0)  (59, 0)  (69, 0)  (70, 0)  (71, 0)  (72, 0)  (73, 0)  (74, 0)  (75, 0)  (76, 0)  (77, 0)  (78, 0)  (79, 0)  (80, 0)  (81, 0.0778827)  (82, 0)  (83, 0)  (84, 0.444944)  (85, 0)  (86, 0)  (90, 0.0266843)  (91, 0)  (92, 0)  (93, 0.0200962)  (94, 0)  (95, 0)  (105, 0.0264505)  (106, 0)  (107, 0)  (111, 0.027727)  (112, 0)  (113, 0)  (114, 0.0646854)  (115, 0)  (116, 0)  (120, 0.0256968)  (121, 0)  (122, 0)  (123, 0.0433271)  (124, 0)  (125, 0)  (138, 0.0778215)  (139, 0)  (140, 0)  (150, 0.0197844)  (151, 0)  (152, 0)  (153, 0.0930658)  (154, 0)  (155, 0)  (156, 0.0930632)  (157, 0)  (158, 0)  (159, 0.0711303)  (160, 0)  (161, 0) 
row 4: (0, 0)  (1, 0)  (2, 0)  (3, 0)  (4, 0)  (5, 0)  (9, 0)  (10, 0)  (11, 0)  (12, 0)  (13, 0)  (14, 0)  (24, 0)  (25, 0)  (26, 0)  (30, 0)  (31, 0)  (32, 0)  (33, 0)  (34, 0)  (35, 0)  (39, 0)  (40, 0)  (41, 0)  (42, 0)  (43, 0)  (44, 0)  (57, 0)  (58, 0)  (59, 0)  (69, 0)  (70, 0)  (71, 0)  (72, 0)  (73, 0)  (74, 0)  (75, 0)  (76, 0)  (77, 0)  (78, 0)  (79, 0)  (80, 0)  (81, 0)  (82, 0.0778827)  (83, 0)  (84, 0)  (85, 0.444944)  (86, 0)  (90, 0)  (91, 0.0266843)  (92, 0)  (93, 0)  (94, 0.0200962)  (95, 0)  (105, 0)  (106, 0.0264505)  (107, 0)  (111, 0)  (112, 0.027727)  (113, 0)  (114, 0)  (115, 0.0646854)  (116, 0)  (120, 0)  (121, 0.0256968)  (122, 0)  (123, 0)  (124, 0.0433271)  (125, 0)  (138, 0)  (139, 0.0778215)  (140, 0)  (150, 0)  (151, 0.0197844)  (152, 0)  (153, 0)  (154, 0.0930658)  (155, 0)  (156, 0)  (157, 0.0930632)  (158, 0)  (159, 0)  (160, 0.0711303)  (161, 0) 
row 5: (0, 0)  (1, 0)  (2, 0)  (3, 0)  (4, 0)  (5, 0)  (9, 0)  (10, 0)  (11, 0)  (12, 0)  (13, 0)  (14, 0)  (24, 0)  (25, 0)  (26, 0)  (30, 0)  (31, 0)  (32, 0)  (33, 0)  (34, 0)  (35, 0)  (39, 0)  (40, 0)  (41, 0)  (42, 0)  (43, 0)  (44, 0)  (57, 0)  (58, 0)  (59, 0)  (69, 0)  (70, 0)  (71, 0)  (72, 0)  (73, 0)  (74, 0)  (75, 0)  (76, 0)  (77, 0)  (78, 0)  (79, 0)  (80, 0)  (81, 0)  (82, 0)  (83, 0.0778827)  (84, 0)  (85, 0)  (86, 0.444944)  (90, 0)  (91, 0)  (92, 0.0266843)  (93, 0)  (94, 0)  (95, 0.0200962)  (105, 0)  (106, 0)  (107, 0.0264505)  (111, 0)  (112, 0)  (113, 0.027727)  (114, 0)  (115, 0)  (116, 0.0646854)  (120, 0)  (121, 0)  (122, 0.0256968)  (123, 0)  (124, 0)  (125, 0.0433271)  (138, 0)  (139, 0)  (140, 0.0778215)  (150, 0)  (151, 0)  (152, 0.0197844)  (153, 0)  (154, 0)  (155, 0.0930658)  (156, 0)  (157, 0)  (158, 0.0930632)  (159, 0)  (160, 0)  (161, 0.0711303) 
row 6: (0, 0)  (1, 0)  (2, 0)  (6, 0)  (7, 0)  (8, 0)  (9, 0)  (10, 0)  (11, 0)  (12, 0)  (13, 0)  (14, 0)  (15, 0)  (16, 0)  (17, 0)  (21, 0)  (22, 0)  (23, 0)  (60, 0)  (61, 0)  (62, 0)  (72, 0)  (73, 0)  (74, 0)  (81, 0.0267452)  (82, 0)  (83, 0)  (87, 0.130671)  (88, 0)  (89, 0)  (90, 0.0187535)  (91, 0)  (92, 0)  (93, 0.0200962)  (94, 0)  (95, 0)  (96, 0.0198368)  (97, 0)  (98, 0)  (102, 0.0174107)  (103, 0)  (104, 0)  (141, 0.0278285)  (142, 0)  (143, 0)  (153, 0.0653354)  (154, 0)  (155, 0) 
row 7: (0, 0)  (1, 0)  (2, 0)  (6, 0)  (7, 0)  (8, 0)  (9, 0)  (10, 0)  (11, 0)  (12, 0)  (13, 0)  (14, 0)  (15, 0)  (16, 0)  (17, 0)  (21, 0)  (22, 0)  (23, 0)  (60, 0)  (61, 0)  (62, 0)  (72, 0)  (73, 0)  (74, 0)  (81, 0)  (82, 0.0267452)  (83, 0)  (87, 0)  (88, 0.130671)  (89, 0)  (90, 0)  (91, 0.0187535)  (92, 0)  (93, 0)  (94, 0.0200962)  (95, 0)  (96, 0)  (97, 0.0198368)  (98, 0)  (102, 0)  (103, 0.0174107)  (104, 0)  (141, 0)  (142, 0.0278285)  (143, 0)  (153, 0)  (154, 0.0653354)  (155, 0) 
row 8: (0, 0)  (1, 0)  (2, 0)  (6, 0)  (7, 0)  (8, 0)  (9, 0)  (10, 0)  (11, 0)  (12, 0)  (13, 0)  (14, 0)  (15, 0)  (16, 0)  (17, 0)  (21, 0)  (22, 0)  (23, 0)  (60, 0)  (61, 0)  (62, 0)  (72, 0)  (73, 0)  (74, 0)  (81, 0)  (82, 0)  (83, 0.0267452)  (87, 0)  (88, 0)  (89, 0.130671)  (90, 0)  (91, 0)  (92, 0.0187535)  (93, 0)  (94, 0)  (95, 0.0200962)  (96, 0)  (97, 0)  (98, 0.0198368)  (102, 0)  (103, 0)  (104, 0.0174107)  (141, 0)  (142, 0)  (143, 0.0278285)  (153, 0)  (154, 0)  (155, 0.0653354) 
row 9: (3, 0)  (4, 0)  (5, 0)  (6, 0)  (7, 0)  (8, 0)  (9, 0)  (10, 0)  (11, 0)  (12, 0)  (13, 0)  (14, 0)  (18, 0)  (19, 0)  (20, 0)  (21, 0)  (22, 0)  (23, 0)  (30, 0)  (31, 0)  (32, 0)  (72, 0)  (73, 0)  (74, 0)  (84, 0.0266843)  (85, 0)  (86, 0)  (87, 0.0187535)  (88, 0)  (89, 0)  (90, 0.130468)  (91, 0)  (92, 0)  (93, 0.0200962)  (94, 0)  (95, 0)  (99, 0.0197962)  (100, 0)  (101, 0)  (102, 0.0174107)  (103, 0)  (104, 0)  (111, 0.027727)  (112, 0)  (113, 0)  (153, 0.0652339)  (154, 0)  (155, 0) 
row 10: (3, 0)  (4, 0)  (5, 0)  (6, 0)  (7, 0)  (8, 0)  (9, 0)  (10, 0)  (11, 0)  (12, 0)  (13, 0)  (14, 0)  (18, 0)  (19, 0)  (20, 0)  (21, 0)  (22, 0)  (23, 0)  (30, 0)  (31, 0)  (32, 0)  (72, 0)  (73, 0)  (74, 0)  (84, 0)  (85, 0.0266843)  (86, 0)  (87, 0)  (88, 0.0187535)  (89, 0)  (90, 0)  (91, 0.130468)  (92, 0)  (93, 0)  (94, 0.0200962)  (95, 0)  (99, 0)  (100, 0.0197962)  (101, 0)  (102, 0)  (103, 0.0174107)  (104, 0)  (111, 0)  (112, 0.027727)  (113, 0)  (153, 0)  (154, 0.0652339)  (155, 0) 
row 11: (3, 0)  (4, 0)  (5, 0)  (6, 0)  (7, 0)  (8, 0)  (9, 0)  (10, 0)  (11, 0)  (12, 0)  (13, 0)  (14, 0)  (18, 0)  (19, 0)  (20, 0)  (21, 0)  (22, 0)  (23, 0)  (30, 0)  (31, 0)  (32, 0)  (72, 0)  (73, 0)  (74, 0)  (84, 0)  (85, 0)  (86, 0.0266843)  (87, 0)  (88, 0)  (89, 0.0187535)  (90, 0)  (91, 0)  (92, 0.130468)  (93, 0)  (94, 0)  (95, 0.0200962)  (99, 0)  (100, 0)  (101, 0.0197962)  (102, 0)  (103, 0)  (104, 0.0174107)  (111, 0)  (112, 0)  (113, 0.027727)  (153, 0)  (154, 0)  (155, 0.0652339) 
row 12: (0, 0)  (1, 0)  (2, 0)  (3, 0)  (4, 0)  (5, 0)  (6, 0)  (7, 0)  (8, 0)  (9, 0)  (10, 0)  (11, 0)  (12, 0)  (13, 0)  (14, 0)  (72, 0)  (73, 0)  (74, 0)  (81, 0.0200962)  (82, 0)  (83, 0)  (84, 0.0200962)  (85, 0)  (86, 0)  (87, 0.0200962)  (88, 0)  (89, 0)  (90, 0.0200962)  (91, 0)  (92, 0)  (93, 0.0803846)  (94, 0)  (95, 0)  (153, 0.0401923)  (154, 0)  (155, 0) 
row 13: (0, 0)  (1, 0)  (2, 0)  (3, 0)  (4, 0)  (5, 0)  (6, 0)  (7, 0)  (8, 0)  (9, 0)  (10, 0)  (11, 0)  (12, 0)  (13, 0)  (14, 0)  (72, 0)  (73, 0)  (74, 0)  (81, 0)  (82, 0.0200962)  (83, 0)  (84, 0)  (85, 0.0200962)  (86, 0)  (87, 0)  (88, 0.0200962)  (89, 0)  (90, 0)  (91, 0.0200962)  (92, 0)  (93, 0)  (94, 0.0803846)  (95, 0)  (153, 0)  (154, 0.0401923)  (155, 0) 
row 14: (0, 0)  (1, 0)  (2, 0)  (3, 0)  (4, 0)  (5, 0)  (6, 0)  (7, 0)  (8, 0)  (9, 0)  (10, 0)  (11, 0)  (12, 0)  (13, 0)  (14, 0)  (72, 0)  (73, 0)  (74, 0)  (81, 0)  (82, 0)  (83, 0.0200962)  (84, 0)  (85, 0)  (86, 0.0200962)  (87, 0)  (88, 0)  (89, 0.0200962)  (90, 0)  (91, 0)  (92, 0.0200962)  (93, 0)  (94, 0)  (95, 0.0803846)  (153, 0)  (154, 0)  (155, 0.0401923) 
row 15: (6, 0)  (7, 0)  (8, 0)  (15, 0)  (16, 0)  (17, 0)  (18, 0)  (19, 0)  (20, 0)  (21, 0)  (22, 0)  (23, 0)  (30, 0)  (31, 0)  (32, 0)  (60, 0)  (61, 0)  (62, 0)  (72, 0)  (73, 0)  (74, 0)  (87, 0.0198368)  (88, 0)  (89, 0)  (96, 0.0923834)  (97, 0)  (98, 0)  (99, 0.0175302)  (100, 0)  (101, 0)  (102, 0.0174107)  (103, 0)  (104, 0)  (111, 0.0176496)  (112, 0)  (113, 0)  (141, 0.0199562)  (142, 0)  (143, 0)  (153, 0.0461917)  (154, 0)  (155, 0) 
row 16: (6, 0)  (7, 0)  (8, 0)  (15, 0)  (16, 0)  (17, 0)  (18, 0)  (19, 0)  (20, 0)  (21, 0)  (22, 0)  (23, 0)  (30, 0)  (31, 0)  (32, 0)  (60, 0)  (61, 0)  (62, 0)  (72, 0)  (73, 0)  (74, 0)  (87, 0)  (88, 0.0198368)  (89, 0)  (96, 0)  (97, 0.0923834)  (98, 0)  (99, 0)  (100, 0.0175302)  (101, 0)  (102, 0)  (103, 0.0174107)  (104, 0)  (111, 0)  (112, 0.0176496)  (113, 0)  (141, 0)  (142, 0.0199562)  (143, 0)  (153, 0)  (154, 0.0461917)  (155, 0) 
row 17: (6, 0)  (7, 0)  (8, 0)  (15, 0)  (16, 0)  (17, 0)  (18, 0)  (19, 0)  (20, 0)  (21, 0)  (22, 0)  (23, 0)  (30, 0)  (31, 0)  (32, 0)  (60, 0)  (61, 0)  (62, 0)  (72, 0)  (73, 0)  (74, 0)  (87, 0)  (88, 0)  (89, 0.0198368)  (96, 0)  (97, 0)  (98, 0.0923834)  (99, 0)  (100, 0)  (101, 0.0175302)  (102, 0)  (103, 0)  (104, 0.0174107)  (111, 0)  (112, 0)  (113, 0.0176496)  (141, 0)  (142, 0)  (143, 0.0199562)  (153, 0)  (154, 0)  (155, 0.0461917) 
row 18: (9, 0)  (10, 0)  (11, 0)  (15, 0)  (16, 0)  (17, 0)  (18, 0)  (19, 0)  (20, 0)  (21, 0)  (22, 0)  (23, 0)  (30, 0)  (31, 0)  (32, 0)  (72, 0)  (73, 0)  (74, 0)  (90, 0.0197962)  (91, 0)  (92, 0)  (96, 0.0175302)  (97, 0)  (98, 0)  (99, 0.0746527)  (100, 0)  (101, 0)  (102, 0.0174107)  (103, 0)  (104, 0)  (111, 0.0199156)  (112, 0)  (113, 0)  (153, 0.0373263)  (154, 0)  (155, 0) 
row 19: (9, 0)  (10, 0)  (11, 0)  (15, 0)  (16, 0)  (17, 0)  (18, 0)  (19, 0)  (20, 0)  (21, 0)  (22, 0)  (23, 0)  (30, 0)  (31, 0)  (32, 0)  (72, 0)  (73, 0)  (74, 0)  (90, 0)  (91, 0.0197962)  (92, 0)  (96, 0)  (97, 0.0175302)  (98, 0)  (99, 0)  (100, 0.0746527)  (101, 0)  (102, 0)  (103, 0.0174107)  (104, 0)  (111, 0)  (112, 0.0199156)  (113, 0)  (153, 0)  (154, 0.0373263)  (155, 0) 
row 20: (9, 0)  (10, 0)  (11, 0)  (15, 0)  (16, 0)  (17, 0)  (18, 0)  (19, 0)  (20, 0)  (21, 0)  (22, 0)  (23, 0)  (30, 0)  (31, 0)  (32, 0)  (72, 0)  (73, 0)  (74, 0)  (90, 0)  (91, 0)  (92, 0.0197962)  (96, 0)  (97, 0)  (98, 0.0175302)  (99, 0)  (100, 0)  (101, 0.0746527)  (102, 0)  (103, 0)  (104, 0.0174107)  (111, 0)  (112, 0)  (113, 0.0199156)  (153, 0)  (154, 0)  (155, 0.0373263) 
row 21: (6, 0)  (7, 0)  (8, 0)  (9, 0)  (10, 0)  (11, 0)  (15, 0)  (16, 0)  (17, 0)  (18, 0)  (19, 0)  (20, 0)  (21, 0)  (22, 0)  (23, 0)  (72, 0)  (73, 0)  (74, 0)  (87, 0.0174107)  (88, 0)  (89, 0)  (90, 0.0174107)  (91, 0)  (92, 0)  (96, 0.0174107)  (97, 0)  (98, 0)  (99, 0.0174107)  (100, 0)  (101, 0)  (102, 0.069643)  (103, 0)  (104, 0)  (153, 0.0348215)  (154, 0)  (155, 0) 
row 22: (6, 0)  (7, 0)  (8, 0)  (9, 0)  (10, 0)  (11, 0)  (15, 0)  (16, 0)  (17, 0)  (18, 0)  (19, 0)  (20, 0)  (21, 0)  (22, 0)  (23, 0)  (72, 0)  (73, 0)  (74, 0)  (87, 0)  (88, 0.0174107)  (89, 0)  (90, 0)  (91, 0.0174107)  (92, 0)  (96, 0)  (97, 0.0174107)  (98, 0)  (99, 0)  (100, 0.0174107)  (101, 0)  (102, 0)  (103, 0.069643)  (104, 0)  (153, 0)  (154, 0.0348215)  (155, 0) 
row 23: (6, 0)  (7, 0)  (8, 0)  (9, 0)  (10, 0)  (11, 0)  (15, 0)  (16, 0)  (17, 0)  (18, 0)  (19, 0)  (20, 0)  (21, 0)  (22, 0)  (23, 0)  (72, 0)  (73, 0)  (74, 0)  (87, 0)  (88, 0)  (89, 0.0174107)  (90, 0)  (91, 0)  (92, 0.0174107)  (96, 0)  (97, 0)  (98, 0.0174107)  (99, 0)  (100, 0)  (101, 0.0174107)  (102, 0)  (103, 0)  (104, 0.069643)  (153, 0)  (154, 0)  (155, 0.0348215) 
row 24: (3, 0)  (4, 0)  (5, 0)  (24, 0)  (25, 0)  (26, 0)  (36, 0)  (37, 0)  (38, 0)  (42, 0)  (43, 0)  (44, 0)  (63, 0)  (64, 0)  (65, 0)  (66, 0)  (67, 0)  (68, 0)  (69, 0)  (70, 0)  (71, 0)  (78, 0)  (79, 0)  (80, 0)  (84, 0.0264505)  (85, 0)  (86, 0)  (105, 0.122097)  (106, 0)  (107, 0)  (117, 0.0178723)  (118, 0)  (119, 0)  (123, 0.0275972)  (124, 0)  (125, 0)  (144, 0.0167256)  (145, 0)  (146, 0)  (147, 0.0136668)  (148, 0)  (149, 0)  (150, 0.0197844)  (151, 0)  (152, 0)  (159, 0.0610485)  (160, 0)  (161, 0) 
row 25: (3, 0)  (4, 0)  (5, 0)  (24, 0)  (25, 0)  (26, 0)  (36, 0)  (37, 0)  (38, 0)  (42, 0)  (43, 0)  (44, 0)  (63, 0)  (64, 0)  (65, 0)  (66, 0)  (67, 0)  (68, 0)  (69, 0)  (70, 0)  (71, 0)  (78, 0)  (79, 0)  (80, 0)  (84, 0)  (85, 0.0264505)  (86, 0)  (105, 0)  (106, 0.122097)  (107, 0)  (117, 0)  (118, 0.0178723)  (119, 0)  (123, 0)  (124, 0.0275972)  (125, 0)  (144, 0)  (145, 0.0167256)  (146, 0)  (147, 0)  (148, 0.0136668)  (149, 0)  (150, 0)  (151, 0.0197844)  (152, 0)  (159, 0)  (160, 0.0610485)  (161, 0) 
row 26: (3, 0)  (4, 0)  (5, 0)  (24, 0)  (25, 0)  (26, 0)  (36, 0)  (37, 0)  (38, 0)  (42, 0)  (43, 0)  (44, 0)  (63, 0)  (64, 0)  (65, 0)  (66, 0)  (67, 0)  (68, 0)  (69, 0)  (70, 0)  (71, 0)  (78, 0)  (79, 0)  (80, 0)  (84, 0)  (85, 0)  (86, 0.0264505)  (105, 0)  (106, 0)  (107, 0.122097)  (117, 0)  (118, 0)  (119, 0.0178723)  (123, 0)  (124, 0)  (125, 0.0275972)  (144, 0)  (145, 0)  (146, 0.0167256)  (147, 0)  (148, 0)  (149, 0.0136668)  (150, 0)  (151, 0)  (152, 0.0197844)  (159, 0)  (160, 0)  (161, 0.0610485) 
row 27: (27, 0)  (28, 0)  (29, 0)  (33, 0)  (34, 0)  (35, 0)  (39, 0)  (40, 0)  (41, 0)  (45, 0)  (46, 0)  (47, 0)  (57, 0)  (58, 0)  (59, 0)  (75, 0)  (76, 0)  (77, 0)  (108, 0.0892061)  (109, 0)  (110, 0)  (114, 0.0216159)  (115, 0)  (116, 0)  (120, 0.0160551)  (121, 0)  (122, 0)  (126, 0.0229872)  (127, 0)  (128, 0)  (138, 0.0285479)  (139, 0)  (140, 0)  (156, 0.0446031)  (157, 0)  (158, 0) 
row 28: (27, 0)  (28, 0)  (29, 0)  (33, 0)  (34, 0)  (35, 0)  (39, 0)  (40, 0)  (41, 0)  (45, 0)  (46, 0)  (47, 0)  (57, 0)  (58, 0)  (59, 0)  (75, 0)  (76, 0)  (77, 0)  (108, 0)  (109, 0.0892061)  (110, 0)  (114, 0)  (115, 0.0216159)  (116, 0)  (120, 0)  (121, 0.0160551)  (122, 0)  (126, 0)  (127, 0.0229872)  (128, 0)  (138, 0)  (139, 0.0285479)  (140, 0)  (156, 0)  (157, 0.0446031)  (158, 0) 
row 29: (27, 0)  (28, 0)  (29, 0)  (33, 0)  (34, 0)  (35, 0)  (39, 0)  (40, 0)  (41, 0)  (45, 0)  (46, 0)  (47, 0)  (57, 0)  (58, 0)  (59, 0)  (75, 0)  (76, 0)  (77, 0)  (108, 0)  (109, 0)  (110, 0.0892061)  (114, 0)  (115, 0)  (116, 0.0216159)  (120, 0)  (121, 0)  (122, 0.0160551)  (126, 0)  (127, 0)  (128, 0.0229872)  (138, 0)  (139, 0)  (140, 0.0285479)  (156, 0)  (157, 0)  (158, 0.0446031) 
row 30: (3, 0)  (4, 0)  (5, 0)  (9, 0)  (10, 0)  (11, 0)  (15, 0)  (16, 0)  (17, 0)  (18, 0)  (19, 0)  (20, 0)  (30, 0)  (31, 0)  (32, 0)  (33, 0)  (34, 0)  (35, 0)  (60, 0)  (61, 0)  (62, 0)  (72, 0)  (73, 0)  (74, 0)  (84, 0.027727)  (85, 0)  (86, 0)  (90, 0.027727)  (91, 0)  (92, 0)  (96, 0.0176496)  (97, 0)  (98, 0)  (99, 0.0199156)  (100, 0)  (101, 0)  (111, 0.130584)  (112, 0)  (113, 0)  (114, 0.0199156)  (115, 0)  (116, 0)  (141, 0.0176496)  (142, 0)  (143, 0)  (153, 0.0652922)  (154, 0)  (155, 0) 
row 31: (3, 0)  (4, 0)  (5, 0)  (9, 0)  (10, 0)  (11, 0)  (15, 0)  (16, 0)  (17, 0)  (18, 0)  (19, 0)  (20, 0)  (30, 0)  (31, 0)  (32, 0)  (33, 0)  (34, 0)  (35, 0)  (60, 0)  (61, 0)  (62, 0)  (72, 0)  (73, 0)  (74, 0)  (84, 0)  (85, 0.027727)  (86, 0)  (90, 0)  (91, 0.027727)  (92, 0)  (96, 0)  (97, 0.0176496)  (98, 0)  (99, 0)  (100, 0.0199156)  (101, 0)  (111, 0)  (112, 0.130584)  (113, 0)  (114, 0)  (115, 0.0199156)  (116, 0)  (141, 0)  (142, 0.0176496)  (143, 0)  (153, 0)  (154, 0.0652922)  (155, 0) 
row 32: (3, 0)  (4, 0)  (5, 0)  (9, 0)  (10, 0)  (11, 0)  (15, 0)  (16, 0)  (17, 0)  (18, 0)  (19, 0)  (20, 0)  (30, 0)  (31, 0)  (32, 0)  (33, 0)  (34, 0)  (35, 0)  (60, 0)  (61, 0)  (62, 0)  (72, 0)  (73, 0)  (74, 0)  (84, 0)  (85, 0)  (86, 0.027727)  (90, 0)  (91, 0)  (92, 0.027727)  (96, 0)  (97, 0)  (98, 0.0176496)  (99, 0)  (100, 0)  (101, 0.0199156)  (111, 0)  (112, 0)  (113, 0.130584)  (114, 0)  (115, 0)  (116, 0.0199156)  (141, 0)  (142, 0)  (143, 0.0176496)  (153, 0)  (154, 0)  (155, 0.0652922) 
row 33: (3, 0)  (4, 0)  (5, 0)  (27, 0)  (28, 0)  (29, 0)  (30, 0)  (31, 0)  (32, 0)  (33, 0)  (34, 0)  (35, 0)  (39, 0)  (40, 0)  (41, 0)  (57, 0)  (58, 0)  (59, 0)  (60, 0)  (61, 0)  (62, 0)  (72, 0)  (73, 0)  (74, 0)  (75, 0)  (76, 0)  (77, 0)  (84, 0.0646854)  (85, 0)  (86, 0)  (108, 0.0216159)  (109, 0)  (110, 0)  (111, 0.0199156)  (112, 0)  (113, 0)  (114, 0.207902)  (115, 0)  (116, 0)  (120, 0.0220258)  (121, 0)  (122, 0)  (138, 0.0620095)  (139, 0)  (140, 0)  (141, 0.0176496)  (142, 0)  (143, 0)  (153, 0.0513617)  (154, 0)  (155, 0)  (156, 0.0525892)  (157, 0)  (158, 0) 
row 34: (3, 0)  (4, 0)  (5, 0)  (27, 0)  (28, 0)  (29, 0)  (30, 0)  (31, 0)  (32, 0)  (33, 0)  (34, 0)  (35, 0)  (39, 0)  (40, 0)  (41, 0)  (57, 0)  (58, 0)  (59, 0)  (60, 0)  (61, 0)  (62, 0)  (72, 0)  (73, 0)  (74, 0)  (75, 0)  (76, 0)  (77, 0)  (84, 0)  (85, 0.0646854)  (86, 0)  (108, 0)  (109, 0.0216159)  (110, 0)  (111, 0)  (112, 0.0199156)  (113, 0)  (114, 0)  (115, 0.207902)  (116, 0)  (120, 0)  (121, 0.0220258)  (122, 0)  (138, 0)  (139, 0.0620095)  (140, 0)  (141, 0)  (142, 0.0176496)  (143, 0)  (153, 0)  (154, 0.0513617)  (155, 0)  (156, 0)  (157, 0.0525892)  (158, 0) 
row 35: (3, 0)  (4, 0)  (5, 0)  (27, 0)  (28, 0)  (29, 0)  (30, 0)  (31, 0)  (32, 0)  (33, 0)  (34, 0)  (35, 0)  (39, 0)  (40, 0)  (41, 0)  (57, 0)  (58, 0)  (59, 0)  (60, 0)  (61, 0)  (62, 0)  (72, 0)  (73, 0)  (74, 0)  (75, 0)  (76, 0)  (77, 0)  (84, 0)  (85, 0)  (86, 0.0646854)  (108, 0)  (109, 0)  (110, 0.0216159)  (111, 0)  (112, 0)  (113, 0.0199156)  (114, 0)  (115, 0)  (116, 0.207902)  (120, 0)  (121, 0)  (122, 0.0220258)  (138, 0)  (139, 0)  (140, 0.0620095)  (141, 0)  (142, 0)  (143, 0.0176496)  (153, 0)  (154, 0)  (155, 0.0513617)  (156, 0)  (157, 0)  (158, 0.0525892) 
row 36: (24, 0)  (25, 0)  (26, 0)  (36, 0)  (37, 0)  (38, 0)  (42, 0)  (43, 0)  (44, 0)  (48, 0)  (49, 0)  (50, 0)  (51, 0)  (52, 0)  (53, 0)  (66, 0)  (67, 0)  (68, 0)  (78, 0)  (79, 0)  (80, 0)  (105, 0.0178723)  (106, 0)  (107, 0)  (117, 0.0855418)  (118, 0)  (119, 0)  (123, 0.0200715)  (124, 0)  (125, 0)  (129, 0.015866)  (130, 0)  (131, 0)  (132, 0.0180652)  (133, 0)  (134, 0)  (147, 0.0136668)  (148, 0)  (149, 0)  (159, 0.0427709)  (160, 0)  (161, 0) 
row 37: (24, 0)  (25, 0)  (26, 0)  (36, 0)  (37, 0)  (38, 0)  (42, 0)  (43, 0)  (44, 0)  (48, 0)  (49, 0)  (50, 0)  (51, 0)  (52, 0)  (53, 0)  (66, 0)  (67, 0)  (68, 0)  (78, 0)  (79, 0)  (80, 0)  (105, 0)  (106, 0.0178723)  (107, 0)  (117, 0)  (118, 0.0855418)  (119, 0)  (123, 0)  (124, 0.0200715)  (125, 0)  (129, 0)  (130, 0.015866)  (131, 0)  (132, 0)  (133, 0.0180652)  (134, 0)  (147, 0)  (148, 0.0136668)  (149, 0)  (159, 0)  (160, 0.0427709)  (161, 0) 
row 38: (24, 0)  (25, 0)  (26, 0)  (36, 0)  (37, 0)  (38, 0)  (42, 0)  (43, 0)  (44, 0)  (48, 0)  (49, 0)  (50, 0)  (51, 0)  (52, 0)  (53, 0)  (66, 0)  (67, 0)  (68, 0)  (78, 0)  (79, 0)  (80, 0)  (105, 0)  (106, 0)  (107, 0.0178723)  (117, 0)  (118, 0)  (119, 0.0855418)  (123, 0)  (124, 0)  (125, 0.0200715)  (129, 0)  (130, 0)  (131, 0.015866)  (132, 0)  (133, 0)  (134, 0.0180652)  (147, 0)  (148, 0)  (149, 0.0136668)  (159, 0)  (160, 0)  (161, 0.0427709) 
row 39: (3, 0)  (4, 0)  (5, 0)  (27, 0)  (28, 0)  (29, 0)  (33, 0)  (34, 0)  (35, 0)  (39, 0)  (40, 0)  (41, 0)  (42, 0)  (43, 0)  (44, 0)  (45, 0)  (46, 0)  (47, 0)  (54, 0)  (55, 0)  (56, 0)  (75, 0)  (76, 0)  (77, 0)  (84, 0.0256968)  (85, 0)  (86, 0)  (108, 0.0160551)  (109, 0)  (110, 0)  (114, 0.0220258)  (115, 0)  (116, 0)  (120, 0.118357)  (121, 0)  (122, 0)  (123, 0.0197261)  (124, 0)  (125, 0)  (126, 0.0174264)  (127, 0)  (128, 0)  (135, 0.0174264)  (136, 0)  (137, 0)  (156, 0.0591783)  (157, 0)  (158, 0) 
row 40: (3, 0)  (4, 0)  (5, 0)  (27, 0)  (28, 0)  (29, 0)  (33, 0)  (34, 0)  (35, 0)  (39, 0)  (40, 0)  (41, 0)  (42, 0)  (43, 0)  (44, 0)  (45, 0)  (46, 0)  (47, 0)  (54, 0)  (55, 0)  (56, 0)  (75, 0)  (76, 0)  (77, 0)  (84, 0)  (85, 0.0256968)  (86, 0)  (108, 0)  (109, 0.0160551)  (110, 0)  (114, 0)  (115, 0.0220258)  (116, 0)  (120, 0)  (121, 0.118357)  (122, 0)  (123, 0)  (124, 0.0197261)  (125, 0)  (126, 0)  (127, 0.0174264)  (128, 0)  (135, 0)  (136, 0.0174264)  (137, 0)  (156, 0)  (157, 0.0591783)  (158, 0) 
row 41: (3, 0)  (4, 0)  (5, 0)  (27, 0)  (28, 0)  (29, 0)  (33, 0)  (34, 0)  (35, 0)  (39, 0)  (40, 0)  (41, 0)  (42, 0)  (43, 0)  (44, 0)  (45, 0)  (46, 0)  (47, 0)  (54, 0)  (55, 0)  (56, 0)  (75, 0)  (76, 0)  (77, 0)  (84, 0)  (85, 0)  (86, 0.0256968)  (108, 0)  (109, 0)  (110, 0.0160551)  (114, 0)  (115, 0)  (116, 0.0220258)  (120, 0)  (121, 0)  (122, 0.118357)  (123, 0)  (124, 0)  (125, 0.0197261)  (126, 0)  (127, 0)  (128, 0.0174264)  (135, 0)  (136, 0)  (137, 0.0174264)  (156, 0)  (157, 0)  (158, 0.0591783) 
row 42: (3, 0)  (4, 0)  (5, 0)  (24, 0)  (25, 0)  (26, 0)  (36, 0)  (37, 0)  (38, 0)  (39, 0)  (40, 0)  (41, 0)  (42, 0)  (43, 0)  (44, 0)  (51, 0)  (52, 0)  (53, 0)  (54, 0)  (55, 0)  (56, 0)  (75, 0)  (76, 0)  (77, 0)  (78, 0)  (79, 0)  (80, 0)  (84, 0.0433271)  (85, 0)  (86, 0)  (105, 0.0275972)  (106, 0)  (107, 0)  (117, 0.0200715)  (118, 0)  (119, 0)  (120, 0.0197261)  (121, 0)  (122, 0)  (123, 0.187084)  (124, 0)  (125, 0)  (132, 0.0304627)  (133, 0)  (134, 0)  (135, 0.0174264)  (136, 0)  (137, 0)  (156, 0.056912)  (157, 0)  (158, 0)  (159, 0.0651025)  (160, 0)  (161, 0) 
row 43: (3, 0)  (4, 0)  (5, 0)  (24, 0)  (25, 0)  (26, 0)  (36, 0)  (37, 0)  (38, 0)  (39, 0)  (40, 0)  (41, 0)  (42, 0)  (43, 0)  (44, 0)  (51, 0)  (52, 0)  (53, 0)  (54, 0)  (55, 0)  (56, 0)  (75, 0)  (76, 0)  (77, 0)  (78, 0)  (79, 0)  (80, 0)  (84, 0)  (85, 0.0433271)  (86, 0)  (105, 0)  (106, 0.0275972)  (107, 0)  (117, 0)  (118, 0.0200715)  (119, 0)  (120, 0)  (121, 0.0197261)  (122, 0)  (123, 0)  (124, 0.187084)  (125, 0)  (132, 0)  (133, 0.0304627)  (134, 0)  (135, 0)  (136, 0.0174264)  (137, 0)  (156, 0)  (157, 0.056912)  (158, 0)  (159, 0)  (160, 0.0651025)  (161, 0) 
row 44: (3, 0)  (4, 0)  (5, 0)  (24, 0)  (25, 0)  (26, 0)  (36, 0)  (37, 0)  (38, 0)  (39, 0)  (40, 0)  (41, 0)  (42, 0)  (43, 0)  (44, 0)  (51, 0)  (52, 0)  (53, 0)  (54, 0)  (55, 0)  (56, 0)  (75, 0)  (76, 0)  (77, 0)  (78, 0)  (79, 0)  (80, 0)  (84, 0)  (85, 0)  (86, 0.0433271)  (105, 0)  (106, 0)  (107, 0.0275972)  (117, 0)  (118, 0)  (119, 0.0200715)  (120, 0)  (121, 0)  (122, 0.0197261)  (123, 0)  (124, 0)  (125, 0.187084)  (132, 0)  (133, 0)  (134, 0.0304627)  (135, 0)  (136, 0)  (137, 0.0174264)  (156, 0)  (157, 0)  (158, 0.056912)  (159, 0)  (160, 0)  (161, 0.0651025) 
row 45: (27, 0)  (28, 0)  (29, 0)  (39, 0)  (40, 0)  (41, 0)  (45, 0)  (46, 0)  (47, 0)  (54, 0)  (55, 0)  (56, 0)  (57, 0)  (58, 0)  (59, 0)  (75, 0)  (76, 0)  (77, 0)  (108, 0.0229872)  (109, 0)  (110, 0)  (120, 0.0174264)  (121, 0)  (122, 0)  (126, 0.0783465)  (127, 0)  (128, 0)  (135, 0.0161861)  (136, 0)  (137, 0)  (138, 0.0217468)  (139, 0)  (140, 0)  (156, 0.0391732)  (157, 0)  (158, 0) 
row 46: (27, 0)  (28, 0)  (29, 0)  (39, 0)  (40, 0)  (41, 0)  (45, 0)  (46, 0)  (47, 0)  (54, 0)  (55, 0)  (56, 0)  (57, 0)  (58, 0)  (59, 0)  (75, 0)  (76, 0)  (77, 0)  (108, 0)  (109, 0.0229872)  (110, 0)  (120, 0)  (121, 0.0174264)  (122, 0)  (126, 0)  (127, 0.0783465)  (128, 0)  (135, 0)  (136, 0.0161861)  (137, 0)  (138, 0)  (139, 0.0217468)  (140, 0)  (156, 0)  (157, 0.0391732)  (158, 0) 
row 47: (27, 0)  (28, 0)  (29, 0)  (39, 0)  (40, 0)  (41, 0)  (45, 0)  (46, 0)  (47, 0)  (54, 0)  (55, 0)  (56, 0)  (57, 0)  (58, 0)  (59, 0)  (75, 0)  (76, 0)  (77, 0)  (108, 0)  (109, 0)  (110, 0.0229872)  (120, 0)  (121, 0)  (122, 0.0174264)  (126, 0)  (127, 0)  (128, 0.0783465)  (135, 0)  (136, 0)  (137, 0.0161861)  (138, 0)  (139, 0)  (140, 0.0217468)  (156, 0)  (157, 0)  (158, 0.0391732) 
row 48: (36, 0)  (37, 0)  (38, 0)  (48, 0)  (49, 0)  (50, 0)  (51, 0)  (52, 0)  (53, 0)  (63, 0)  (64, 0)  (65, 0)  (66, 0)  (67, 0)  (68, 0)  (78, 0)  (79, 0)  (80, 0)  (117, 0.015866)  (118, 0)  (119, 0)  (129, 0.0677655)  (130, 0)  (131, 0)  (132, 0.0202159)  (133, 0)  (134, 0)  (144, 0.0180167)  (145, 0)  (146, 0)  (147, 0.0136668)  (148, 0)  (149, 0)  (159, 0.0338828)  (160, 0)  (161, 0) 
row 49: (36, 0)  (37, 0)  (38, 0)  (48, 0)  (49, 0)  (50, 0)  (51, 0)  (52, 0)  (53, 0)  (63, 0)  (64, 0)  (65, 0)  (66, 0)  (67, 0)  (68, 0)  (78, 0)  (79, 0)  (80, 0)  (117, 0)  (118, 0.015866)  (119, 0)  (129, 0)  (130, 0.0677655)  (131, 0)  (132, 0)  (133, 0.0202159)  (134, 0)  (144, 0)  (145, 0.0180167)  (146, 0)  (147, 0)  (148, 0.0136668)  (149, 0)  (159, 0)  (160, 0.0338828)  (161, 0) 
row 50: (36, 0)  (37, 0)  (38, 0)  (48, 0)  (49, 0)  (50, 0)  (51, 0)  (52, 0)  (53, 0)  (63, 0)  (64, 0)  (65, 0)  (66, 0)  (67, 0)  (68, 0)  (78, 0)  (79, 0)  (80, 0)  (117, 0)  (118, 0)  (119, 0.015866)  (129, 0)  (130, 0)  (131, 0.0677655)  (132, 0)  (133, 0)  (134, 0.0202159)  (144, 0)  (145, 0)  (146, 0.0180167)  (147, 0)  (148, 0)  (149, 0.0136668)  (159, 0)  (160, 0)  (161, 0.0338828) 
row 51: (0, 0)  (1, 0)  (2, 0)  (36, 0)  (37, 0)  (38, 0)  (42, 0)  (43, 0)  (44, 0)  (48, 0)  (49, 0)  (50, 0)  (51, 0)  (52, 0)  (53, 0)  (54, 0)  (55, 0)  (56, 0)  (63, 0)  (64, 0)  (65, 0)  (75, 0)  (76, 0)  (77, 0)  (78, 0)  (79, 0)  (80, 0)  (81, 0.0439771)  (82, 0)  (83, 0)  (117, 0.0180652)  (118, 0)  (119, 0)  (123, 0.0304627)  (124, 0)  (125, 0)  (129, 0.0202159)  (130, 0)  (131, 0)  (132, 0.189311)  (133, 0)  (134, 0)  (135, 0.0199225)  (136, 0)  (137, 0)  (144, 0.0279583)  (145, 0)  (146, 0)  (156, 0.0486321)  (157, 0)  (158, 0)  (159, 0.0747332)  (160, 0)  (161, 0) 
row 52: (0, 0)  (1, 0)  (2, 0)  (36, 0)  (37, 0)  (38, 0)  (42, 0)  (43, 0)  (44, 0)  (48, 0)  (49, 0)  (50, 0)  (51, 0)  (52, 0)  (53, 0)  (54, 0)  (55, 0)  (56, 0)  (63, 0)  (64, 0)  (65, 0)  (75, 0)  (76, 0)  (77, 0)  (78, 0)  (79, 0)  (80, 0)  (81, 0)  (82, 0.0439771)  (83, 0)  (117, 0)  (118, 0.0180652)  (119, 0)  (123, 0)  (124, 0.0304627)  (125, 0)  (129, 0)  (130, 0.0202159)  (131, 0)  (132, 0)  (133, 0.189311)  (134, 0)  (135, 0)  (136, 0.0199225)  (137, 0)  (144, 0)  (145, 0.0279583)  (146, 0)  (156, 0)  (157, 0.0486321)  (158, 0)  (159, 0)  (160, 0.0747332)  (161, 0) 
row 53: (0, 0)  (1, 0)  (2, 0)  (36, 0)  (37, 0)  (38, 0)  (42, 0)  (43, 0)  (44, 0)  (48, 0)  (49, 0)  (50, 0)  (51, 0)  (52, 0)  (53, 0)  (54, 0)  (55, 0)  (56, 0)  (63, 0)  (64, 0)  (65, 0)  (75, 0)  (76, 0)  (77, 0)  (78, 0)  (79, 0)  (80, 0)  (81, 0)  (82, 0)  (83, 0.0439771)  (117, 0)  (118, 0)  (119, 0.0180652)  (123, 0)  (124, 0)  (125, 0.0304627)  (129, 0)  (130, 0)  (131, 0.0202159)  (132, 0)  (133, 0)  (134, 0.189311)  (135, 0)  (136, 0)  (137, 0.0199225)  (144, 0)  (145, 0)  (146, 0.0279583)  (156, 0)  (157, 0)  (158, 0.0486321)  (159, 0)  (160, 0)  (161, 0.0747332) 
row 54: (0, 0)  (1, 0)  (2, 0)  (39, 0)  (40, 0)  (41, 0)  (42, 0)  (43, 0)  (44, 0)  (45, 0)  (46, 0)  (47, 0)  (51, 0)  (52, 0)  (53, 0)  (54, 0)  (55, 0)  (56, 0)  (57, 0)  (58, 0)  (59, 0)  (75, 0)  (76, 0)  (77, 0)  (81, 0.0261551)  (82, 0)  (83, 0)  (120, 0.0174264)  (121, 0)  (122, 0)  (123, 0.0174264)  (124, 0)  (125, 0)  (126, 0.0161861)  (127, 0)  (128, 0)  (132, 0.0199225)  (133, 0)  (134, 0)  (135, 0.119535)  (136, 0)  (137, 0)  (138, 0.0224186)  (139, 0)  (140, 0)  (156, 0.0597675)  (157, 0)  (158, 0) 
row 55: (0, 0)  (1, 0)  (2, 0)  (39, 0)  (40, 0)  (41, 0)  (42, 0)  (43, 0)  (44, 0)  (45, 0)  (46, 0)  (47, 0)  (51, 0)  (52, 0)  (53, 0)  (54, 0)  (55, 0)  (56, 0)  (57, 0)  (58, 0)  (59, 0)  (75, 0)  (76, 0)  (77, 0)  (81, 0)  (82, 0.0261551)  (83, 0)  (120, 0)  (121, 0.0174264)  (122, 0)  (123, 0)  (124, 0.0174264)  (125, 0)  (126, 0)  (127, 0.0161861)  (128, 0)  (132, 0)  (133, 0.0199225)  (134, 0)  (135, 0)  (136, 0.119535)  (137, 0)  (138, 0)  (139, 0.0224186)  (140, 0)  (156, 0)  (157, 0.0597675)  (158, 0) 
row 56: (0, 0)  (1, 0)  (2, 0)  (39, 0)  (40, 0)  (41, 0)  (42, 0)  (43, 0)  (44, 0)  (45, 0)  (46, 0)  (47, 0)  (51, 0)  (52, 0)  (53, 0)  (54, 0)  (55, 0)  (56, 0)  (57, 0)  (58, 0)  (59, 0)  (75, 0)  (76, 0)  (77, 0)  (81, 0)  (82, 0)  (83, 0.0261551)  (120, 0)  (121, 0)  (122, 0.0174264)  (123, 0)  (124, 0)  (125, 0.0174264)  (126, 0)  (127, 0)  (128, 0.0161861)  (132, 0)  (133, 0)  (134, 0.0199225)  (135, 0)  (136, 0)  (137, 0.119535)  (138, 0)  (139, 0)  (140, 0.0224186)  (156, 0)  (157, 0)  (158, 0.0597675) 
row 57: (0, 0)  (1, 0)  (2, 0)  (3, 0)  (4, 0)  (5, 0)  (27, 0)  (28, 0)  (29, 0)  (33, 0)  (34, 0)  (35, 0)  (45, 0)  (46, 0)  (47, 0)  (54, 0)  (55, 0)  (56, 0)  (57, 0)  (58, 0)  (59, 0)  (60, 0)  (61, 0)  (62, 0)  (72, 0)  (73, 0)  (74, 0)  (75, 0)  (76, 0)  (77, 0)  (81, 0.0649879)  (82, 0)  (83, 0)  (84, 0.0778215)  (85, 0)  (86, 0)  (108, 0.0285479)  (109, 0)  (110, 0)  (114, 0.0620095)  (115, 0)  (116, 0)  (126, 0.0217468)  (127, 0)  (128, 0)  (135, 0.0224186)  (136, 0)  (137, 0)  (138, 0.297488)  (139, 0)  (140, 0)  (141, 0.0199562)  (142, 0)  (143, 0)  (153, 0.0651988)  (154, 0)  (155, 0)  (156, 0.0835454)  (157, 0)  (158, 0) 
row 58: (0, 0)  (1, 0)  (2, 0)  (3, 0)  (4, 0)  (5, 0)  (27, 0)  (28, 0)  (29, 0)  (33, 0)  (34, 0)  (35, 0)  (45, 0)  (46, 0)  (47, 0)  (54, 0)  (55, 0)  (56, 0)  (57, 0)  (58, 0)  (59, 0)  (60, 0)  (61, 0)  (62, 0)  (72, 0)  (73, 0)  (74, 0)  (75, 0)  (76, 0)  (77, 0)  (81, 0)  (82, 0.0649879)  (83, 0)  (84, 0)  (85, 0.0778215)  (86, 0)  (108, 0)  (109, 0.0285479)  (110, 0)  (114, 0)  (115, 0.0620095)  (116, 0)  (126, 0)  (127, 0.0217468)  (128, 0)  (135, 0)  (136, 0.0224186)  (137, 0)  (138, 0)  (139, 0.297488)  (140, 0)  (141, 0)  (142, 0.0199562)  (143, 0)  (153, 0)  (154, 0.0651988)  (155, 0)  (156, 0)  (157, 0.0835454)  (158, 0) 
row 59: (0, 0)  (1, 0)  (2, 0)  (3, 0)  (4, 0)  (5, 0)  (27, 0)  (28, 0)  (29, 0)  (33, 0)  (34, 0)  (35, 0)  (45, 0)  (46, 0)  (47, 0)  (54, 0)  (55, 0)  (56, 0)  (57, 0)  (58, 0)  (59, 0)  (60, 0)  (61, 0)  (62, 0)  (72, 0)  (73, 0)  (74, 0)  (75, 0)  (76, 0)  (77, 0)  (81, 0)  (82, 0)  (83, 0.0649879)  (84, 0)  (85, 0)  (86, 0.0778215)  (108, 0)  (109, 0)  (110, 0.0285479)  (114, 0)  (115, 0)  (116, 0.0620095)  (126, 0)  (127, 0)  (128, 0.0217468)  (135, 0)  (136, 0)  (137, 0.0224186)  (138, 0)  (139, 0)  (140, 0.297488)  (141, 0)  (142, 0)  (143, 0.0199562)  (153, 0)  (154, 0)  (155, 0.0651988)  (156, 0)  (157, 0)  (158, 0.0835454) 
row 60: (0, 0)  (1, 0)  (2, 0)  (6, 0)  (7, 0)  (8, 0)  (15, 0)  (16, 0)  (17, 0)  (30, 0)  (31, 0)  (32, 0)  (33, 0)  (34, 0)  (35, 0)  (57, 0)  (58, 0)  (59, 0)  (60, 0)  (61, 0)  (62, 0)  (72, 0)  (73, 0)  (74, 0)  (81, 0.0278285)  (82, 0)  (83, 0)  (87, 0.0278285)  (88, 0)  (89, 0)  (96, 0.0199562)  (97, 0)  (98, 0)  (111, 0.0176496)  (112, 0)  (113, 0)  (114, 0.0176496)  (115, 0)  (116, 0)  (138, 0.0199562)  (139, 0)  (140, 0)  (141, 0.130869)  (142, 0)  (143, 0)  (153, 0.0654343)  (154, 0)  (155, 0) 
row 61: (0, 0)  (1, 0)  (2, 0)  (6, 0)  (7, 0)  (8, 0)  (15, 0)  (16, 0)  (17, 0)  (30, 0)  (31, 0)  (32, 0)  (33, 0)  (34, 0)  (35, 0)  (57, 0)  (58, 0)  (59, 0)  (60, 0)  (61, 0)  (62, 0)  (72, 0)  (73, 0)  (74, 0)  (81, 0)  (82, 0.0278285)  (83, 0)  (87, 0)  (88, 0.0278285)  (89, 0)  (96, 0)  (97, 0.0199562)  (98, 0)  (111, 0)  (112, 0.0176496)  (113, 0)  (114, 0)  (115, 0.0176496)  (116, 0)  (138, 0)  (139, 0.0199562)  (140, 0)  (141, 0)  (142, 0.130869)  (143, 0)  (153, 0)  (154, 0.0654343)  (155, 0) 
row 62: (0, 0)  (1, 0)  (2, 0)  (6, 0)  (7, 0)  (8, 0)  (15, 0)  (16, 0)  (17, 0)  (30, 0)  (31, 0)  (32, 0)  (33, 0)  (34, 0)  (35, 0)  (57, 0)  (58, 0)  (59, 0)  (60, 0)  (61, 0)  (62, 0)  (72, 0)  (73, 0)  (74, 0)  (81, 0)  (82, 0)  (83, 0.0278285)  (87, 0)  (88, 0)  (89, 0.0278285)  (96, 0)  (97, 0)  (98, 0.0199562)  (111, 0)  (112, 0)  (113, 0.0176496)  (114, 0)  (115, 0)  (116, 0.0176496)  (138, 0)  (139, 0)  (140, 0.0199562)  (141, 0)  (142, 0)  (143, 0.130869)  (153, 0)  (154, 0)  (155, 0.0654343) 
row 63: (0, 0)  (1, 0)  (2, 0)  (24, 0)  (25, 0)  (26, 0)  (48, 0)  (49, 0)  (50, 0)  (51, 0)  (52, 0)  (53, 0)  (63, 0)  (64, 0)  (65, 0)  (66, 0)  (67, 0)  (68, 0)  (69, 0)  (70, 0)  (71, 0)  (78, 0)  (79, 0)  (80, 0)  (81, 0.0266672)  (82, 0)  (83, 0)  (105, 0.0167256)  (106, 0)  (107, 0)  (129, 0.0180167)  (130, 0)  (131, 0)  (132, 0.0279583)  (133, 0)  (134, 0)  (144, 0.122819)  (145, 0)  (146, 0)  (147, 0.0136668)  (148, 0)  (149, 0)  (150, 0.0197844)  (151, 0)  (152, 0)  (159, 0.0614096)  (160, 0)  (161, 0) 
row 64: (0, 0)  (1, 0)  (2, 0)  (24, 0)  (25, 0)  (26, 0)  (48, 0)  (49, 0)  (50, 0)  (51, 0)  (52, 0)  (53, 0)  (63, 0)  (64, 0)  (65, 0)  (66, 0)  (67, 0)  (68, 0)  (69, 0)  (70, 0)  (71, 0)  (78, 0)  (79, 0)  (80, 0)  (81, 0)  (82, 0.0266672)  (83, 0)  (105, 0)  (106, 0.0167256)  (107, 0)  (129, 0)  (130, 0.0180167)  (131, 0)  (132, 0)  (133, 0.0279583)  (134, 0)  (144, 0)  (145, 0.122819)  (146, 0)  (147, 0)  (148, 0.0136668)  (149, 0)  (150, 0)  (151, 0.0197844)  (152, 0)  (159, 0)  (160, 0.0614096)  (161, 0) 
row 65: (0, 0)  (1, 0)  (2, 0)  (24, 0)  (25, 0)  (26, 0)  (48, 0)  (49, 0)  (50, 0)  (51, 0)  (52, 0)  (53, 0)  (63, 0)  (64, 0)  (65, 0)  (66, 0)  (67, 0)  (68, 0)  (69, 0)  (70, 0)  (71, 0)  (78, 0)  (79, 0)  (80, 0)  (81, 0)  (82, 0)  (83, 0.0266672)  (105, 0)  (106, 0)  (107, 0.0167256)  (129, 0)  (130, 0)  (131, 0.0180167)  (132, 0)  (133, 0)  (134, 0.0279583)  (144, 0)  (145, 0)  (146, 0.122819)  (147, 0)  (148, 0)  (149, 0.0136668)  (150, 0)  (151, 0)  (152, 0.0197844)  (159, 0)  (160, 0)  (161, 0.0614096) 
row 66: (24, 0)  (25, 0)  (26, 0)  (36, 0)  (37, 0)  (38, 0)  (48, 0)  (49, 0)  (50, 0)  (63, 0)  (64, 0)  (65, 0)  (66, 0)  (67, 0)  (68, 0)  (78, 0)  (79, 0)  (80, 0)  (105, 0.0136668)  (106, 0)  (107, 0)  (117, 0.0136668)  (118, 0)  (119, 0)  (129, 0.0136668)  (130, 0)  (131, 0)  (144, 0.0136668)  (145, 0)  (146, 0)  (147, 0.0546673)  (148, 0)  (149, 0)  (159, 0.0273337)  (160, 0)  (161, 0) 
row 67: (24, 0)  (25, 0)  (26, 0)  (36, 0)  (37, 0)  (38, 0)  (48, 0)  (49, 0)  (50, 0)  (63, 0)  (64, 0)  (65, 0)  (66, 0)  (67, 0)  (68, 0)  (78, 0)  (79, 0)  (80, 0)  (105, 0)  (106, 0.0136668)  (107, 0)  (117, 0)  (118, 0.0136668)  (119, 0)  (129, 0)  (130, 0.0136668)  (131, 0)  (144, 0)  (145, 0.0136668)  (146, 0)  (147, 0)  (148, 0.0546673)  (149, 0)  (159, 0)  (160, 0.0273337)  (161, 0) 
row 68: (24, 0)  (25, 0)  (26, 0)  (36, 0)  (37, 0)  (38, 0)  (48, 0)  (49, 0)  (50, 0)  (63, 0)  (64, 0)  (65, 0)  (66, 0)  (67, 0)  (68, 0)  (78, 0)  (79, 0)  (80, 0)  (105, 0)  (106, 0)  (107, 0.0136668)  (117, 0)  (118, 0)  (119, 0.0136668)  (129, 0)  (130, 0)  (131, 0.0136668)  (144, 0)  (145, 0)  (146, 0.0136668)  (147, 0)  (148, 0)  (149, 0.0546673)  (159, 0)  (160, 0)  (161, 0.0273337) 
row 69: (0, 0)  (1, 0)  (2, 0)  (3, 0)  (4, 0)  (5, 0)  (24, 0)  (25, 0)  (26, 0)  (63, 0)  (64, 0)  (65, 0)  (69, 0)  (70, 0)  (71, 0)  (78, 0)  (79, 0)  (80, 0)  (81, 0.0197844)  (82, 0)  (83, 0)  (84, 0.0197844)  (85, 0)  (86, 0)  (105, 0.0197844)  (106, 0)  (107, 0)  (144, 0.0197844)  (145, 0)  (146, 0)  (150, 0.0791377)  (151, 0)  (152, 0)  (159, 0.0395689)  (160, 0)  (161, 0) 
row 70: (0, 0)  (1, 0)  (2, 0)  (3, 0)  (4, 0)  (5, 0)  (24, 0)  (25, 0)  (26, 0)  (63, 0)  (64, 0)  (65, 0)  (69, 0)  (70, 0)  (71, 0)  (78, 0)  (79, 0)  (80, 0)  (81, 0)  (82, 0.0197844)  (83, 0)  (84, 0)  (85, 0.0197844)  (86, 0)  (105, 0)  (106, 0.0197844)  (107, 0)  (144, 0)  (145, 0.0197844)  (146, 0)  (150, 0)  (151, 0.0791377)  (152, 0)  (159, 0)  (160, 0.0395689)  (161, 0) 
row 71: (0, 0)  (1, 0)  (2, 0)  (3, 0)  (4, 0)  (5, 0)  (24, 0)  (25, 0)  (26, 0)  (63, 0)  (64, 0)  (65, 0)  (69, 0)  (70, 0)  (71, 0)  (78, 0)  (79, 0)  (80, 0)  (81, 0)  (82, 0)  (83, 0.0197844)  (84, 0)  (85, 0)  (86, 0.0197844)  (105, 0)  (106, 0)  (107, 0.0197844)  (144, 0)  (145, 0)  (146, 0.0197844)  (150, 0)  (151, 0)  (152, 0.0791377)  (159, 0)  (160, 0)  (161, 0.0395689) 
row 72: (0, 0)  (1, 0)  (2, 0)  (3, 0)  (4, 0)  (5, 0)  (6, 0)  (7, 0)  (8, 0)  (9, 0)  (10, 0)  (11, 0)  (12, 0)  (13, 0)  (14, 0)  (15, 0)  (16, 0)  (17, 0)  (18, 0)  (19, 0)  (20, 0)  (21, 0)  (22, 0)  (23, 0)  (30, 0)  (31, 0)  (32, 0)  (33, 0)  (34, 0)  (35, 0)  (57, 0)  (58, 0)  (59, 0)  (60, 0)  (61, 0)  (62, 0)  (72, 0)  (73, 0)  (74, 0)  (81, 0.070546)  (82, 0)  (83, 0)  (84, 0.0930658)  (85, 0)  (86, 0)  (87, 0.0653354)  (88, 0)  (89, 0)  (90, 0.0652339)  (91, 0)  (92, 0)  (93, 0.0401923)  (94, 0)  (95, 0)  (96, 0.0461917)  (97, 0)  (98, 0)  (99, 0.0373263)  (100, 0)  (101, 0)  (102, 0.0348215)  (103, 0)  (104, 0)  (111, 0.0652922)  (112, 0)  (113, 0)  (114, 0.0513617)  (115, 0)  (116, 0)  (138, 0.0651988)  (139, 0)  (140, 0)  (141, 0.0654343)  (142, 0)  (143, 0)  (153, 0.466667)  (154, 0)  (155, 0) 
row 73: (0, 0)  (1, 0)  (2, 0)  (3, 0)  (4, 0)  (5, 0)  (6, 0)  (7, 0)  (8, 0)  (9, 0)  (10, 0)  (11, 0)  (12, 0)  (13, 0)  (14, 0)  (15, 0)  (16, 0)  (17, 0)  (18, 0)  (19, 0)  (20, 0)  (21, 0)  (22, 0)  (23, 0)  (30, 0)  (31, 0)  (32, 0)  (33, 0)  (34, 0)  (35, 0)  (57, 0)  (58, 0)  (59, 0)  (60, 0)  (61, 0)  (62, 0)  (72, 0)  (73, 0)  (74, 0)  (81, 0)  (82, 0.070546)  (83, 0)  (84, 0)  (85, 0.0930658)  (86, 0)  (87, 0)  (88, 0.0653354)  (89, 0)  (90, 0)  (91, 0.0652339)  (92, 0)  (93, 0)  (94, 0.0401923)  (95, 0)  (96, 0)  (97, 0.0461917)  (98, 0)  (99, 0)  (100, 0.0373263)  (101, 0)  (102, 0)  (103, 0.0348215)  (104, 0)  (111, 0)  (112, 0.0652922)  (113, 0)  (114, 0)  (115, 0.0513617)  (116, 0)  (138, 0)  (139, 0.0651988)  (140, 0)  (141, 0)  (142, 0.0654343)  (143, 0)  (153, 0)  (154, 0.466667)  (155, 0) 
row 74: (0, 0)  (1, 0)  (2, 0)  (3, 0)  (4, 0)  (5, 0)  (6, 0)  (7, 0)  (8, 0)  (9, 0)  (10, 0)  (11, 0)  (12, 0)  (13, 0)  (14, 0)  (15, 0)  (16, 0)  (17, 0)  (18, 0)  (19, 0)  (20, 0)  (21, 0)  (22, 0)  (23, 0)  (30, 0)  (31, 0)  (32, 0)  (33, 0)  (34, 0)  (35, 0)  (57, 0)  (58, 0)  (59, 0)  (60, 0)  (61, 0)  (62, 0)  (72, 0)  (73, 0)  (74, 0)  (81, 0)  (82, 0)  (83, 0.070546)  (84, 0)  (85, 0)  (86, 0.0930658)  (87, 0)  (88, 0)  (89, 0.0653354)  (90, 0)  (91, 0)  (92, 0.0652339)  (93, 0)  (94, 0)  (95, 0.0401923)  (96, 0)  (97, 0)  (98, 0.0461917)  (99, 0)  (100, 0)  (101, 0.0373263)  (102, 0)  (103, 0)  (104, 0.0348215)  (111, 0)  (112, 0)  (113, 0.0652922)  (114, 0)  (115, 0)  (116, 0.0513617)  (138, 0)  (139, 0)  (140, 0.0651988)  (141, 0)  (142, 0)  (143, 0.0654343)  (153, 0)  (154, 0)  (155, 0.466667) 
row 75: (0, 0)  (1, 0)  (2, 0)  (3, 0)  (4, 0)  (5, 0)  (27, 0)  (28, 0)  (29, 0)  (33, 0)  (34, 0)  (35, 0)  (39, 0)  (40, 0)  (41, 0)  (42, 0)  (43, 0)  (44, 0)  (45, 0)  (46, 0)  (47, 0)  (51, 0)  (52, 0)  (53, 0)  (54, 0)  (55, 0)  (56, 0)  (57, 0)  (58, 0)  (59, 0)  (75, 0)  (76, 0)  (77, 0)  (78, 0)  (79, 0)  (80, 0)  (81, 0.0774689)  (82, 0)  (83, 0)  (84, 0.0930632)  (85, 0)  (86, 0)  (108, 0.0446031)  (109, 0)  (110, 0)  (114, 0.0525892)  (115, 0)  (116, 0)  (120, 0.0591783)  (121, 0)  (122, 0)  (123, 0.056912)  (124, 0)  (125, 0)  (126, 0.0391732)  (127, 0)  (128, 0)  (132, 0.0486321)  (133, 0)  (134, 0)  (135, 0.0597675)  (136, 0)  (137, 0)  (138, 0.0835454)  (139, 0)  (140, 0)  (156, 0.452287)  (157, 0)  (158, 0)  (159, 0.0634972)  (160, 0)  (161, 0) 
row 76: (0, 0)  (1, 0)  (2, 0)  (3, 0)  (4, 0)  (5, 0)  (27, 0)  (28, 0)  (29, 0)  (33, 0)  (34, 0)  (35, 0)  (39, 0)  (40, 0)  (41, 0)  (42, 0)  (43, 0)  (44, 0)  (45, 0)  (46, 0)  (47, 0)  (51, 0)  (52, 0)  (53, 0)  (54, 0)  (55, 0)  (56, 0)  (57, 0)  (58, 0)  (59, 0)  (75, 0)  (76, 0)  (77, 0)  (78, 0)  (79, 0)  (80, 0)  (81, 0)  (82, 0.0774689)  (83, 0)  (84, 0)  (85, 0.0930632)  (86, 0)  (108, 0)  (109, 0.0446031)  (110, 0)  (114, 0)  (115, 0.0525892)  (116, 0)  (120, 0)  (121, 0.0591783)  (122, 0)  (123, 0)  (124, 0.056912)  (125, 0)  (126, 0)  (127, 0.0391732)  (128, 0)  (132, 0)  (133, 0.0486321)  (134, 0)  (135, 0)  (136, 0.0597675)  (137, 0)  (138, 0)  (139, 0.0835454)  (140, 0)  (156, 0)  (157, 0.452287)  (158, 0)  (159, 0)  (160, 0.0634972)  (161, 0) 
row 77: (0, 0)  (1, 0)  (2, 0)  (3, 0)  (4, 0)  (5, 0)  (27, 0)  (28, 0)  (29, 0)  (33, 0)  (34, 0)  (35, 0)  (39, 0)  (40, 0)  (41, 0)  (42, 0)  (43, 0)  (44, 0)  (45, 0)  (46, 0)  (47, 0)  (51, 0)  (52, 0)  (53, 0)  (54, 0)  (55, 0)  (56, 0)  (57, 0)  (58, 0)  (59, 0)  (75, 0)  (76, 0)  (77, 0)  (78, 0)  (79, 0)  (80, 0)  (81, 0)  (82, 0)  (83, 0.0774689)  (84, 0)  (85, 0)  (86, 0.0930632)  (108, 0)  (109, 0)  (110, 0.0446031)  (114, 0)  (115, 0)  (116, 0.0525892)  (120, 0)  (121, 0)  (122, 0.0591783)  (123, 0)  (124, 0)  (125, 0.056912)  (126, 0)  (127, 0)  (128, 0.0391732)  (132, 0)  (133, 0)  (134, 0.0486321)  (135, 0)  (136, 0)  (137, 0.0597675)  (138, 0)  (139, 0)  (140, 0.0835454)  (156, 0)  (157, 0)  (158, 0.452287)  (159, 0)  (160, 0)  (161, 0.0634972) 
row 78: (0, 0)  (1, 0)  (2, 0)  (3, 0)  (4, 0)  (5, 0)  (24, 0)  (25, 0)  (26, 0)  (36, 0)  (37, 0)  (38, 0)  (42, 0)  (43, 0)  (44, 0)  (48, 0)  (49, 0)  (50, 0)  (51, 0)  (52, 0)  (53, 0)  (63, 0)  (64, 0)  (65, 0)  (66, 0)  (67, 0)  (68, 0)  (69, 0)  (70, 0)  (71, 0)  (75, 0)  (76, 0)  (77, 0)  (78, 0)  (79, 0)  (80, 0)  (81, 0.0715839)  (82, 0)  (83, 0)  (84, 0.0711303)  (85, 0)  (86, 0)  (105, 0.0610485)  (106, 0)  (107, 0)  (117, 0.0427709)  (118, 0)  (119, 0)  (123, 0.0651025)  (124, 0)  (125, 0)  (129, 0.0338828)  (130, 0)  (131, 0)  (132, 0.0747332)  (133, 0)  (134, 0)  (144, 0.0614096)  (145, 0)  (146, 0)  (147, 0.0273337)  (148, 0)  (149, 0)  (150, 0.0395689)  (151, 0)  (152, 0)  (156, 0.0634972)  (157, 0)  (158, 0)  (159, 0.408041)  (160, 0)  (161, 0) 
row 79: (0, 0)  (1, 0)  (2, 0)  (3, 0)  (4, 0)  (5, 0)  (24, 0)  (25, 0)  (26, 0)  (36, 0)  (37, 0)  (38, 0)  (42, 0)  (43, 0)  (44, 0)  (48, 0)  (49, 0)  (50, 0)  (51, 0)  (52, 0)  (53, 0)  (63, 0)  (64, 0)  (65, 0)  (66, 0)  (67, 0)  (68, 0)  (69, 0)  (70, 0)  (71, 0)  (75, 0)  (76, 0)  (77, 0)  (78, 0)  (79, 0)  (80, 0)  (81, 0)  (82, 0.0715839)  (83, 0)  (84, 0)  (85, 0.0711303)  (86, 0)  (105, 0)  (106, 0.0610485)  (107, 0)  (117, 0)  (118, 0.0427709)  (119, 0)  (123, 0)  (124, 0.0651025)  (125, 0)  (129, 0)  (130, 0.0338828)  (131, 0)  (132, 0)  (133, 0.0747332)  (134, 0)  (144, 0)  (145, 0.0614096)  (146, 0)  (147, 0)  (148, 0.0273337)  (149, 0)  (150, 0)  (151, 0.0395689)  (152, 0)  (156, 0)  (157, 0.0634972)  (158, 0)  (159, 0)  (160, 0.408041)  (161, 0) 
row 80: (0, 0)  (1, 0)  (2, 0)  (3, 0)  (4, 0)  (5, 0)  (24, 0)  (25, 0)  (26, 0)  (36, 0)  (37, 0)  (38, 0)  (42, 0)  (43, 0)  (44, 0)  (48, 0)  (49, 0)  (50, 0)  (51, 0)  (52, 0)  (53, 0)  (63, 0)  (64, 0)  (65, 0)  (66, 0)  (67, 0)  (68, 0)  (69, 0)  (70, 0)  (71, 0)  (75, 0)  (76, 0)  (77, 0)  (78, 0)  (79, 0)  (80, 0)  (81, 0)  (82, 0)  (83, 0.0715839)  (84, 0)  (85, 0)  (86, 0.0711303)  (105, 0)  (106, 0)  (107, 0.0610485)  (117, 0)  (118, 0)  (119, 0.0427709)  (123, 0)  (124, 0)  (125, 0.0651025)  (129, 0)  (130, 0)  (131, 0.0338828)  (132, 0)  (133, 0)  (134, 0.0747332)  (144, 0)  (145, 0)  (146, 0.0614096)  (147, 0)  (148, 0)  (149, 0.0273337)  (150, 0)  (151, 0)  (152, 0.0395689)  (156, 0)  (157, 0)  (158, 0.0634972)  (159, 0)  (160, 0)  (161, 0.408041) 
row 81: (0, -0.0461436)  (1, 0)  (2, 0)  (3, -0.00973534)  (4, 0)  (5, 0)  (6, -0.00334315)  (7, 0)  (8, 0)  (12, -0.00251202)  (13, 0)  (14, 0)  (51, -0.00549713)  (52, 0)  (53, 0)  (54, -0.00326938)  (55, 0)  (56, 0)  (57, -0.00812349)  (58, 0)  (59, 0)  (60, -0.00347857)  (61, 0)  (62, 0)  (63, -0.0033334)  (64, 0)  (65, 0)  (69, -0.00247305)  (70, 0)  (71, 0)  (72, -0.00881825)  (73, 0)  (74, 0)  (75, -0.00968362)  (76, 0)  (77, 0)  (78, -0.00894799)  (79, 0)  (80, 0)  (81, 0.0461436)  (82, 0)  (83, 0)  (84, 0.00973534)  (85, 0)  (86, 0)  (87, 0.00334315)  (88, 0)  (89, 0)  (93, 0.00251202)  (94, 0)  (95, 0)  (132, 0.00549713)  (133, 0)  (134, 0)  (135, 0.00326938)  (136, 0)  (137, 0)  (138, 0.00812349)  (139, 0)  (140, 0)  (141, 0.00347857)  (142, 0)  (143, 0)  (144, 0.0033334)  (145, 0)  (146, 0)  (150, 0.00247305)  (151, 0)  (152, 0)  (153, 0.00881825)  (154, 0)  (155, 0)  (156, 0.00968362)  (157, 0)  (158, 0)  (159, 0.00894799)  (160, 0)  (161, 0) 
row 82: (0, 0)  (1, -0.0461436)  (2, 0)  (3, 0)  (4, -0.00973534)  (5, 0)  (6, 0)  (7, -0.00334315)  (8, 0)  (12, 0)  (13, -0.00251202)  (14, 0)  (51, 0)  (52, -0.00549713)  (53, 0)  (54, 0)  (55, -0.00326938)  (56, 0)  (57, 0)  (58, -0.00812349)  (59, 0)  (60, 0)  (61, -0.00347857)  (62, 0)  (63, 0)  (64, -0.0033334)  (65, 0)  (69, 0)  (70, -0.00247305)  (71, 0)  (72, 0)  (73, -0.00881825)  (74, 0)  (75, 0)  (76, -0.00968362)  (77, 0)  (78, 0)  (79, -0.00894799)  (80, 0)  (81, 0)  (82, 0.0461436)  (83, 0)  (84, 0)  (85, 0.00973534)  (86, 0)  (87, 0)  (88, 0.00334315)  (89, 0)  (93, 0)  (94, 0.00251202)  (95, 0)  (132, 0)  (133, 0.00549713)  (134, 0)  (135, 0)  (136, 0.00326938)  (137, 0)  (138, 0)  (139, 0.00812349)  (140, 0)  (141, 0)  (142, 0.00347857)  (143, 0)  (144, 0)  (145, 0.0033334)  (146, 0)  (150, 0)  (151, 0.00247305)  (152, 0)  (153, 0)  (154, 0.00881825)  (155, 0)  (156, 0)  (157, 0.00968362)  (158, 0)  (159, 0)  (160, 0.00894799)  (161, 0) 
row 83: (0, 0)  (1, 0)  (2, -0.0461436)  (3, 0)  (4, 0)  (5, -0.00973534)  (6, 0)  (7, 0)  (8, -0.00334315)  (12, 0)  (13, 0)  (14, -0.00251202)  (51, 0)  (52, 0)  (53, -0.00549713)  (54, 0)  (55, 0)  (56, -0.00326938)  (57, 0)  (58, 0)  (59, -0.00812349)  (60, 0)  (61, 0)  (62, -0.00347857)  (63, 0)  (64, 0)  (65, -0.0033334)  (69, 0)  (70, 0)  (71, -0.00247305)  (72, 0)  (73, 0)  (74, -0.00881825)  (75, 0)  (76, 0)  (77, -0.00968362)  (78, 0)  (79, 0)  (80, -0.00894799)  (81, 0)  (82, 0)  (83, 0.0461436)  (84, 0)  (85, 0)  (86, 0.00973534)  (87, 0)  (88, 0)  (89, 0.00334315)  (93, 0)  (94, 0)  (95, 0.00251202)  (132, 0)  (133, 0)  (134, 0.00549713)  (135, 0)  (136, 0)  (137, 0.00326938)  (138, 0)  (139, 0)  (140, 0.00812349)  (141, 0)  (142, 0)  (143, 0.00347857)  (144, 0)  (145, 0)  (146, 0.0033334)  (150, 0)  (151, 0)  (152, 0.00247305)  (153, 0)  (154, 0)  (155, 0.00881825)  (156, 0)  (157, 0)  (158, 0.00968362)  (159, 0)  (160, 0)  (161, 0.00894799) 
row 84: (0, -0.00973534)  (1, 0)  (2, 0)  (3, -0.0556179)  (4, 0)  (5, 0)  (9, -0.00333554)  (10, 0)  (11, 0)  (12, -0.00251202)  (13, 0)  (14, 0)  (24, -0.00330632)  (25, 0)  (26, 0)  (30, -0.00346588)  (31, 0)  (32, 0)  (33, -0.00808568)  (34, 0)  (35, 0)  (39, -0.0032121)  (40, 0)  (41, 0)  (42, -0.00541588)  (43, 0)  (44, 0)  (57, -0.00972768)  (58, 0)  (59, 0)  (69, -0.00247305)  (70, 0)  (71, 0)  (72, -0.0116332)  (73, 0)  (74, 0)  (75, -0.0116329)  (76, 0)  (77, 0)  (78, -0.00889129)  (79, 0)  (80, 0)  (81, 0.00973534)  (82, 0)  (83, 0)  (84, 0.0556179)  (85, 0)  (86, 0)  (90, 0.00333554)  (91, 0)  (92, 0)  (93, 0.00251202)  (94, 0)  (95, 0)  (105, 0.00330632)  (106, 0)  (107, 0)  (111, 0.00346588)  (112, 0)  (113, 0)  (114, 0.00808568)  (115, 0)  (116, 0)  (120, 0.0032121)  (121, 0)  (122, 0)  (123, 0.00541588)  (124, 0)  (125, 0)  (138, 0.00972768)  (139, 0)  (140, 0)  (150, 0.00247305)  (151, 0)  (152, 0)  (153, 0.0116332)  (154, 0)  (155, 0)  (156, 0.0116329)  (157, 0)  (158, 0)  (159, 0.00889129)  (160, 0)  (161, 0) 
row 85: (0, 0)  (1, -0.00973534)  (2, 0)  (3, 0)  (4, -0.0556179)  (5, 0)  (9, 0)  (10, -0.00333554)  (11, 0)  (12, 0)  (13, -0.00251202)  (14, 0)  (24, 0)  (25, -0.00330632)  (26, 0)  (30, 0)  (31, -0.00346588)  (32, 0)  (33, 0)  (34, -0.00808568)  (35, 0)  (39, 0)  (40, -0.0032121)  (41, 0)  (42, 0)  (43, -0.00541588)  (44, 0)  (57, 0)  (58, -0.00972768)  (59, 0)  (69, 0)  (70, -0.00247305)  (71, 0)  (72, 0)  (73, -0.0116332)  (74, 0)  (75, 0)  (76, -0.0116329)  (77, 0)  (78, 0)  (79, -0.00889129)  (80, 0)  (81, 0)  (82, 0.00973534)  (83, 0)  (84, 0)  (85, 0.0556179)  (86, 0)  (90, 0)  (91, 0.00333554)  (92, 0)  (93, 0)  (94, 0.00251202)  (95, 0)  (105, 0)  (106, 0.00330632)  (107, 0)  (111, 0)  (112, 0.00346588)  (113, 0)  (114, 0)  (115, 0.00808568)  (116, 0)  (120, 0)  (121, 0.0032121)  (122, 0)  (123, 0)  (124, 0.00541588)  (125, 0)  (138, 0)  (139, 0.00972768)  (140, 0)  (150, 0)  (151, 0.00247305)  (152, 0)  (153, 0)  (154, 0.0116332)  (155, 0)  (156, 0)  (157, 0.0116329)  (158, 0)  (159, 0)  (160, 0.00889129)  (161, 0) 
row 86: (0, 0)  (1, 0)  (2, -0.00973534)  (3, 0)  (4, 0)  (5, -0.0556179)  (9, 0)  (10, 0)  (11, -0.00333554)  (12, 0)  (13, 0)  (14, -0.00251202)  (24, 0)  (25, 0)  (26, -0.00330632)  (30, 0)  (31, 0)  (32, -0.00346588)  (33, 0)  (34, 0)  (35, -0.00808568)  (39, 0)  (40, 0)  (41, -0.0032121)  (42, 0)  (43, 0)  (44, -0.00541588)  (57, 0)  (58, 0)  (59, -0.00972768)  (69, 0)  (70, 0)  (71, -0.00247305)  (72, 0)  (73, 0)  (74, -0.0116332)  (75, 0)  (76, 0)  (77, -0.0116329)  (78, 0)  (79, 0)  (80, -0.00889129)  (81, 0)  (82, 0)  (83, 0.00973534)  (84, 0)  (85, 0)  (86, 0.0556179)  (90, 0)  (91, 0)  (92, 0.00333554)  (93, 0)  (94, 0)  (95, 0.00251202)  (105, 0)  (106, 0)  (107, 0.00330632)  (111, 0)  (112, 0)  (113, 0.00346588)  (114, 0)  (115, 0)  (116, 0.00808568)  (120, 0)  (121, 0)  (122, 0.0032121)  (123, 0)  (124, 0)  (125, 0.00541588)  (138, 0)  (139, 0)  (140, 0.00972768)  (150, 0)  (151, 0)  (152, 0.00247305)  (153, 0)  (154, 0)  (155, 0.0116332)  (156, 0)  (157, 0)  (158, 0.0116329)  (159, 0)  (160, 0)  (161, 0.00889129) 
row 87: (0, -0.00334315)  (1, 0)  (2, 0)  (6, -0.0163339)  (7, 0)  (8, 0)  (9, -0.00234418)  (10, 0)  (11, 0)  (12, -0.00251202)  (13, 0)  (14, 0)  (15, -0.0024796)  (16, 0)  (17, 0)  (21, -0.00217634)  (22, 0)  (23, 0)  (60, -0.00347857)  (61, 0)  (62, 0)  (72, -0.00816693)  (73, 0)  (74, 0)  (81, 0.00334315)  (82, 0)  (83, 0)  (87, 0.0163339)  (88, 0)  (89, 0)  (90, 0.00234418)  (91, 0)  (92, 0)  (93, 0.00251202)  (94, 0)  (95, 0)  (96, 0.0024796)  (97, 0)  (98, 0)  (102, 0.00217634)  (103, 0)  (104, 0)  (141, 0.00347857)  (142, 0)  (143, 0)  (153, 0.00816693)  (154, 0)  (155, 0) 
row 88: (0, 0)  (1, -0.00334315)  (2, 0)  (6, 0)  (7, -0.0163339)  (8, 0)  (9, 0)  (10, -0.00234418)  (11, 0)  (12, 0)  (13, -0.00251202)  (14, 0)  (15, 0)  (16, -0.0024796)  (17, 0)  (21, 0)  (22, -0.00217634)  (23, 0)  (60, 0)  (61, -0.00347857)  (62, 0)  (72, 0)  (73, -0.00816693)  (74, 0)  (81, 0)  (82, 0.00334315)  (83, 0)  (87, 0)  (88, 0.0163339)  (89, 0)  (90, 0)  (91, 0.00234418)  (92, 0)  (93, 0)  (94, 0.00251202)  (95, 0)  (96, 0)  (97, 0.0024796)  (98, 0)  (102, 0)  (103, 0.00217634)  (104, 0)  (141, 0)  (142, 0.00347857)  (143, 0)  (153, 0)  (154, 0.00816693)  (155, 0) 
row 89: (0, 0)  (1, 0)  (2, -0.00334315)  (6, 0)  (7, 0)  (8, -0.0163339)  (9, 0)  (10, 0)  (11, -0.00234418)  (12, 0)  (13, 0)  (14, -0.00251202)  (15, 0)  (16, 0)  (17, -0.0024796)  (21, 0)  (22, 0)  (23, -0.00217634)  (60, 0)  (61, 0)  (62, -0.00347857)  (72, 0)  (73, 0)  (74, -0.00816693)  (81, 0)  (82, 0)  (83, 0.00334315)  (87, 0)  (88, 0)  (89, 0.0163339)  (90, 0)  (91, 0)  (92, 0.00234418)  (93, 0)  (94, 0)  (95, 0.00251202)  (96, 0)  (97, 0)  (98, 0.0024796)  (102, 0)  (103, 0)  (104, 0.00217634)  (141, 0)  (142, 0)  (143, 0.00347857)  (153, 0)  (154, 0)  (155, 0.00816693) 
row 90: (3, -0.00333554)  (4, 0)  (5, 0)  (6, -0.00234418)  (7, 0)  (8, 0)  (9, -0.0163085)  (10, 0)  (11, 0)  (12, -0.00251202)  (13, 0)  (14, 0)  (18, -0.00247452)  (19, 0)  (20, 0)  (21, -0.00217634)  (22, 0)  (23, 0)  (30, -0.00346588)  (31, 0)  (32, 0)  (72, -0.00815424)  (73, 0)  (74, 0)  (84, 0.00333554)  (85, 0)  (86, 0)  (87, 0.00234418)  (88, 0)  (89, 0)  (90, 0.0163085)  (91, 0)  (92, 0)  (93, 0.00251202)  (94, 0)  (95, 0)  (99, 0.00247452)  (100, 0)  (101, 0)  (102, 0.00217634)  (103, 0)  (104, 0)  (111, 0.00346588)  (112, 0)  (113, 0)  (153, 0.00815424)  (154, 0)  (155, 0) 
row 91: (3, 0)  (4, -0.00333554)  (5, 0)  (6, 0)  (7, -0.00234418)  (8, 0)  (9, 0)  (10, -0.0163085)  (11, 0)  (12, 0)  (13, -0.00251202)  (14, 0)  (18, 0)  (19, -0.00247452)  (20, 0)  (21, 0)  (22, -0.00217634)  (23, 0)  (30, 0)  (31, -0.00346588)  (32, 0)  (72, 0)  (73, -0.00815424)  (74, 0)  (84, 0)  (85, 0.00333554)  (86, 0)  (87, 0)  (88, 0.00234418)  (89, 0)  (90, 0)  (91, 0.0163085)  (92, 0)  (93, 0)  (94, 0.00251202)  (95, 0)  (99, 0)  (100, 0.00247452)  (101, 0)  (102, 0)  (103, 0.00217634)  (104, 0)  (111, 0)  (112, 0.00346588)  (113, 0)  (153, 0)  (154, 0.00815424)  (155, 0) 
row 92: (3, 0)  (4, 0)  (5, -0.00333554)  (6, 0)  (7, 0)  (8, -0.00234418)  (9, 0)  (10, 0)  (11, -0.0163085)  (12, 0)  (13, 0)  (14, -0.00251202)  (18, 0)  (19, 0)  (20, -0.00247452)  (21, 0)  (22, 0)  (23, -0.00217634)  (30, 0)  (31, 0)  (32, -0.00346588)  (72, 0)  (73, 0)  (74, -0.00815424)  (84, 0)  (85, 0)  (86, 0.00333554)  (87, 0)  (88, 0)  (89, 0.00234418)  (90, 0)  (91, 0)  (92, 0.0163085)  (93, 0)  (94, 0)  (95, 0.00251202)  (99, 0)  (100, 0)  (101, 0.00247452)  (102, 0)  (103, 0)  (104, 0.00217634)  (111, 0)  (112, 0)  (113, 0.00346588)  (153, 0)  (154, 0)  (155, 0.00815424) 
row 93: (0, -0.00251202)  (1, 0)  (2, 0)  (3, -0.00251202)  (4, 0)  (5, 0)  (6, -0.00251202)  (7, 0)  (8, 0)  (9, -0.00251202)  (10, 0)  (11, 0)  (12, -0.0100481)  (13, 0)  (14, 0)  (72, -0.00502404)  (73, 0)  (74, 0)  (81, 0.00251202)  (82, 0)  (83, 0)  (84, 0.00251202)  (85, 0)  (86, 0)  (87, 0.00251202)  (88, 0)  (89, 0)  (90, 0.00251202)  (91, 0)  (92, 0)  (93, 0.0100481)  (94, 0)  (95, 0)  (153, 0.00502404)  (154, 0)  (155, 0) 
row 94: (0, 0)  (1, -0.00251202)  (2, 0)  (3, 0)  (4, -0.00251202)  (5, 0)  (6, 0)  (7, -0.00251202)  (8, 0)  (9, 0)  (10, -0.00251202)  (11, 0)  (12, 0)  (13, -0.0100481)  (14, 0)  (72, 0)  (73, -0.00502404)  (74, 0)  (81, 0)  (82, 0.00251202)  (83, 0)  (84, 0)  (85, 0.00251202)  (86, 0)  (87, 0)  (88, 0.00251202)  (89, 0)  (90, 0)  (91, 0.00251202)  (92, 0)  (93, 0)  (94, 0.0100481)  (95, 0)  (153, 0)  (154, 0.00502404)  (155, 0) 
row 95: (0, 0)  (1, 0)  (2, -0.00251202)  (3, 0)  (4, 0)  (5, -0.00251202)  (6, 0)  (7, 0)  (8, -0.00251202)  (9, 0)  (10, 0)  (11, -0.00251202)  (12, 0)  (13, 0)  (14, -0.0100481)  (72, 0)  (73, 0)  (74, -0.00502404)  (81, 0)  (82, 0)  (83, 0.00251202)  (84, 0)  (85, 0)  (86, 0.00251202)  (87, 0)  (88, 0)  (89, 0.00251202)  (90, 0)  (91, 0)  (92, 0.00251202)  (93, 0)  (94, 0)  (95, 0.0100481)  (153, 0)  (154, 0)  (155, 0.00502404) 
row 96: (6, -0.0024796)  (7, 0)  (8, 0)  (15, -0.0115479)  (16, 0)  (17, 0)  (18, -0.00219127)  (19, 0)  (20, 0)  (21, -0.00217634)  (22, 0)  (23, 0)  (30, -0.0022062)  (31, 0)  (32, 0)  (60, -0.00249452)  (61, 0)  (62, 0)  (72, -0.00577397)  (73, 0)  (74, 0)  (87, 0.0024796)  (88, 0)  (89, 0)  (96, 0.0115479)  (97, 0)  (98, 0)  (99, 0.00219127)  (100, 0)  (101, 0)  (102, 0.00217634)  (103, 0)  (104, 0)  (111, 0.0022062)  (112, 0)  (113, 0)  (141, 0.00249452)  (142, 0)  (143, 0)  (153, 0.00577397)  (154, 0)  (155, 0) 
row 97: (6, 0)  (7, -0.0024796)  (8, 0)  (15, 0)  (16, -0.0115479)  (17, 0)  (18, 0)  (19, -0.00219127)  (20, 0)  (21, 0)  (22, -0.00217634)  (23, 0)  (30, 0)  (31, -0.0022062)  (32, 0)  (60, 0)  (61, -0.00249452)  (62, 0)  (72, 0)  (73, -0.00577397)  (74, 0)  (87, 0)  (88, 0.0024796)  (89, 0)  (96, 0)  (97, 0.0115479)  (98, 0)  (99, 0)  (100, 0.00219127)  (101, 0)  (102, 0)  (103, 0.00217634)  (104, 0)  (111, 0)  (112, 0.0022062)  (113, 0)  (141, 0)  (142, 0.00249452)  (143, 0)  (153, 0)  (154, 0.00577397)  (155, 0) 
row 98: (6, 0)  (7, 0)  (8, -0.0024796)  (15, 0)  (16, 0)  (17, -0.0115479)  (18, 0)  (19, 0)  (20, -0.00219127)  (21, 0)  (22, 0)  (23, -0.00217634)  (30, 0)  (31, 0)  (32, -0.0022062)  (60, 0)  (61, 0)  (62, -0.00249452)  (72, 0)  (73, 0)  (74, -0.00577397)  (87, 0)  (88, 0)  (89, 0.0024796)  (96, 0)  (97, 0)  (98, 0.0115479)  (99, 0)  (100, 0)  (101, 0.00219127)  (102, 0)  (103, 0)  (104, 0.00217634)  (111, 0)  (112, 0)  (113, 0.0022062)  (141, 0)  (142, 0)  (143, 0.00249452)  (153, 0)  (154, 0)  (155, 0.00577397) 
row 99: (9, -0.00247452)  (10, 0)  (11, 0)  (15, -0.00219127)  (16, 0)  (17, 0)  (18, -0.00933159)  (19, 0)  (20, 0)  (21, -0.00217634)  (22, 0)  (23, 0)  (30, -0.00248945)  (31, 0)  (32, 0)  (72, -0.00466579)  (73, 0)  (74, 0)  (90, 0.00247452)  (91, 0)  (92, 0)  (96, 0.00219127)  (97, 0)  (98, 0)  (99, 0.00933159)  (100, 0)  (101, 0)  (102, 0.00217634)  (103, 0)  (104, 0)  (111, 0.00248945)  (112, 0)  (113, 0)  (153, 0.00466579)  (154, 0)  (155, 0) 
row 100: (9, 0)  (10, -0.00247452)  (11, 0)  (15, 0)  (16, -0.00219127)  (17, 0)  (18, 0)  (19, -0.00933159)  (20, 0)  (21, 0)  (22, -0.00217634)  (23, 0)  (30, 0)  (31, -0.00248945)  (32, 0)  (72, 0)  (73, -0.00466579)  (74, 0)  (90, 0)  (91, 0.00247452)  (92, 0)  (96, 0)  (97, 0.00219127)  (98, 0)  (99, 0)  (100, 0.00933159)  (101, 0)  (102, 0)  (103, 0.00217634)  (104, 0)  (111, 0)  (112, 0.00248945)  (113, 0)  (153, 0)  (154, 0.00466579)  (155, 0) 
row 101: (9, 0)  (10, 0)  (11, -0.00247452)  (15, 0)  (16, 0)  (17, -0.00219127)  (18, 0)  (19, 0)  (20, -0.00933159)  (21, 0)  (22, 0)  (23, -0.00217634)  (30, 0)  (31, 0)  (32, -0.00248945)  (72, 0)  (73, 0)  (74, -0.00466579)  (90, 0)  (91, 0)  (92, 0.00247452)  (96, 0)  (97, 0)  (98, 0.00219127)  (99, 0)  (100, 0)  (101, 0.00933159)  (102, 0)  (103, 0)  (104, 0.00217634)  (111, 0)  (112, 0)  (113, 0.00248945)  (153, 0)  (154, 0)  (155, 0.00466579) 
row 102: (6, -0.00217634)  (7, 0)  (8, 0)  (9, -0.00217634)  (10, 0)  (11, 0)  (15, -0.00217634)  (16, 0)  (17, 0)  (18, -0.00217634)  (19, 0)  (20, 0)  (21, -0.00870537)  (22, 0)  (23, 0)  (72, -0.00435269)  (73, 0)  (74, 0)  (87, 0.00217634)  (88, 0)  (89, 0)  (90, 0.00217634)  (91, 0)  (92, 0)  (96, 0.00217634)  (97, 0)  (98, 0)  (99, 0.00217634)  (100, 0)  (101, 0)  (102, 0.00870537)  (103, 0)  (104, 0)  (153, 0.00435269)  (154, 0)  (155, 0) 
row 103: (6, 0)  (7, -0.00217634)  (8, 0)  (9, 0)  (10, -0.00217634)  (11, 0)  (15, 0)  (16, -0.00217634)  (17, 0)  (18, 0)  (19, -0.00217634)  (20, 0)  (21, 0)  (22, -0.00870537)  (23, 0)  (72, 0)  (73, -0.00435269)  (74, 0)  (87, 0)  (88, 0.00217634)  (89, 0)  (90, 0)  (91, 0.00217634)  (92, 0)  (96, 0)  (97, 0.00217634)  (98, 0)  (99, 0)  (100, 0.00217634)  (101, 0)  (102, 0)  (103, 0.00870537)  (104, 0)  (153, 0)  (154, 0.00435269)  (155, 0) 
row 104: (6, 0)  (7, 0)  (8, -0.00217634)  (9, 0)  (10, 0)  (11, -0.00217634)  (15, 0)  (16, 0)  (17, -0.00217634)  (18, 0)  (19, 0)  (20, -0.00217634)  (21, 0)  (22, 0)  (23, -0.00870537)  (72, 0)  (73, 0)  (74, -0.00435269)  (87, 0)  (88, 0)  (89, 0.00217634)  (90, 0)  (91, 0)  (92, 0.00217634)  (96, 0)  (97, 0)  (98, 0.00217634)  (99, 0)  (100, 0)  (101, 0.00217634)  (102, 0)  (103, 0)  (104, 0.00870537)  (153, 0)  (154, 0)  (155, 0.00435269) 
row 105: (3, -0.00330632)  (4, 0)  (5, 0)  (24, -0.0152621)  (25, 0)  (26, 0)  (36, -0.00223404)  (37, 0)  (38, 0)  (42, -0.00344965)  (43, 0)  (44, 0)  (63, -0.0020907)  (64, 0)  (65, 0)  (66, -0.00170835)  (67, 0)  (68, 0)  (69, -0.00247305)  (70, 0)  (71, 0)  (78, -0.00763106)  (79, 0)  (80, 0)  (84, 0.00330632)  (85, 0)  (86, 0)  (105, 0.0152621)  (106, 0)  (107, 0)  (117, 0.00223404)  (118, 0)  (119, 0)  (123, 0.00344965)  (124, 0)  (125, 0)  (144, 0.0020907)  (145, 0)  (146, 0)  (147, 0.00170835)  (148, 0)  (149, 0)  (150, 0.00247305)  (151, 0)  (152, 0)  (159, 0.00763106)  (160, 0)  (161, 0) 
row 106: (3, 0)  (4, -0.00330632)  (5, 0)  (24, 0)  (25, -0.0152621)  (26, 0)  (36, 0)  (37, -0.00223404)  (38, 0)  (42, 0)  (43, -0.00344965)  (44, 0)  (63, 0)  (64, -0.0020907)  (65, 0)  (66, 0)  (67, -0.00170835)  (68, 0)  (69, 0)  (70, -0.00247305)  (71, 0)  (78, 0)  (79, -0.00763106)  (80, 0)  (84, 0)  (85, 0.00330632)  (86, 0)  (105, 0)  (106, 0.0152621)  (107, 0)  (117, 0)  (118, 0.00223404)  (119, 0)  (123, 0)  (124, 0.00344965)  (125, 0)  (144, 0)  (145, 0.0020907)  (146, 0)  (147, 0)  (148, 0.00170835)  (149, 0)  (150, 0)  (151, 0.00247305)  (152, 0)  (159, 0)  (160, 0.00763106)  (161, 0) 
row 107: (3, 0)  (4, 0)  (5, -0.00330632)  (24, 0)  (25, 0)  (26, -0.0152621)  (36, 0)  (37, 0)  (38, -0.00223404)  (42, 0)  (43, 0)  (44, -0.00344965)  (63, 0)  (64, 0)  (65, -0.0020907)  (66, 0)  (67, 0)  (68, -0.00170835)  (69, 0)  (70, 0)  (71, -0.00247305)  (78, 0)  (79, 0)  (80, -0.00763106)  (84, 0)  (85, 0)  (86, 0.00330632)  (105, 0)  (106, 0)  (107, 0.0152621)  (117, 0)  (118, 0)  (119, 0.00223404)  (123, 0)  (124, 0)  (125, 0.00344965)  (144, 0)  (145, 0)  (146, 0.0020907)  (147, 0)  (148, 0)  (149, 0.00170835)  (150, 0)  (151, 0)  (152, 0.00247305)  (159, 0)  (160, 0)  (161, 0.00763106) 
row 108: (27, -0.0111508)  (28, 0)  (29, 0)  (33, -0.00270199)  (34, 0)  (35, 0)  (39, -0.00200689)  (40, 0)  (41, 0)  (45, -0.0028734)  (46, 0)  (47, 0)  (57, -0.00356849)  (58, 0)  (59, 0)  (75, -0.00557538)  (76, 0)  (77, 0)  (108, 0.0111508)  (109, 0)  (110, 0)  (114, 0.00270199)  (115, 0)  (116, 0)  (120, 0.00200689)  (121, 0)  (122, 0)  (126, 0.0028734)  (127, 0)  (128, 0)  (138, 0.00356849)  (139, 0)  (140, 0)  (156, 0.00557538)  (157, 0)  (158, 0) 
row 109: (27, 0)  (28, -0.0111508)  (29, 0)  (33, 0)  (34, -0.00270199)  (35, 0)  (39, 0)  (40, -0.00200689)  (41, 0)  (45, 0)  (46, -0.0028734)  (47, 0)  (57, 0)  (58, -0.00356849)  (59, 0)  (75, 0)  (76, -0.00557538)  (77, 0)  (108, 0)  (109, 0.0111508)  (110, 0)  (114, 0)  (115, 0.00270199)  (116, 0)  (120, 0)  (121, 0.00200689)  (122, 0)  (126, 0)  (127, 0.0028734)  (128, 0)  (138, 0)  (139, 0.00356849)  (140, 0)  (156, 0)  (157, 0.00557538)  (158, 0) 
row 110: (27, 0)  (28, 0)  (29, -0.0111508)  (33, 0)  (34, 0)  (35, -0.00270199)  (39, 0)  (40, 0)  (41, -0.00200689)  (45, 0)  (46, 0)  (47, -0.0028734)  (57, 0)  (58, 0)  (59, -0.00356849)  (75, 0)  (76, 0)  (77, -0.00557538)  (108, 0)  (109, 0)  (110, 0.0111508)  (114, 0)  (115, 0)  (116, 0.00270199)  (120, 0)  (121, 0)  (122, 0.00200689)  (126, 0)  (127, 0)  (128, 0.0028734)  (138, 0)  (139, 0)  (140, 0.00356849)  (156, 0)  (157, 0)  (158, 0.00557538) 
row 111: (3, -0.00346588)  (4, 0)  (5, 0)  (9, -0.00346588)  (10, 0)  (11, 0)  (15, -0.0022062)  (16, 0)  (17, 0)  (18, -0.00248945)  (19, 0)  (20, 0)  (30, -0.016323)  (31, 0)  (32, 0)  (33, -0.00248945)  (34, 0)  (35, 0)  (60, -0.0022062)  (61, 0)  (62, 0)  (72, -0.00816152)  (73, 0)  (74, 0)  (84, 0.00346588)  (85, 0)  (86, 0)  (90, 0.00346588)  (91, 0)  (92, 0)  (96, 0.0022062)  (97, 0)  (98, 0)  (99, 0.00248945)  (100, 0)  (101, 0)  (111, 0.016323)  (112, 0)  (113, 0)  (114, 0.00248945)  (115, 0)  (116, 0)  (141, 0.0022062)  (142, 0)  (143, 0)  (153, 0.00816152)  (154, 0)  (155, 0) 
row 112: (3, 0)  (4, -0.00346588)  (5, 0)  (9, 0)  (10, -0.00346588)  (11, 0)  (15, 0)  (16, -0.0022062)  (17, 0)  (18, 0)  (19, -0.00248945)  (20, 0)  (30, 0)  (31, -0.016323)  (32, 0)  (33, 0)  (34, -0.00248945)  (35, 0)  (60, 0)  (61, -0.0022062)  (62, 0)  (72, 0)  (73, -0.00816152)  (74, 0)  (84, 0)  (85, 0.00346588)  (86, 0)  (90, 0)  (91, 0.00346588)  (92, 0)  (96, 0)  (97, 0.0022062)  (98, 0)  (99, 0)  (100, 0.00248945)  (101, 0)  (111, 0)  (112, 0.016323)  (113, 0)  (114, 0)  (115, 0.00248945)  (116, 0)  (141, 0)  (142, 0.0022062)  (143, 0)  (153, 0)  (154, 0.00816152)  (155, 0) 
row 113: (3, 0)  (4, 0)  (5, -0.00346588)  (9, 0)  (10, 0)  (11, -0.00346588)  (15, 0)  (16, 0)  (17, -0.0022062)  (18, 0)  (19, 0)  (20, -0.00248945)  (30, 0)  (31, 0)  (32, -0.016323)  (33, 0)  (34, 0)  (35, -0.00248945)  (60, 0)  (61, 0)  (62, -0.0022062)  (72, 0)  (73, 0)  (74, -0.00816152)  (84, 0)  (85, 0)  (86, 0.00346588)  (90, 0)  (91, 0)  (92, 0.00346588)  (96, 0)  (97, 0)  (98, 0.0022062)  (99, 0)  (100, 0)  (101, 0.00248945)  (111, 0)  (112, 0)  (113, 0.016323)  (114, 0)  (115, 0)  (116, 0.00248945)  (141, 0)  (142, 0)  (143, 0.0022062)  (153, 0)  (154, 0)  (155, 0.00816152) 
row 114: (3, -0.00808568)  (4, 0)  (5, 0)  (27, -0.00270199)  (28, 0)  (29, 0)  (30, -0.00248945)  (31, 0)  (32, 0)  (33, -0.0259877)  (34, 0)  (35, 0)  (39, -0.00275323)  (40, 0)  (41, 0)  (57, -0.00775118)  (58, 0)  (59, 0)  (60, -0.0022062)  (61, 0)  (62, 0)  (72, -0.00642021)  (73, 0)  (74, 0)  (75, -0.00657365)  (76, 0)  (77, 0)  (84, 0.00808568)  (85, 0)  (86, 0)  (108, 0.00270199)  (109, 0)  (110, 0)  (111, 0.00248945)  (112, 0)  (113, 0)  (114, 0.0259877)  (115, 0)  (116, 0)  (120, 0.00275323)  (121, 0)  (122, 0)  (138, 0.00775118)  (139, 0)  (140, 0)  (141, 0.0022062)  (142, 0)  (143, 0)  (153, 0.00642021)  (154, 0)  (155, 0)  (156, 0.00657365)  (157, 0)  (158, 0) 
row 115: (3, 0)  (4, -0.00808568)  (5, 0)  (27, 0)  (28, -0.00270199)  (29, 0)  (30, 0)  (31, -0.00248945)  (32, 0)  (33, 0)  (34, -0.0259877)  (35, 0)  (39, 0)  (40, -0.00275323)  (41, 0)  (57, 0)  (58, -0.00775118)  (59, 0)  (60, 0)  (61, -0.0022062)  (62, 0)  (72, 0)  (73, -0.00642021)  (74, 0)  (75, 0)  (76, -0.00657365)  (77, 0)  (84, 0)  (85, 0.00808568)  (86, 0)  (108, 0)  (109, 0.00270199)  (110, 0)  (111, 0)  (112, 0.00248945)  (113, 0)  (114, 0)  (115, 0.0259877)  (116, 0)  (120, 0)  (121, 0.00275323)  (122, 0)  (138, 0)  (139, 0.00775118)  (140, 0)  (141, 0)  (142, 0.0022062)  (143, 0)  (153, 0)  (154, 0.00642021)  (155, 0)  (156, 0)  (157, 0.00657365)  (158, 0) 
row 116: (3, 0)  (4, 0)  (5, -0.00808568)  (27, 0)  (28, 0)  (29, -0.00270199)  (30, 0)  (31, 0)  (32, -0.00248945)  (33, 0)  (34, 0)  (35, -0.0259877)  (39, 0)  (40, 0)  (41, -0.00275323)  (57, 0)  (58, 0)  (59, -0.00775118)  (60, 0)  (61, 0)  (62, -0.0022062)  (72, 0)  (73, 0)  (74, -0.00642021)  (75, 0)  (76, 0)  (77, -0.00657365)  (84, 0)  (85, 0)  (86, 0.00808568)  (108, 0)  (109, 0)  (110, 0.00270199)  (111, 0)  (112, 0)  (113, 0.00248945)  (114, 0)  (115, 0)  (116, 0.0259877)  (120, 0)  (121, 0)  (122, 0.00275323)  (138, 0)  (139, 0)  (140, 0.00775118)  (141, 0)  (142, 0)  (143, 0.0022062)  (153, 0)  (154, 0)  (155, 0.00642021)  (156, 0)  (157, 0)  (158, 0.00657365) 
row 117: (24, -0.00223404)  (25, 0)  (26, 0)  (36, -0.0106927)  (37, 0)  (38, 0)  (42, -0.00250894)  (43, 0)  (44, 0)  (48, -0.00198325)  (49, 0)  (50, 0)  (51, -0.00225815)  (52, 0)  (53, 0)  (66, -0.00170835)  (67, 0)  (68, 0)  (78, -0.00534636)  (79, 0)  (80, 0)  (105, 0.00223404)  (106, 0)  (107, 0)  (117, 0.0106927)  (118, 0)  (119, 0)  (123, 0.00250894)  (124, 0)  (125, 0)  (129, 0.00198325)  (130, 0)  (131, 0)  (132, 0.00225815)  (133, 0)  (134, 0)  (147, 0.00170835)  (148, 0)  (149, 0)  (159, 0.00534636)  (160, 0)  (161, 0) 
row 118: (24, 0)  (25, -0.00223404)  (26, 0)  (36, 0)  (37, -0.0106927)  (38, 0)  (42, 0)  (43, -0.00250894)  (44, 0)  (48, 0)  (49, -0.00198325)  (50, 0)  (51, 0)  (52, -0.00225815)  (53, 0)  (66, 0)  (67, -0.00170835)  (68, 0)  (78, 0)  (79, -0.00534636)  (80, 0)  (105, 0)  (106, 0.00223404)  (107, 0)  (117, 0)  (118, 0.0106927)  (119, 0)  (123, 0)  (124, 0.00250894)  (125, 0)  (129, 0)  (130, 0.00198325)  (131, 0)  (132, 0)  (133, 0.00225815)  (134, 0)  (147, 0)  (148, 0.00170835)  (149, 0)  (159, 0)  (160, 0.00534636)  (161, 0) 
row 119: (24, 0)  (25, 0)  (26, -0.00223404)  (36, 0)  (37, 0)  (38, -0.0106927)  (42, 0)  (43, 0)  (44, -0.00250894)  (48, 0)  (49, 0)  (50, -0.00198325)  (51, 0)  (52, 0)  (53, -0.00225815)  (66, 0)  (67, 0)  (68, -0.00170835)  (78, 0)  (79, 0)  (80, -0.00534636)  (105, 0)  (106, 0)  (107, 0.00223404)  (117, 0)  (118, 0)  (119, 0.0106927)  (123, 0)  (124, 0)  (125, 0.00250894)  (129, 0)  (130, 0)  (131, 0.00198325)  (132, 0)  (133, 0)  (134, 0.00225815)  (147, 0)  (148, 0)  (149, 0.00170835)  (159, 0)  (160, 0)  (161, 0.00534636) 
row 120: (3, -0.0032121)  (4, 0)  (5, 0)  (27, -0.00200689)  (28, 0)  (29, 0)  (33, -0.00275323)  (34, 0)  (35, 0)  (39, -0.0147946)  (40, 0)  (41, 0)  (42, -0.00246576)  (43, 0)  (44, 0)  (45, -0.0021783)  (46, 0)  (47, 0)  (54, -0.0021783)  (55, 0)  (56, 0)  (75, -0.00739729)  (76, 0)  (77, 0)  (84, 0.0032121)  (85, 0)  (86, 0)  (108, 0.00200689)  (109, 0)  (110, 0)  (114, 0.00275323)  (115, 0)  (116, 0)  (120, 0.0147946)  (121, 0)  (122, 0)  (123, 0.00246576)  (124, 0)  (125, 0)  (126, 0.0021783)  (127, 0)  (128, 0)  (135, 0.0021783)  (136, 0)  (137, 0)  (156, 0.00739729)  (157, 0)  (158, 0) 
row 121: (3, 0)  (4, -0.0032121)  (5, 0)  (27, 0)  (28, -0.00200689)  (29, 0)  (33, 0)  (34, -0.00275323)  (35, 0)  (39, 0)  (40, -0.0147946)  (41, 0)  (42, 0)  (43, -0.00246576)  (44, 0)  (45, 0)  (46, -0.0021783)  (47, 0)  (54, 0)  (55, -0.0021783)  (56, 0)  (75, 0)  (76, -0.00739729)  (77, 0)  (84, 0)  (85, 0.0032121)  (86, 0)  (108, 0)  (109, 0.00200689)  (110, 0)  (114, 0)  (115, 0.00275323)  (116, 0)  (120, 0)  (121, 0.0147946)  (122, 0)  (123, 0)  (124, 0.00246576)  (125, 0)  (126, 0)  (127, 0.0021783)  (128, 0)  (135, 0)  (136, 0.0021783)  (137, 0)  (156, 0)  (157, 0.00739729)  (158, 0) 
row 122: (3, 0)  (4, 0)  (5, -0.0032121)  (27, 0)  (28, 0)  (29, -0.00200689)  (33, 0)  (34, 0)  (35, -0.00275323)  (39, 0)  (40, 0)  (41, -0.0147946)  (42, 0)  (43, 0)  (44, -0.00246576)  (45, 0)  (46, 0)  (47, -0.0021783)  (54, 0)  (55, 0)  (56, -0.0021783)  (75, 0)  (76, 0)  (77, -0.00739729)  (84, 0)  (85, 0)  (86, 0.0032121)  (108, 0)  (109, 0)  (110, 0.00200689)  (114, 0)  (115, 0)  (116, 0.00275323)  (120, 0)  (121, 0)  (122, 0.0147946)  (123, 0)  (124, 0)  (125, 0.00246576)  (126, 0)  (127, 0)  (128, 0.0021783)  (135, 0)  (136, 0)  (137, 0.0021783)  (156, 0)  (157, 0)  (158, 0.00739729) 
row 123: (3, -0.00541588)  (4, 0)  (5, 0)  (24, -0.00344965)  (25, 0)  (26, 0)  (36, -0.00250894)  (37, 0)  (38, 0)  (39, -0.00246576)  (40, 0)  (41, 0)  (42, -0.0233855)  (43, 0)  (44, 0)  (51, -0.00380783)  (52, 0)  (53, 0)  (54, -0.0021783)  (55, 0)  (56, 0)  (75, -0.007114)  (76, 0)  (77, 0)  (78, -0.00813781)  (79, 0)  (80, 0)  (84, 0.00541588)  (85, 0)  (86, 0)  (105, 0.00344965)  (106, 0)  (107, 0)  (117, 0.00250894)  (118, 0)  (119, 0)  (120, 0.00246576)  (121, 0)  (122, 0)  (123, 0.0233855)  (124, 0)  (125, 0)  (132, 0.00380783)  (133, 0)  (134, 0)  (135, 0.0021783)  (136, 0)  (137, 0)  (156, 0.007114)  (157, 0)  (158, 0)  (159, 0.00813781)  (160, 0)  (161, 0) 
row 124: (3, 0)  (4, -0.00541588)  (5, 0)  (24, 0)  (25, -0.00344965)  (26, 0)  (36, 0)  (37, -0.00250894)  (38, 0)  (39, 0)  (40, -0.00246576)  (41, 0)  (42, 0)  (43, -0.0233855)  (44, 0)  (51, 0)  (52, -0.00380783)  (53, 0)  (54, 0)  (55, -0.0021783)  (56, 0)  (75, 0)  (76, -0.007114)  (77, 0)  (78, 0)  (79, -0.00813781)  (80, 0)  (84, 0)  (85, 0.00541588)  (86, 0)  (105, 0)  (106, 0.00344965)  (107, 0)  (117, 0)  (118, 0.00250894)  (119, 0)  (120, 0)  (121, 0.00246576)  (122, 0)  (123, 0)  (124, 0.0233855)  (125, 0)  (132, 0)  (133, 0.00380783)  (134, 0)  (135, 0)  (136, 0.0021783)  (137, 0)  (156, 0)  (157, 0.007114)  (158, 0)  (159, 0)  (160, 0.00813781)  (161, 0) 
row 125: (3, 0)  (4, 0)  (5, -0.00541588)  (24, 0)  (25, 0)  (26, -0.00344965)  (36, 0)  (37, 0)  (38, -0.00250894)  (39, 0)  (40, 0)  (41, -0.00246576)  (42, 0)  (43, 0)  (44, -0.0233855)  (51, 0)  (52, 0)  (53, -0.00380783)  (54, 0)  (55, 0)  (56, -0.0021783)  (75, 0)  (76, 0)  (77, -0.007114)  (78, 0)  (79, 0)  (80, -0.00813781)  (84, 0)  (85, 0)  (86, 0.00541588)  (105, 0)  (106, 0)  (107, 0.00344965)  (117, 0)  (118, 0)  (119, 0.00250894)  (120, 0)  (121, 0)  (122, 0.00246576)  (123, 0)  (124, 0)  (125, 0.0233855)  (132, 0)  (133, 0)  (134, 0.00380783)  (135, 0)  (136, 0)  (137, 0.0021783)  (156, 0)  (157, 0)  (158, 0.007114)  (159, 0)  (160, 0)  (161, 0.00813781) 
row 126: (27, -0.0028734)  (28, 0)  (29, 0)  (39, -0.0021783)  (40, 0)  (41, 0)  (45, -0.00979331)  (46, 0)  (47, 0)  (54, -0.00202326)  (55, 0)  (56, 0)  (57, -0.00271836)  (58, 0)  (59, 0)  (75, -0.00489665)  (76, 0)  (77, 0)  (108, 0.0028734)  (109, 0)  (110, 0)  (120, 0.0021783)  (121, 0)  (122, 0)  (126, 0.00979331)  (127, 0)  (128, 0)  (135, 0.00202326)  (136, 0)  (137, 0)  (138, 0.00271836)  (139, 0)  (140, 0)  (156, 0.00489665)  (157, 0)  (158, 0) 
row 127: (27, 0)  (28, -0.0028734)  (29, 0)  (39, 0)  (40, -0.0021783)  (41, 0)  (45, 0)  (46, -0.00979331)  (47, 0)  (54, 0)  (55, -0.00202326)  (56, 0)  (57, 0)  (58, -0.00271836)  (59, 0)  (75, 0)  (76, -0.00489665)  (77, 0)  (108, 0)  (109, 0.0028734)  (110, 0)  (120, 0)  (121, 0.0021783)  (122, 0)  (126, 0)  (127, 0.00979331)  (128, 0)  (135, 0)  (136, 0.00202326)  (137, 0)  (138, 0)  (139, 0.00271836)  (140, 0)  (156, 0)  (157, 0.00489665)  (158, 0) 
row 128: (27, 0)  (28, 0)  (29, -0.0028734)  (39, 0)  (40, 0)  (41, -0.0021783)  (45, 0)  (46, 0)  (47, -0.00979331)  (54, 0)  (55, 0)  (56, -0.00202326)  (57, 0)  (58, 0)  (59, -0.00271836)  (75, 0)  (76, 0)  (77, -0.00489665)  (108, 0)  (109, 0)  (110, 0.0028734)  (120, 0)  (121, 0)  (122, 0.0021783)  (126, 0)  (127, 0)  (128, 0.00979331)  (135, 0)  (136, 0)  (137, 0.00202326)  (138, 0)  (139, 0)  (140, 0.00271836)  (156, 0)  (157, 0)  (158, 0.00489665) 
row 129: (36, -0.00198325)  (37, 0)  (38, 0)  (48, -0.00847069)  (49, 0)  (50, 0)  (51, -0.00252699)  (52, 0)  (53, 0)  (63, -0.00225209)  (64, 0)  (65, 0)  (66, -0.00170835)  (67, 0)  (68, 0)  (78, -0.00423535)  (79, 0)  (80, 0)  (117, 0.00198325)  (118, 0)  (119, 0)  (129, 0.00847069)  (130, 0)  (131, 0)  (132, 0.00252699)  (133, 0)  (134, 0)  (144, 0.00225209)  (145, 0)  (146, 0)  (147, 0.00170835)  (148, 0)  (149, 0)  (159, 0.00423535)  (160, 0)  (161, 0) 
row 130: (36, 0)  (37, -0.00198325)  (38, 0)  (48, 0)  (49, -0.00847069)  (50, 0)  (51, 0)  (52, -0.00252699)  (53, 0)  (63, 0)  (64, -0.00225209)  (65, 0)  (66, 0)  (67, -0.00170835)  (68, 0)  (78, 0)  (79, -0.00423535)  (80, 0)  (117, 0)  (118, 0.00198325)  (119, 0)  (129, 0)  (130, 0.00847069)  (131, 0)  (132, 0)  (133, 0.00252699)  (134, 0)  (144, 0)  (145, 0.00225209)  (146, 0)  (147, 0)  (148, 0.00170835)  (149, 0)  (159, 0)  (160, 0.00423535)  (161, 0) 
row 131: (36, 0)  (37, 0)  (38, -0.00198325)  (48, 0)  (49, 0)  (50, -0.00847069)  (51, 0)  (52, 0)  (53, -0.00252699)  (63, 0)  (64, 0)  (65, -0.00225209)  (66, 0)  (67, 0)  (68, -0.00170835)  (78, 0)  (79, 0)  (80, -0.00423535)  (117, 0)  (118, 0)  (119, 0.00198325)  (129, 0)  (130, 0)  (131, 0.00847069)  (132, 0)  (133, 0)  (134, 0.00252699)  (144, 0)  (145, 0)  (146, 0.00225209)  (147, 0)  (148, 0)  (149, 0.00170835)  (159, 0)  (160, 0)  (161, 0.00423535) 
row 132: (0, -0.00549713)  (1, 0)  (2, 0)  (36, -0.00225815)  (37, 0)  (38, 0)  (42, -0.00380783)  (43, 0)  (44, 0)  (48, -0.00252699)  (49, 0)  (50, 0)  (51, -0.0236639)  (52, 0)  (53, 0)  (54, -0.00249031)  (55, 0)  (56, 0)  (63, -0.00349479)  (64, 0)  (65, 0)  (75, -0.00607902)  (76, 0)  (77, 0)  (78, -0.00934165)  (79, 0)  (80, 0)  (81, 0.00549713)  (82, 0)  (83, 0)  (117, 0.00225815)  (118, 0)  (119, 0)  (123, 0.00380783)  (124, 0)  (125, 0)  (129, 0.00252699)  (130, 0)  (131, 0)  (132, 0.0236639)  (133, 0)  (134, 0)  (135, 0.00249031)  (136, 0)  (137, 0)  (144, 0.00349479)  (145, 0)  (146, 0)  (156, 0.00607902)  (157, 0)  (158, 0)  (159, 0.00934165)  (160, 0)  (161, 0) 
row 133: (0, 0)  (1, -0.00549713)  (2, 0)  (36, 0)  (37, -0.00225815)  (38, 0)  (42, 0)  (43, -0.00380783)  (44, 0)  (48, 0)  (49, -0.00252699)  (50, 0)  (51, 0)  (52, -0.0236639)  (53, 0)  (54, 0)  (55, -0.00249031)  (56, 0)  (63, 0)  (64, -0.00349479)  (65, 0)  (75, 0)  (76, -0.00607902)  (77, 0)  (78, 0)  (79, -0.00934165)  (80, 0)  (81, 0)  (82, 0.00549713)  (83, 0)  (117, 0)  (118, 0.00225815)  (119, 0)  (123, 0)  (124, 0.00380783)  (125, 0)  (129, 0)  (130, 0.00252699)  (131, 0)  (132, 0)  (133, 0.0236639)  (134, 0)  (135, 0)  (136, 0.00249031)  (137, 0)  (144, 0)  (145, 0.00349479)  (146, 0)  (156, 0)  (157, 0.00607902)  (158, 0)  (159, 0)  (160, 0.00934165)  (161, 0) 
row 134: (0, 0)  (1, 0)  (2, -0.00549713)  (36, 0)  (37, 0)  (38, -0.00225815)  (42, 0)  (43, 0)  (44, -0.00380783)  (48, 0)  (49, 0)  (50, -0.00252699)  (51, 0)  (52, 0)  (53, -0.0236639)  (54, 0)  (55, 0)  (56, -0.00249031)  (63, 0)  (64, 0)  (65, -0.00349479)  (75, 0)  (76, 0)  (77, -0.00607902)  (78, 0)  (79, 0)  (80, -0.00934165)  (81, 0)  (82, 0)  (83, 0.00549713)  (117, 0)  (118, 0)  (119, 0.00225815)  (123, 0)  (124, 0)  (125, 0.00380783)  (129, 0)  (130, 0)  (131, 0.00252699)  (132, 0)  (133, 0)  (134, 0.0236639)  (135, 0)  (136, 0)  (137, 0.00249031)  (144, 0)  (145, 0)  (146, 0.00349479)  (156, 0)  (157, 0)  (158, 0.00607902)  (159, 0)  (160, 0)  (161, 0.00934165) 
row 135: (0, -0.00326938)  (1, 0)  (2, 0)  (39, -0.0021783)  (40, 0)  (41, 0)  (42, -0.0021783)  (43, 0)  (44, 0)  (45, -0.00202326)  (46, 0)  (47, 0)  (51, -0.00249031)  (52, 0)  (53, 0)  (54, -0.0149419)  (55, 0)  (56, 0)  (57, -0.00280233)  (58, 0)  (59, 0)  (75, -0.00747094)  (76, 0)  (77, 0)  (81, 0.00326938)  (82, 0)  (83, 0)  (120, 0.0021783)  (121, 0)  (122, 0)  (123, 0.0021783)  (124, 0)  (125, 0)  (126, 0.00202326)  (127, 0)  (128, 0)  (132, 0.00249031)  (133, 0)  (134, 0)  (135, 0.0149419)  (136, 0)  (137, 0)  (138, 0.00280233)  (139, 0)  (140, 0)  (156, 0.00747094)  (157, 0)  (158, 0) 
row 136: (0, 0)  (1, -0.00326938)  (2, 0)  (39, 0)  (40, -0.0021783)  (41, 0)  (42, 0)  (43, -0.0021783)  (44, 0)  (45, 0)  (46, -0.00202326)  (47, 0)  (51, 0)  (52, -0.00249031)  (53, 0)  (54, 0)  (55, -0.0149419)  (56, 0)  (57, 0)  (58, -0.00280233)  (59, 0)  (75, 0)  (76, -0.00747094)  (77, 0)  (81, 0)  (82, 0.00326938)  (83, 0)  (120, 0)  (121, 0.0021783)  (122, 0)  (123, 0)  (124, 0.0021783)  (125, 0)  (126, 0)  (127, 0.00202326)  (128, 0)  (132, 0)  (133, 0.00249031)  (134, 0)  (135, 0)  (136, 0.0149419)  (137, 0)  (138, 0)  (139, 0.00280233)  (140, 0)  (156, 0)  (157, 0.00747094)  (158, 0) 
row 137: (0, 0)  (1, 0)  (2, -0.00326938)  (39, 0)  (40, 0)  (41, -0.0021783)  (42, 0)  (43, 0)  (44, -0.0021783)  (45, 0)  (46, 0)  (47, -0.00202326)  (51, 0)  (52, 0)  (53, -0.00249031)  (54, 0)  (55, 0)  (56, -0.0149419)  (57, 0)  (58, 0)  (59, -0.00280233)  (75, 0)  (76, 0)  (77, -0.00747094)  (81, 0)  (82, 0)  (83, 0.00326938)  (120, 0)  (121, 0)  (122, 0.0021783)  (123, 0)  (124, 0)  (125, 0.0021783)  (126, 0)  (127, 0)  (128, 0.00202326)  (132, 0)  (133, 0)  (134, 0.00249031)  (135, 0)  (136, 0)  (137, 0.0149419)  (138, 0)  (139, 0)  (140, 0.00280233)  (156, 0)  (157, 0)  (158, 0.00747094) 
row 138: (0, -0.00812349)  (1, 0)  (2, 0)  (3, -0.00972768)  (4, 0)  (5, 0)  (27, -0.00356849)  (28, 0)  (29, 0)  (33, -0.00775118)  (34, 0)  (35, 0)  (45, -0.00271836)  (46, 0)  (47, 0)  (54, -0.00280233)  (55, 0)  (56, 0)  (57, -0.0371861)  (58, 0)  (59, 0)  (60, -0.00249452)  (61, 0)  (62, 0)  (72, -0.00814985)  (73, 0)  (74, 0)  (75, -0.0104432)  (76, 0)  (77, 0)  (81, 0.00812349)  (82, 0)  (83, 0)  (84, 0.00972768)  (85, 0)  (86, 0)  (108, 0.00356849)  (109, 0)  (110, 0)  (114, 0.00775118)  (115, 0)  (116, 0)  (126, 0.00271836)  (127, 0)  (128, 0)  (135, 0.00280233)  (136, 0)  (137, 0)  (138, 0.0371861)  (139, 0)  (140, 0)  (141, 0.00249452)  (142, 0)  (143, 0)  (153, 0.00814985)  (154, 0)  (155, 0)  (156, 0.0104432)  (157, 0)  (158, 0) 
row 139: (0, 0)  (1, -0.00812349)  (2, 0)  (3, 0)  (4, -0.00972768)  (5, 0)  (27, 0)  (28, -0.00356849)  (29, 0)  (33, 0)  (34, -0.00775118)  (35, 0)  (45, 0)  (46, -0.00271836)  (47, 0)  (54, 0)  (55, -0.00280233)  (56, 0)  (57, 0)  (58, -0.0371861)  (59, 0)  (60, 0)  (61, -0.00249452)  (62, 0)  (72, 0)  (73, -0.00814985)  (74, 0)  (75, 0)  (76, -0.0104432)  (77, 0)  (81, 0)  (82, 0.00812349)  (83, 0)  (84, 0)  (85, 0.00972768)  (86, 0)  (108, 0)  (109, 0.00356849)  (110, 0)  (114, 0)  (115, 0.00775118)  (116, 0)  (126, 0)  (127, 0.00271836)  (128, 0)  (135, 0)  (136, 0.00280233)  (137, 0)  (138, 0)  (139, 0.0371861)  (140, 0)  (141, 0)  (142, 0.00249452)  (143, 0)  (153, 0)  (154, 0.00814985)  (155, 0)  (156, 0)  (157, 0.0104432)  (158, 0) 
row 140: (0, 0)  (1, 0)  (2, -0.00812349)  (3, 0)  (4, 0)  (5, -0.00972768)  (27, 0)  (28, 0)  (29, -0.00356849)  (33, 0)  (34, 0)  (35, -0.00775118)  (45, 0)  (46, 0)  (47, -0.00271836)  (54, 0)  (55, 0)  (56, -0.00280233)  (57, 0)  (58, 0)  (59, -0.0371861)  (60, 0)  (61, 0)  (62, -0.00249452)  (72, 0)  (73, 0)  (74, -0.00814985)  (75, 0)  (76, 0)  (77, -0.0104432)  (81, 0)  (82, 0)  (83, 0.00812349)  (84, 0)  (85, 0)  (86, 0.00972768)  (108, 0)  (109, 0)  (110, 0.00356849)  (114, 0)  (115, 0)  (116, 0.00775118)  (126, 0)  (127, 0)  (128, 0.00271836)  (135, 0)  (136, 0)  (137, 0.00280233)  (138, 0)  (139, 0)  (140, 0.0371861)  (141, 0)  (142, 0)  (143, 0.00249452)  (153, 0)  (154, 0)  (155, 0.00814985)  (156, 0)  (157, 0)  (158, 0.0104432) 
row 141: (0, -0.00347857)  (1, 0)  (2, 0)  (6, -0.00347857)  (7, 0)  (8, 0)  (15, -0.00249452)  (16, 0)  (17, 0)  (30, -0.0022062)  (31, 0)  (32, 0)  (33, -0.0022062)  (34, 0)  (35, 0)  (57, -0.00249452)  (58, 0)  (59, 0)  (60, -0.0163586)  (61, 0)  (62, 0)  (72, -0.00817929)  (73, 0)  (74, 0)  (81, 0.00347857)  (82, 0)  (83, 0)  (87, 0.00347857)  (88, 0)  (89, 0)  (96, 0.00249452)  (97, 0)  (98, 0)  (111, 0.0022062)  (112, 0)  (113, 0)  (114, 0.0022062)  (115, 0)  (116, 0)  (138, 0.00249452)  (139, 0)  (140, 0)  (141, 0.0163586)  (142, 0)  (143, 0)  (153, 0.00817929)  (154, 0)  (155, 0) 
row 142: (0, 0)  (1, -0.00347857)  (2, 0)  (6, 0)  (7, -0.00347857)  (8, 0)  (15, 0)  (16, -0.00249452)  (17, 0)  (30, 0)  (31, -0.0022062)  (32, 0)  (33, 0)  (34, -0.0022062)  (35, 0)  (57, 0)  (58, -0.00249452)  (59, 0)  (60, 0)  (61, -0.0163586)  (62, 0)  (72, 0)  (73, -0.00817929)  (74, 0)  (81, 0)  (82, 0.00347857)  (83, 0)  (87, 0)  (88, 0.00347857)  (89, 0)  (96, 0)  (97, 0.00249452)  (98, 0)  (111, 0)  (112, 0.0022062)  (113, 0)  (114, 0)  (115, 0.0022062)  (116, 0)  (138, 0)  (139, 0.00249452)  (140, 0)  (141, 0)  (142, 0.0163586)  (143, 0)  (153, 0)  (154, 0.00817929)  (155, 0) 
row 143: (0, 0)  (1, 0)  (2, -0.00347857)  (6, 0)  (7, 0)  (8, -0.00347857)  (15, 0)  (16, 0)  (17, -0.00249452)  (30, 0)  (31, 0)  (32, -0.0022062)  (33, 0)  (34, 0)  (35, -0.0022062)  (57, 0)  (58, 0)  (59, -0.00249452)  (60, 0)  (61, 0)  (62, -0.0163586)  (72, 0)  (73, 0)  (74, -0.00817929)  (81, 0)  (82, 0)  (83, 0.00347857)  (87, 0)  (88, 0)  (89, 0.00347857)  (96, 0)  (97, 0)  (98, 0.00249452)  (111, 0)  (112, 0)  (113, 0.0022062)  (114, 0)  (115, 0)  (116, 0.0022062)  (138, 0)  (139, 0)  (140, 0.00249452)  (141, 0)  (142, 0)  (143, 0.0163586)  (153, 0)  (154, 0)  (155, 0.00817929) 
row 144: (0, -0.0033334)  (1, 0)  (2, 0)  (24, -0.0020907)  (25, 0)  (26, 0)  (48, -0.00225209)  (49, 0)  (50, 0)  (51, -0.00349479)  (52, 0)  (53, 0)  (63, -0.0153524)  (64, 0)  (65, 0)  (66, -0.00170835)  (67, 0)  (68, 0)  (69, -0.00247305)  (70, 0)  (71, 0)  (78, -0.0076762)  (79, 0)  (80, 0)  (81, 0.0033334)  (82, 0)  (83, 0)  (105, 0.0020907)  (106, 0)  (107, 0)  (129, 0.00225209)  (130, 0)  (131, 0)  (132, 0.00349479)  (133, 0)  (134, 0)  (144, 0.0153524)  (145, 0)  (146, 0)  (147, 0.00170835)  (148, 0)  (149, 0)  (150, 0.00247305)  (151, 0)  (152, 0)  (159, 0.0076762)  (160, 0)  (161, 0) 
row 145: (0, 0)  (1, -0.0033334)  (2, 0)  (24, 0)  (25, -0.0020907)  (26, 0)  (48, 0)  (49, -0.00225209)  (50, 0)  (51, 0)  (52, -0.00349479)  (53, 0)  (63, 0)  (64, -0.0153524)  (65, 0)  (66, 0)  (67, -0.00170835)  (68, 0)  (69, 0)  (70, -0.00247305)  (71, 0)  (78, 0)  (79, -0.0076762)  (80, 0)  (81, 0)  (82, 0.0033334)  (83, 0)  (105, 0)  (106, 0.0020907)  (107, 0)  (129, 0)  (130, 0.00225209)  (131, 0)  (132, 0)  (133, 0.00349479)  (134, 0)  (144, 0)  (145, 0.0153524)  (146, 0)  (147, 0)  (148, 0.00170835)  (149, 0)  (150, 0)  (151, 0.00247305)  (152, 0)  (159, 0)  (160, 0.0076762)  (161, 0) 
row 146: (0, 0)  (1, 0)  (2, -0.0033334)  (24, 0)  (25, 0)  (26, -0.0020907)  (48, 0)  (49, 0)  (50, -0.00225209)  (51, 0)  (52, 0)  (53, -0.00349479)  (63, 0)  (64, 0)  (65, -0.0153524)  (66, 0)  (67, 0)  (68, -0.00170835)  (69, 0)  (70, 0)  (71, -0.00247305)  (78, 0)  (79, 0)  (80, -0.0076762)  (81, 0)  (82, 0)  (83, 0.0033334)  (105, 0)  (106, 0)  (107, 0.0020907)  (129, 0)  (130, 0)  (131, 0.00225209)  (132, 0)  (133, 0)  (134, 0.00349479)  (144, 0)  (145, 0)  (146, 0.0153524)  (147, 0)  (148, 0)  (149, 0.00170835)  (150, 0)  (151, 0)  (152, 0.00247305)  (159, 0)  (160, 0)  (161, 0.0076762) 
row 147: (24, -0.00170835)  (25, 0)  (26, 0)  (36, -0.00170835)  (37, 0)  (38, 0)  (48, -0.00170835)  (49, 0)  (50, 0)  (63, -0.00170835)  (64, 0)  (65, 0)  (66, -0.00683341)  (67, 0)  (68, 0)  (78, -0.00341671)  (79, 0)  (80, 0)  (105, 0.00170835)  (106, 0)  (107, 0)  (117, 0.00170835)  (118, 0)  (119, 0)  (129, 0.00170835)  (130, 0)  (131, 0)  (144, 0.00170835)  (145, 0)  (146, 0)  (147, 0.00683341)  (148, 0)  (149, 0)  (159, 0.00341671)  (160, 0)  (161, 0) 
row 148: (24, 0)  (25, -0.00170835)  (26, 0)  (36, 0)  (37, -0.00170835)  (38, 0)  (48, 0)  (49, -0.00170835)  (50, 0)  (63, 0)  (64, -0.00170835)  (65, 0)  (66, 0)  (67, -0.00683341)  (68, 0)  (78, 0)  (79, -0.00341671)  (80, 0)  (105, 0)  (106, 0.00170835)  (107, 0)  (117, 0)  (118, 0.00170835)  (119, 0)  (129, 0)  (130, 0.00170835)  (131, 0)  (144, 0)  (145, 0.00170835)  (146, 0)  (147, 0)  (148, 0.00683341)  (149, 0)  (159, 0)  (160, 0.00341671)  (161, 0) 
row 149: (24, 0)  (25, 0)  (26, -0.00170835)  (36, 0)  (37, 0)  (38, -0.00170835)  (48, 0)  (49, 0)  (50, -0.00170835)  (63, 0)  (64, 0)  (65, -0.00170835)  (66, 0)  (67, 0)  (68, -0.00683341)  (78, 0)  (79, 0)  (80, -0.00341671)  (105, 0)  (106, 0)  (107, 0.00170835)  (117, 0)  (118, 0)  (119, 0.00170835)  (129, 0)  (130, 0)  (131, 0.00170835)  (144, 0)  (145, 0)  (146, 0.00170835)  (147, 0)  (148, 0)  (149, 0.00683341)  (159, 0)  (160, 0)  (161, 0.00341671) 
row 150: (0, -0.00247305)  (1, 0)  (2, 0)  (3, -0.00247305)  (4, 0)  (5, 0)  (24, -0.00247305)  (25, 0)  (26, 0)  (63, -0.00247305)  (64, 0)  (65, 0)  (69, -0.00989222)  (70, 0)  (71, 0)  (78, -0.00494611)  (79, 0)  (80, 0)  (81, 0.00247305)  (82, 0)  (83, 0)  (84, 0.00247305)  (85, 0)  (86, 0)  (105, 0.00247305)  (106, 0)  (107, 0)  (144, 0.00247305)  (145, 0)  (146, 0)  (150, 0.00989222)  (151, 0)  (152, 0)  (159, 0.00494611)  (160, 0)  (161, 0) 
row 151: (0, 0)  (1, -0.00247305)  (2, 0)  (3, 0)  (4, -0.00247305)  (5, 0)  (24, 0)  (25, -0.00247305)  (26, 0)  (63, 0)  (64, -0.00247305)  (65, 0)  (69, 0)  (70, -0.00989222)  (71, 0)  (78, 0)  (79, -0.00494611)  (80, 0)  (81, 0)  (82, 0.00247305)  (83, 0)  (84, 0)  (85, 0.00247305)  (86, 0)  (105, 0)  (106, 0.00247305)  (107, 0)  (144, 0)  (145, 0.00247305)  (146, 0)  (150, 0)  (151, 0.00989222)  (152, 0)  (159, 0)  (160, 0.00494611)  (161, 0) 
row 152: (0, 0)  (1, 0)  (2, -0.00247305)  (3, 0)  (4, 0)  (5, -0.00247305)  (24, 0)  (25, 0)  (26, -0.00247305)  (63, 0)  (64, 0)  (65, -0.00247305)  (69, 0)  (70, 0)  (71, -0.00989222)  (78, 0)  (79, 0)  (80, -0.00494611)  (81, 0)  (82, 0)  (83, 0.00247305)  (84, 0)  (85, 0)  (86, 0.00247305)  (105, 0)  (106, 0)  (107, 0.00247305)  (144, 0)  (145, 0)  (146, 0.00247305)  (150, 0)  (151, 0)  (152, 0.00989222)  (159, 0)  (160, 0)  (161, 0.00494611) 
row 153: (0, -0.00881825)  (1, 0)  (2, 0)  (3, -0.0116332)  (4, 0)  (5, 0)  (6, -0.00816693)  (7, 0)  (8, 0)  (9, -0.00815424)  (10, 0)  (11, 0)  (12, -0.00502404)  (13, 0)  (14, 0)  (15, -0.00577397)  (16, 0)  (17, 0)  (18, -0.00466579)  (19, 0)  (20, 0)  (21, -0.00435269)  (22, 0)  (23, 0)  (30, -0.00816152)  (31, 0)  (32, 0)  (33, -0.00642021)  (34, 0)  (35, 0)  (57, -0.00814985)  (58, 0)  (59, 0)  (60, -0.00817929)  (61, 0)  (62, 0)  (72, -0.0583333)  (73, 0)  (74, 0)  (81, 0.00881825)  (82, 0)  (83, 0)  (84, 0.0116332)  (85, 0)  (86, 0)  (87, 0.00816693)  (88, 0)  (89, 0)  (90, 0.00815424)  (91, 0)  (92, 0)  (93, 0.00502404)  (94, 0)  (95, 0)  (96, 0.00577397)  (97, 0)  (98, 0)  (99, 0.00466579)  (100, 0)  (101, 0)  (102, 0.00435269)  (103, 0)  (104, 0)  (111, 0.00816152)  (112, 0)  (113, 0)  (114, 0.00642021)  (115, 0)  (116, 0)  (138, 0.00814985)  (139, 0)  (140, 0)  (141, 0.00817929)  (142, 0)  (143, 0)  (153, 0.0583333)  (154, 0)  (155, 0) 
row 154: (0, 0)  (1, -0.00881825)  (2, 0)  (3, 0)  (4, -0.0116332)  (5, 0)  (6, 0)  (7, -0.00816693)  (8, 0)  (9, 0)  (10, -0.00815424)  (11, 0)  (12, 0)  (13, -0.00502404)  (14, 0)  (15, 0)  (16, -0.00577397)  (17, 0)  (18, 0)  (19, -0.00466579)  (20, 0)  (21, 0)  (22, -0.00435269)  (23, 0)  (30, 0)  (31, -0.00816152)  (32, 0)  (33, 0)  (34, -0.00642021)  (35, 0)  (57, 0)  (58, -0.00814985)  (59, 0)  (60, 0)  (61, -0.00817929)  (62, 0)  (72, 0)  (73, -0.0583333)  (74, 0)  (81, 0)  (82, 0.00881825)  (83, 0)  (84, 0)  (85, 0.0116332)  (86, 0)  (87, 0)  (88, 0.00816693)  (89, 0)  (90, 0)  (91, 0.00815424)  (92, 0)  (93, 0)  (94, 0.00502404)  (95, 0)  (96, 0)  (97, 0.00577397)  (98, 0)  (99, 0)  (100, 0.00466579)  (101, 0)  (102, 0)  (103, 0.00435269)  (104, 0)  (111, 0)  (112, 0.00816152)  (113, 0)  (114, 0)  (115, 0.00642021)  (116, 0)  (138, 0)  (139, 0.00814985)  (140, 0)  (141, 0)  (142, 0.00817929)  (143, 0)  (153, 0)  (154, 0.0583333)  (155, 0) 
row 155: (0, 0)  (1, 0)  (2, -0.00881825)  (3, 0)  (4, 0)  (5, -0.0116332)  (6, 0)  (7, 0)  (8, -0.00816693)  (9, 0)  (10, 0)  (11, -0.00815424)  (12, 0)  (13, 0)  (14, -0.00502404)  (15, 0)  (16, 0)  (17, -0.00577397)  (18, 0)  (19, 0)  (20, -0.00466579)  (21, 0)  (22, 0)  (23, -0.00435269)  (30, 0)  (31, 0)  (32, -0.00816152)  (33, 0)  (34, 0)  (35, -0.00642021)  (57, 0)  (58, 0)  (59, -0.00814985)  (60, 0)  (61, 0)  (62, -0.00817929)  (72, 0)  (73, 0)  (74, -0.0583333)  (81, 0)  (82, 0)  (83, 0.00881825)  (84, 0)  (85, 0)  (86, 0.0116332)  (87, 0)  (88, 0)  (89, 0.00816693)  (90, 0)  (91, 0)  (92, 0.00815424)  (93, 0)  (94, 0)  (95, 0.00502404)  (96, 0)  (97, 0)  (98, 0.00577397)  (99, 0)  (100, 0)  (101, 0.00466579)  (102, 0)  (103, 0)  (104, 0.00435269)  (111, 0)  (112, 0)  (113, 0.00816152)  (114, 0)  (115, 0)  (116, 0.00642021)  (138, 0)  (139, 0)  (140, 0.00814985)  (141, 0)  (142, 0)  (143, 0.00817929)  (153, 0)  (154, 0)  (155, 0.0583333) 
row 156: (0, -0.00968362)  (1, 0)  (2, 0)  (3, -0.0116329)  (4, 0)  (5, 0)  (27, -0.00557538)  (28, 0)  (29, 0)  (33, -0.00657365)  (34, 0)  (35, 0)  (39, -0.00739729)  (40, 0)  (41, 0)  (42, -0.007114)  (43, 0)  (44, 0)  (45, -0.00489665)  (46, 0)  (47, 0)  (51, -0.00607902)  (52, 0)  (53, 0)  (54, -0.00747094)  (55, 0)  (56, 0)  (57, -0.0104432)  (58, 0)  (59, 0)  (75, -0.0565358)  (76, 0)  (77, 0)  (78, -0.00793715)  (79, 0)  (80, 0)  (81, 0.00968362)  (82, 0)  (83, 0)  (84, 0.0116329)  (85, 0)  (86, 0)  (108, 0.00557538)  (109, 0)  (110, 0)  (114, 0.00657365)  (115, 0)  (116, 0)  (120, 0.00739729)  (121, 0)  (122, 0)  (123, 0.007114)  (124, 0)  (125, 0)  (126, 0.00489665)  (127, 0)  (128, 0)  (132, 0.00607902)  (133, 0)  (134, 0)  (135, 0.00747094)  (136, 0)  (137, 0)  (138, 0.0104432)  (139, 0)  (140, 0)  (156, 0.0565358)  (157, 0)  (158, 0)  (159, 0.00793715)  (160, 0)  (161, 0) 
row 157: (0, 0)  (1, -0.00968362)  (2, 0)  (3, 0)  (4, -0.0116329)  (5, 0)  (27, 0)  (28, -0.00557538)  (29, 0)  (33, 0)  (34, -0.00657365)  (35, 0)  (39, 0)  (40, -0.00739729)  (41, 0)  (42, 0)  (43, -0.007114)  (44, 0)  (45, 0)  (46, -0.00489665)  (47, 0)  (51, 0)  (52, -0.00607902)  (53, 0)  (54, 0)  (55, -0.00747094)  (56, 0)  (57, 0)  (58, -0.0104432)  (59, 0)  (75, 0)  (76, -0.0565358)  (77, 0)  (78, 0)  (79, -0.00793715)  (80, 0)  (81, 0)  (82, 0.00968362)  (83, 0)  (84, 0)  (85, 0.0116329)  (86, 0)  (108, 0)  (109, 0.00557538)  (110, 0)  (114, 0)  (115, 0.00657365)  (116, 0)  (120, 0)  (121, 0.00739729)  (122, 0)  (123, 0)  (124, 0.007114)  (125, 0)  (126, 0)  (127, 0.00489665)  (128, 0)  (132, 0)  (133, 0.00607902)  (134, 0)  (135, 0)  (136, 0.00747094)  (137, 0)  (138, 0)  (139, 0.0104432)  (140, 0)  (156, 0)  (157, 0.0565358)  (158, 0)  (159, 0)  (160, 0.00793715)  (161, 0) 
row 158: (0, 0)  (1, 0)  (2, -0.00968362)  (3, 0)  (4, 0)  (5, -0.0116329)  (27, 0)  (28, 0)  (29, -0.00557538)  (33, 0)  (34, 0)  (35, -0.00657365)  (39, 0)  (40, 0)  (41, -0.00739729)  (42, 0)  (43, 0)  (44, -0.007114)  (45, 0)  (46, 0)  (47, -0.00489665)  (51, 0)  (52, 0)  (53, -0.00607902)  (54, 0)  (55, 0)  (56, -0.00747094)  (57, 0)  (58, 0)  (59, -0.0104432)  (75, 0)  (76, 0)  (77, -0.0565358)  (78, 0)  (79, 0)  (80, -0.00793715)  (81, 0)  (82, 0)  (83, 0.00968362)  (84, 0)  (85, 0)  (86, 0.0116329)  (108, 0)  (109, 0)  (110, 0.00557538)  (114, 0)  (115, 0)  (116, 0.00657365)  (120, 0)  (121, 0)  (122, 0.00739729)  (123, 0)  (124, 0)  (125, 0.007114)  (126, 0)  (127, 0)  (128, 0.00489665)  (132, 0)  (133, 0)  (134, 0.00607902)  (135, 0)  (136, 0)  (137, 0.00747094)  (138, 0)  (139, 0)  (140, 0.0104432)  (156, 0)  (157, 0)  (158, 0.0565358)  (159, 0)  (160, 0)  (161, 0.00793715) 
row 159: (0, -0.00894799)  (1, 0)  (2, 0)  (3, -0.00889129)  (4, 0)  (5, 0)  (24, -0.00763106)  (25, 0)  (26, 0)  (36, -0.00534636)  (37, 0)  (38, 0)  (42, -0.00813781)  (43, 0)  (44, 0)  (48, -0.00423535)  (49, 0)  (50, 0)  (51, -0.00934165)  (52, 0)  (53, 0)  (63, -0.0076762)  (64, 0)  (65, 0)  (66, -0.00341671)  (67, 0)  (68, 0)  (69, -0.00494611)  (70, 0)  (71, 0)  (75, -0.00793715)  (76, 0)  (77, 0)  (78, -0.0510051)  (79, 0)  (80, 0)  (81, 0.00894799)  (82, 0)  (83, 0)  (84, 0.00889129)  (85, 0)  (86, 0)  (105, 0.00763106)  (106, 0)  (107, 0)  (117, 0.00534636)  (118, 0)  (119, 0)  (123, 0.00813781)  (124, 0)  (125, 0)  (129, 0.00423535)  (130, 0)  (131, 0)  (132, 0.00934165)  (133, 0)  (134, 0)  (144, 0.0076762)  (145, 0)  (146, 0)  (147, 0.00341671)  (148, 0)  (149, 0)  (150, 0.00494611)  (151, 0)  (152, 0)  (156, 0.00793715)  (157, 0)  (158, 0)  (159, 0.0510051)  (160, 0)  (161, 0) 
row 160: (0, 0)  (1, -0.00894799)  (2, 0)  (3, 0)  (4, -0.00889129)  (5, 0)  (24, 0)  (25, -0.00763106)  (26, 0)  (36, 0)  (37, -0.00534636)  (38, 0)  (42, 0)  (43, -0.00813781)  (44, 0)  (48, 0)  (49, -0.00423535)  (50, 0)  (51, 0)  (52, -0.00934165)  (53, 0)  (63, 0)  (64, -0.0076762)  (65, 0)  (66, 0)  (67, -0.00341671)  (68, 0)  (69, 0)  (70, -0.00494611)  (71, 0)  (75, 0)  (76, -0.00793715)  (77, 0)  (78, 0)  (79, -0.0510051)  (80, 0)  (81, 0)  (82, 0.00894799)  (83, 0)  (84, 0)  (85, 0.00889129)  (86, 0)  (105, 0)  (106, 0.00763106)  (107, 0)  (117, 0)  (118, 0.00534636)  (119, 0)  (123, 0)  (124, 0.00813781)  (125, 0)  (129, 0)  (130, 0.00423535)  (131, 0)  (132, 0)  (133, 0.00934165)  (134, 0)  (144, 0)  (145, 0.0076762)  (146, 0)  (147, 0)  (148, 0.00341671)  (149, 0)  (150, 0)  (151, 0.00494611)  (152, 0)  (156, 0)  (157, 0.00793715)  (158, 0)  (159, 0)  (160, 0.0510051)  (161, 0) 
row 161: (0, 0)  (1, 0)  (2, -0.00894799)  (3, 0)  (4, 0)  (5, -0.00889129)  (24, 0)  (25, 0)  (26, -0.00763106)  (36, 0)  (37, 0)  (38, -0.00534636)  (42, 0)  (43, 0)  (44, -0.00813781)  (48, 0)  (49, 0)  (50, -0.00423535)  (51, 0)  (52, 0)  (53, -0.00934165)  (63, 0)  (64, 0)  (65, -0.0076762)  (66, 0)  (67, 0)  (68, -0.00341671)  (69, 0)  (70, 0)  (71, -0.00494611)  (75, 0)  (76, 0)  (77, -0.00793715)  (78, 0)  (79, 0)  (80, -0.0510051)  (81, 0)  (82, 0)  (83, 0.00894799)  (84, 0)  (85, 0)  (86, 0.00889129)  (105, 0)  (106, 0)  (107, 0.00763106)  (117, 0)  (118, 0)  (119, 0.00534636)  (123, 0)  (124, 0)  (125, 0.00813781)  (129, 0)  (130, 0)  (131, 0.00423535)  (132, 0)  (133, 0)  (134, 0.00934165)  (144, 0)  (145, 0)  (146, 0.0076762)  (147, 0)  (148, 0)  (149, 0.00341671)  (150, 0)  (151, 0)  (152, 0.00494611)  (156, 0)  (157, 0)  (158, 0.00793715)  (159, 0)  (160, 0)  (161, 0.0510051) 
