149 187 17 20 
149 139 208 17 
149 187 139 17 
139 187 149 4 
139 149 208 4 
149 208 4 22 
22 168 149 178 
149 185 178 1 
1 168 178 149 
1 149 185 20 
1 185 178 15 
130 148 21 9 
130 148 12 21 
130 148 9 15 
130 148 15 12 
20 149 187 5 
149 4 5 22 
187 149 4 5 
149 209 208 22 
136 209 198 19 
17 198 149 20 
149 198 208 209 
136 208 198 209 
149 208 198 17 
208 136 198 17 
177 148 15 16 
177 148 12 15 
177 148 16 21 
177 148 21 12 
9 130 163 21 
163 14 21 12 
163 130 12 21 
203 162 134 13 
162 134 13 11 
203 134 16 13 
162 203 14 13 
210 154 127 7 
154 210 127 9 
210 154 10 9 
210 21 9 10 
168 215 127 1 
168 215 9 127 
168 127 7 1 
168 127 22 7 
168 127 9 22 
207 145 216 3 
207 145 5 216 
207 216 7 3 
207 216 22 7 
207 216 5 22 
210 125 7 1 
146 125 210 1 
120 125 146 1 
125 120 146 2 
125 146 210 2 
146 210 2 21 
163 9 21 10 
163 14 10 21 
215 168 178 1 
168 178 22 9 
215 178 15 1 
215 178 9 15 
215 178 168 9 
210 124 154 7 
124 210 154 6 
210 154 6 10 
210 21 10 6 
130 178 15 9 
130 178 12 15 
130 178 9 22 
130 178 22 12 
16 203 177 21 
203 12 21 14 
177 203 12 21 
210 127 1 7 
210 215 146 1 
210 127 215 1 
215 127 210 9 
215 210 146 9 
210 146 9 21 
207 121 145 3 
121 207 145 4 
207 145 4 5 
207 22 5 4 
210 125 124 7 
125 210 124 2 
210 124 2 6 
210 21 6 2 
147 161 126 8 
161 147 126 10 
147 161 14 10 
147 21 10 14 
216 122 2 5 
216 120 125 2 
216 122 120 2 
120 122 216 1 
120 216 125 1 
216 125 1 7 
198 136 19 18 
186 136 198 18 
135 136 186 18 
136 135 186 17 
136 186 198 17 
186 198 17 20 
20 186 198 185 
186 176 185 15 
15 186 176 18 
198 176 185 186 
18 198 176 19 
186 198 176 18 
15 176 185 178 
19 176 209 198 
20 198 149 185 
22 178 149 209 
209 178 198 176 
209 198 178 149 
198 178 185 176 
198 185 178 149 
8 126 147 6 
147 21 6 10 
147 126 10 6 
128 177 203 12 
177 203 16 13 
128 203 14 12 
128 203 13 14 
128 203 177 13 
147 161 8 162 
147 161 162 14 
147 162 8 11 
147 162 11 21 
147 162 21 14 
176 209 178 12 
209 178 12 22 
176 178 15 12 
209 176 19 12 
168 122 1 216 
168 122 216 5 
168 216 1 7 
168 216 7 22 
168 216 22 5 
122 168 1 149 
168 149 5 22 
122 149 1 20 
122 149 20 5 
122 149 5 168 
215 146 1 148 
146 148 9 21 
215 148 1 15 
215 148 15 9 
215 148 9 146 
162 203 134 21 
203 134 21 16 
162 134 11 21 
203 162 14 21 
145 216 2 5 
216 125 3 2 
216 125 7 3 
145 216 3 2 
31 183 190 9 
190 34 9 10 
190 183 10 9 
131 182 32 28 
158 182 131 28 
222 182 158 28 
182 222 158 8 
182 158 131 8 
158 131 8 31 
225 222 10 28 
222 126 6 10 
222 126 8 6 
225 222 6 10 
8 182 222 160 
159 182 222 28 
159 182 28 32 
222 159 160 182 
182 159 160 30 
30 182 159 32 
153 167 23 6 
167 166 6 26 
167 166 26 33 
153 167 6 26 
31 183 158 190 
158 189 190 10 
10 183 190 158 
10 158 189 28 
10 189 190 34 
183 158 8 31 
183 222 126 8 
183 158 222 8 
222 158 183 10 
222 183 126 10 
222 158 10 28 
30 165 159 160 
222 165 159 28 
222 165 28 33 
159 222 160 165 
165 222 160 8 
8 165 222 33 
28 225 189 10 
189 34 10 6 
189 225 6 10 
129 242 29 165 
242 165 27 33 
129 165 29 30 
129 165 30 27 
129 165 27 242 
7 124 154 34 
154 10 34 6 
154 124 6 34 
242 156 129 29 
156 242 129 25 
242 129 25 27 
242 33 27 25 
7 154 127 34 
154 9 34 10 
127 154 9 34 
159 165 30 29 
165 242 29 28 
165 242 28 33 
159 165 29 28 
151 188 26 6 
151 188 24 26 
151 188 6 34 
151 188 34 24 
28 225 155 189 
155 188 189 6 
6 225 189 155 
6 155 188 26 
6 188 189 34 
167 153 23 152 
167 153 152 26 
167 152 23 25 
167 152 25 33 
167 152 33 26 
166 225 6 155 
166 225 155 28 
166 155 6 26 
166 155 26 33 
166 155 33 28 
153 150 6 23 
150 151 24 153 
153 151 24 26 
153 151 6 150 
153 151 26 6 
242 156 29 26 
156 152 242 25 
242 152 33 25 
242 152 156 26 
242 152 26 33 
6 124 151 34 
151 24 34 7 
151 124 7 34 
155 242 29 26 
155 242 28 29 
155 242 26 33 
155 242 33 28 
166 225 222 6 
166 225 28 222 
166 222 8 6 
166 222 33 8 
166 222 28 33 
245 253 49 27 
253 129 245 29 
245 129 51 29 
245 129 253 27 
245 129 27 51 
184 250 44 245 
250 245 27 51 
184 245 44 49 
184 245 49 27 
184 245 27 250 
48 181 263 218 
263 250 218 41 
41 181 218 263 
41 263 250 51 
41 250 218 44 
49 253 245 252 
253 260 252 28 
28 253 260 29 
245 260 252 253 
29 245 260 51 
253 245 260 29 
175 259 268 50 
259 268 50 27 
175 268 41 50 
259 175 38 50 
269 231 132 39 
231 269 132 38 
269 231 43 38 
269 50 38 43 
25 170 275 152 
170 261 152 26 
26 170 261 36 
275 261 152 170 
36 275 261 51 
170 275 261 36 
254 47 46 48 
254 49 48 46 
261 155 260 29 
155 260 29 28 
261 260 51 29 
155 261 26 29 
38 280 259 50 
259 27 50 25 
259 280 25 50 
41 230 175 50 
230 38 50 43 
175 230 38 50 
280 172 132 38 
157 172 170 36 
25 132 157 39 
280 170 157 172 
157 132 280 172 
280 132 157 25 
280 157 170 25 
50 269 194 37 
269 35 37 39 
194 269 35 37 
268 184 27 250 
184 250 41 44 
268 250 27 51 
268 250 51 41 
268 250 41 184 
252 260 245 46 
260 245 46 51 
252 245 49 46 
260 252 28 46 
38 259 280 262 
275 259 280 25 
275 259 25 27 
280 275 262 259 
27 275 262 51 
259 275 262 27 
51 245 263 250 
218 245 263 48 
218 245 48 49 
263 218 250 245 
245 218 250 44 
44 245 218 49 
40 232 191 37 
191 50 37 43 
191 232 43 37 
41 133 230 219 
230 287 219 42 
42 133 219 230 
42 230 287 43 
42 287 219 45 
157 170 169 36 
170 157 169 25 
157 169 25 35 
157 39 35 25 
254 180 47 218 
254 180 218 44 
254 218 47 48 
254 218 48 49 
254 218 49 44 
275 156 129 25 
275 156 29 129 
275 129 27 25 
275 129 51 27 
275 129 29 51 
38 262 175 259 
268 262 175 41 
268 262 41 51 
175 268 259 262 
262 268 259 27 
27 262 268 51 
45 192 287 219 
230 192 287 43 
230 192 43 50 
287 230 219 192 
192 230 219 41 
41 192 230 50 
45 219 179 192 
179 193 192 41 
41 219 192 179 
41 179 193 44 
41 193 192 50 
51 263 245 46 
245 49 46 48 
245 263 48 46 
269 132 25 39 
132 280 38 269 
269 280 38 50 
269 280 25 132 
269 280 50 25 
50 194 269 25 
269 39 25 35 
269 194 35 25 
192 287 40 45 
192 232 191 40 
192 287 232 40 
232 287 192 43 
232 192 191 43 
192 191 43 50 
275 280 170 25 
172 280 262 38 
36 262 275 51 
275 262 172 280 
172 170 275 280 
275 170 172 36 
275 172 262 36 
43 232 287 42 
287 45 42 40 
287 232 40 42 
25 156 152 275 
261 156 152 26 
261 156 26 29 
152 261 275 156 
29 261 275 51 
156 261 275 29 
193 184 41 44 
184 268 27 193 
193 268 27 50 
193 268 41 184 
193 268 50 41 
39 269 231 37 
269 43 37 50 
231 269 43 37 
4 290 121 63 
290 3 63 53 
121 290 3 63 
272 200 201 58 
200 272 201 3 
272 200 53 3 
272 63 3 53 
56 299 227 325 
227 273 325 4 
4 299 325 227 
4 227 273 60 
4 273 325 63 
326 121 145 4 
326 121 3 145 
326 145 5 4 
326 145 62 5 
326 145 3 62 
61 137 226 204 
327 137 226 52 
327 137 52 60 
226 327 204 137 
137 327 204 4 
4 137 327 60 
56 325 164 299 
290 325 164 53 
290 325 53 63 
164 290 299 325 
325 290 299 4 
4 325 290 63 
326 327 290 4 
195 327 213 52 
53 213 326 62 
326 213 290 327 
195 290 213 327 
326 290 213 53 
290 195 213 53 
145 3 62 2 
145 5 2 62 
326 290 121 4 
290 326 121 3 
326 290 53 3 
326 62 3 53 
1 211 122 202 
205 211 122 5 
205 211 5 62 
122 205 202 211 
211 205 202 59 
59 211 205 62 
205 326 4 59 
205 326 5 4 
205 326 59 62 
205 326 62 5 
212 57 2 3 
212 62 3 2 
56 164 325 54 
325 63 54 53 
325 164 53 54 
211 122 120 1 
122 211 120 2 
211 122 5 2 
211 62 2 5 
56 197 299 164 
52 197 195 327 
4 327 290 299 
53 164 290 195 
290 299 197 164 
290 197 299 327 
290 197 195 164 
290 195 197 327 
196 271 325 55 
271 325 63 54 
196 325 56 55 
196 325 54 56 
196 325 271 54 
204 327 226 59 
327 226 59 52 
204 226 61 59 
327 204 4 59 
212 57 3 53 
212 62 53 3 
58 272 200 54 
272 53 54 63 
200 272 53 54 
213 327 326 59 
327 326 59 4 
213 326 62 59 
327 213 52 59 
56 227 299 197 
327 227 299 4 
327 227 4 60 
299 327 197 227 
227 327 197 52 
52 227 327 60 
325 273 271 63 
206 273 227 60 
55 227 325 56 
325 227 206 273 
206 271 325 273 
325 271 206 55 
325 206 227 55 
199 201 200 58 
201 199 200 3 
199 200 3 53 
199 57 53 3 
277 328 297 70 
328 297 79 64 
277 297 77 70 
277 297 64 77 
277 297 328 64 
285 297 77 64 
285 297 74 77 
285 297 64 79 
285 297 79 74 
75 140 286 329 
286 237 329 74 
74 140 329 286 
74 286 237 76 
74 237 329 78 
140 329 75 55 
329 330 55 74 
329 330 74 78 
140 329 55 74 
69 278 284 217 
278 229 217 68 
68 278 229 70 
284 229 217 278 
70 284 229 77 
278 284 229 70 
196 331 71 55 
196 331 54 71 
196 331 55 56 
196 331 56 54 
229 297 70 77 
297 328 68 70 
297 328 79 68 
229 297 68 70 
285 330 78 74 
285 330 64 78 
285 330 74 55 
285 330 55 64 
238 235 330 78 
332 235 220 65 
55 220 238 71 
238 220 332 235 
332 330 238 235 
238 330 332 55 
238 332 220 55 
237 286 329 73 
286 329 73 75 
237 329 78 73 
286 237 76 73 
55 196 298 71 
298 79 71 54 
298 196 54 71 
56 331 164 54 
331 53 54 71 
164 331 53 54 
65 220 332 333 
298 220 332 55 
298 220 55 71 
332 298 333 220 
71 298 333 79 
220 298 333 71 
79 328 333 67 
328 65 67 70 
333 328 65 67 
334 197 233 56 
224 197 236 52 
73 236 334 78 
334 236 233 197 
224 233 236 197 
334 233 236 73 
233 224 236 73 
72 296 223 71 
296 54 71 79 
223 296 54 71 
284 278 69 64 
278 277 284 70 
284 277 77 70 
284 277 278 64 
284 277 64 77 
296 221 67 72 
221 138 66 296 
296 138 66 79 
296 138 67 221 
296 138 79 67 
70 279 328 68 
328 79 68 66 
328 279 66 68 
65 214 333 332 
214 298 332 55 
55 214 298 64 
333 298 332 214 
64 333 298 79 
214 333 298 64 
171 296 72 71 
171 296 67 72 
171 296 71 79 
171 296 79 67 
328 277 65 70 
328 214 333 65 
328 277 214 65 
214 277 328 64 
214 328 333 64 
328 333 64 79 
56 233 334 234 
334 329 234 73 
73 233 234 334 
73 334 329 78 
73 329 234 75 
328 279 70 67 
279 138 328 66 
328 138 79 66 
328 138 279 67 
328 138 67 79 
78 330 238 334 
238 331 334 55 
55 330 334 238 
55 238 331 71 
55 331 334 56 
78 330 334 329 
334 234 329 55 
55 330 329 334 
55 334 234 56 
55 234 329 75 
285 298 55 74 
285 298 64 55 
285 298 74 79 
285 298 79 64 
236 197 195 52 
164 197 334 56 
53 334 236 78 
236 334 164 197 
164 195 236 197 
236 195 164 53 
236 164 334 53 
65 214 332 235 
330 214 332 55 
330 214 55 64 
332 330 235 214 
64 330 235 78 
214 330 235 64 
333 220 171 65 
333 220 71 171 
333 171 67 65 
333 171 79 67 
333 171 71 79 
56 164 331 334 
331 238 334 53 
53 164 334 331 
53 331 238 71 
53 238 334 78 
237 228 74 76 
228 285 64 237 
237 285 64 78 
237 285 74 228 
237 285 78 74 
85 335 247 87 
335 83 87 91 
247 335 83 87 
256 248 88 72 
248 336 256 85 
256 336 90 85 
256 336 248 72 
256 336 72 90 
256 88 80 72 
256 90 72 80 
86 305 249 142 
173 305 249 89 
173 305 89 91 
249 173 142 305 
305 173 142 87 
87 305 173 91 
173 337 88 87 
173 337 89 88 
173 337 87 91 
173 337 91 89 
85 247 335 66 
335 91 66 83 
335 247 83 66 
248 337 335 87 
337 335 87 91 
248 335 85 87 
337 248 88 87 
338 257 255 90 
241 257 243 82 
65 243 338 67 
338 243 241 257 
241 255 338 257 
338 255 241 65 
338 241 243 65 
338 243 257 85 
243 257 85 82 
338 257 90 85 
243 338 67 85 
251 304 81 337 
304 337 89 91 
251 337 81 88 
251 337 88 89 
251 337 89 304 
247 141 83 66 
141 244 247 84 
247 244 85 84 
247 244 141 66 
247 244 66 85 
138 221 66 336 
221 336 67 72 
138 336 66 85 
138 336 85 67 
138 336 67 221 
244 66 85 82 
244 84 82 85 
239 71 90 72 
239 80 72 90 
338 171 65 67 
338 220 255 65 
338 171 220 65 
220 171 338 71 
220 338 255 71 
338 255 71 90 
240 80 88 72 
240 81 72 88 
303 335 337 91 
248 335 336 85 
72 337 248 88 
303 336 337 335 
248 337 336 335 
303 337 336 72 
337 248 336 72 
67 338 171 72 
338 71 72 90 
171 338 71 72 
337 304 303 91 
304 337 303 72 
337 304 81 72 
337 88 72 81 
338 336 72 67 
338 336 90 72 
338 336 67 85 
338 336 85 90 
305 246 142 86 
246 305 142 83 
305 142 83 87 
305 91 87 83 
67 138 243 85 
243 82 85 66 
243 138 66 85 
72 221 336 303 
336 335 303 66 
66 221 303 336 
66 336 335 85 
66 335 303 91 
339 340 341 86 
340 341 112 111 
339 341 109 86 
339 341 111 109 
339 341 340 111 
343 319 342 108 
319 343 342 101 
343 319 109 101 
343 111 101 109 
342 343 108 105 
343 344 105 101 
343 344 101 111 
342 343 105 101 
112 341 345 101 
341 96 101 109 
345 341 96 101 
310 317 93 100 
317 315 96 93 
317 315 109 96 
310 317 96 93 
112 345 341 346 
345 315 346 93 
93 345 315 96 
341 315 346 345 
96 341 315 109 
345 341 315 96 
112 340 346 341 
346 315 341 86 
86 340 341 346 
86 346 315 93 
86 315 341 109 
346 307 143 93 
308 307 347 95 
94 347 346 112 
346 347 143 307 
308 143 347 307 
346 143 347 94 
143 308 347 94 
346 143 309 93 
143 346 309 94 
346 309 94 97 
346 112 97 94 
341 109 101 111 
341 112 111 101 
86 339 340 348 
339 349 348 107 
107 339 349 111 
340 349 348 339 
111 340 349 112 
339 340 349 111 
318 123 89 274 
318 123 274 105 
318 274 89 106 
318 274 106 108 
318 274 108 105 
86 348 142 339 
350 348 142 87 
350 348 87 107 
142 350 339 348 
107 350 339 111 
348 350 339 107 
107 349 282 111 
349 101 111 112 
282 349 101 111 
339 320 249 86 
318 320 343 108 
89 343 339 111 
339 343 249 320 
318 249 343 320 
339 249 343 89 
249 318 343 89 
283 264 351 92 
283 264 97 351 
283 351 95 92 
283 351 107 95 
283 351 97 107 
282 344 105 107 
282 344 101 105 
282 344 107 111 
282 344 111 101 
174 352 101 103 
352 342 105 101 
352 342 108 105 
174 352 105 101 
87 173 350 88 
350 111 88 89 
350 173 89 88 
103 352 144 106 
352 102 106 108 
144 352 102 106 
98 270 312 316 
312 353 316 102 
102 270 316 312 
102 312 353 104 
102 353 316 110 
85 281 248 87 
281 88 87 107 
248 281 88 87 
351 347 349 95 
347 349 112 97 
351 349 107 95 
351 349 97 107 
351 349 347 97 
105 344 276 107 
344 88 107 111 
276 344 88 107 
110 353 314 102 
314 108 102 104 
314 353 104 102 
108 319 320 343 
339 319 320 86 
339 319 86 109 
320 339 343 319 
109 339 343 111 
319 339 343 109 
352 174 274 103 
352 174 105 274 
352 274 106 103 
352 274 108 106 
352 274 105 108 
112 349 345 97 
349 96 97 107 
345 349 96 97 
347 351 308 95 
351 347 308 94 
347 351 97 94 
347 112 94 97 
112 347 340 349 
348 347 340 86 
348 347 86 95 
340 348 349 347 
95 348 349 107 
347 348 349 95 
314 319 108 104 
353 319 314 104 
354 319 353 104 
319 354 353 109 
319 353 314 109 
353 314 109 110 
306 281 85 87 
306 281 95 85 
306 281 87 107 
306 281 107 95 
354 311 104 100 
317 311 354 100 
310 311 317 100 
311 310 317 96 
311 317 354 96 
317 354 96 109 
309 346 93 345 
346 345 97 112 
309 345 93 96 
309 345 96 97 
309 345 97 346 
282 349 107 96 
349 345 96 101 
349 345 101 112 
282 349 96 101 
112 340 347 346 
347 307 346 86 
86 340 346 347 
86 347 307 95 
86 307 346 93 
348 142 306 86 
348 142 87 306 
348 306 95 86 
348 306 107 95 
348 306 87 107 
258 283 281 95 
283 281 95 107 
258 281 85 95 
283 258 92 95 
313 342 352 101 
342 352 108 104 
313 352 103 101 
313 352 104 103 
313 352 342 104 
353 354 104 100 
354 317 353 109 
353 317 110 109 
353 317 354 100 
353 317 100 110 
308 351 92 95 
351 264 94 92 
351 264 97 94 
308 351 94 92 
350 87 88 107 
350 111 107 88 
344 276 123 105 
276 344 123 88 
344 123 88 89 
344 111 89 88 
350 142 173 87 
249 142 339 86 
89 339 350 111 
350 339 173 142 
249 173 339 142 
350 173 339 89 
173 249 339 89 
343 318 108 105 
344 318 343 105 
123 318 344 105 
318 123 344 89 
318 344 343 89 
344 343 89 111 
96 311 310 99 
311 100 99 104 
310 311 100 99 
319 342 108 104 
354 342 319 104 
313 342 354 104 
342 313 354 101 
342 354 319 101 
354 319 101 109 
103 144 352 104 
352 108 104 102 
352 144 102 104 
354 311 313 104 
311 354 313 96 
354 313 96 101 
354 109 101 96 
312 266 265 98 
266 312 265 99 
312 266 100 99 
312 104 99 100 
98 266 316 312 
316 353 312 100 
100 266 312 316 
100 316 353 110 
100 353 312 104 
321 355 144 102 
355 321 144 37 
321 144 37 103 
321 113 103 37 
118 356 300 37 
300 113 37 103 
300 356 103 37 
105 274 174 301 
356 274 174 103 
356 274 103 106 
174 356 301 274 
106 356 301 118 
274 356 301 106 
102 295 355 324 
357 295 355 37 
357 295 37 114 
355 357 324 295 
114 357 324 119 
295 357 324 114 
36 169 322 292 
322 323 292 35 
35 169 292 322 
35 322 323 119 
35 323 292 117 
36 169 157 322 
157 358 322 35 
35 169 322 157 
35 157 358 39 
35 358 322 119 
119 358 357 35 
358 37 35 39 
357 358 37 35 
358 157 132 39 
172 157 322 36 
38 322 358 119 
358 322 172 157 
172 132 358 157 
358 132 172 38 
358 172 322 38 
356 103 37 106 
356 118 106 37 
102 355 295 115 
295 114 115 37 
295 355 37 115 
359 357 37 35 
359 357 106 37 
359 357 35 119 
359 357 119 106 
39 358 267 132 
288 358 267 114 
288 358 114 119 
267 288 132 358 
358 288 132 38 
38 358 288 119 
357 355 324 106 
355 324 106 102 
357 324 119 106 
355 357 37 106 
267 358 39 37 
358 357 37 114 
358 357 114 119 
267 358 37 114 
35 359 302 37 
302 118 37 106 
302 359 106 37 
118 300 356 101 
300 103 101 113 
356 300 103 101 
289 321 37 113 
321 355 102 289 
289 355 102 115 
289 355 37 321 
289 355 115 37 
359 291 294 117 
291 294 117 116 
359 294 106 117 
291 359 35 117 
359 323 117 106 
359 323 35 117 
359 323 106 119 
359 323 119 35 
102 355 144 106 
144 103 106 37 
144 355 37 106 
356 174 301 101 
174 301 101 105 
356 301 118 101 
174 356 103 101 
35 302 359 291 
294 302 359 106 
294 302 106 118 
359 294 291 302 
302 294 291 116 
116 302 294 118 
105 301 293 274 
294 301 293 116 
294 301 116 118 
293 294 274 301 
301 294 274 106 
106 301 294 118 
