<<<< Temperature >>>>>
0.000
0.000
0.000
0.000
0.000
0.000
0.000
0.000
0.000
1.000
1.000
1.000
1.000
1.000
1.000
1.000
1.000
1.000
0.500
0.500
0.667
0.500
0.667
0.500
0.667
0.667
0.720
0.398
0.398
0.284
0.662
